<svg width="2" height="2" viewBox="0 0 2 2" fill="none" xmlns="http://www.w3.org/2000/svg" xmlns:xlink="http://www.w3.org/1999/xlink">
<path d="M1.441,1.648L1.282,1.752L0.78,1.545L0.604,1.294L0.582,0.499L0.892,0.423L1.473,1.053L1.811,1.282L1.441,1.648Z" fill="#7699BB" stroke="#DCDCDC" stroke-width="0.5" stroke-miterlimit="3.999327"/>
</svg>
