<svg width="2" height="2" viewBox="0 0 2 2" fill="none" xmlns="http://www.w3.org/2000/svg" xmlns:xlink="http://www.w3.org/1999/xlink">
<path d="M0.716,0.45L0.63,0.456L0.564,0.412L0.504,0.332L0.47,0.252L0.478,0.205L0.528,0.227L0.896,0.278L0.856,0.338L0.792,0.401L0.716,0.45Z" fill="#4B91EC" stroke="#DCDCDC" stroke-width="0.5" stroke-miterlimit="3.999327"/>
</svg>
