<svg width="2" height="2" viewBox="0 0 2 2" fill="none" xmlns="http://www.w3.org/2000/svg" xmlns:xlink="http://www.w3.org/1999/xlink">
<path d="M1.136,0.583L0.956,0.584L0.728,0.544L0.58,0.523L0.564,0.472L0.622,0.317L0.742,0.241L0.98,0.252L1.142,0.359L1.156,0.535L1.136,0.583Z" fill="#4B91EC" stroke="#DCDCDC" stroke-width="0.5" stroke-miterlimit="3.999327"/>
</svg>
