<svg width="42" height="32" viewBox="0 0 42 32" fill="none" xmlns="http://www.w3.org/2000/svg" xmlns:xlink="http://www.w3.org/1999/xlink">
<path d="M4.35,24.602L4.19,24.702L3.892,24.98L3.594,25.205L2.993,25.555L2.857,25.764L2.723,25.575L2.461,25.704L2.241,26.498L1.781,26.763L1.206,26.739L0.726,26.665L0.083,26.714L0.344,26.253L0.616,25.652L0.884,24.842L1.358,24.168L2.339,21.873L2.907,20.942L3.108,19.617L3.986,18.457L4.641,18.112L4.959,17.779L4.951,17.275L5.931,17.278L6.562,17.253L6.744,16.97L7.238,17.099L7.511,17.371L7.264,17.66L6.914,17.988L6.934,18.074L7.196,18.101L7.639,18.279L7.911,18.488L8.365,19.784L8.085,20.316L7.649,20.791L7.455,20.833L7.074,21.069L6.754,21.392L6.642,21.596L6.666,21.786L7.118,22.024L7.132,22.12L7.038,22.197L6.672,22.144L6.2,22.119L5.923,22.12L5.601,22.168L5.189,22.458L5.005,22.651L4.907,22.774L4.759,23.168L4.925,23.438L5.233,23.593L5.277,23.671L5.207,23.807L4.901,23.978L4.671,24.186L4.605,24.399L4.35,24.602Z" fill="#CCAA5A" stroke="#DCDCDC" stroke-width="0.5" stroke-miterlimit="3.999327"/>
<path d="M40.753,1.752L40.753,1.837L40.703,2.057L40.07,2.689L39.21,3.545L38.593,4.086L37.553,4.994L36.776,5.188L35.469,5.515L35.117,5.831L34.789,6.343L34.597,7.042L34.541,7.478L34.508,8.291L34.813,9.135L35.107,9.943L35.145,10.477L35.115,11.002L34.831,11.563L34.522,12.331L34.344,13.197L34.25,14.814L34.248,16.189L34.222,16.412L33.684,17.378L33.056,18.507L32.765,18.767L31.388,19.103L29.885,19.927L28.204,20.847L26.679,21.681L25.078,22.554L23.417,23.458L22.23,24.103L20.641,24.965L19.194,25.788L17.729,26.621L16.614,27.251L14.923,28.248L13.931,28.832L12.474,29.689L11.191,30.443L9.674,31.332L7.771,31.069L7.17,30.915L6.678,30.492L6.317,30.265L5.417,30.032L4.839,29.232L4.494,28.948L3.89,28.821L3.97,28.534L4.282,28.052L4.598,27.525L4.422,27.233L4.364,26.982L4.344,26.684L4.56,26.399L4.458,26.054L4.292,25.709L4.17,25.535L4.17,25.217L4.25,24.974L4.35,24.602L4.606,24.399L4.672,24.186L4.901,23.977L5.207,23.807L5.277,23.671L5.233,23.593L4.925,23.438L4.759,23.168L4.907,22.774L5.005,22.65L5.189,22.458L5.601,22.167L5.923,22.12L6.201,22.118L6.672,22.144L7.038,22.196L7.132,22.12L7.118,22.024L6.666,21.786L6.642,21.595L6.754,21.392L7.074,21.069L7.456,20.833L7.65,20.791L8.085,20.316L8.365,19.784L7.911,18.487L7.64,18.278L7.196,18.101L6.934,18.073L6.914,17.988L7.264,17.659L7.512,17.371L7.238,17.098L6.744,16.97L6.562,17.253L5.931,17.278L4.951,17.275L4.52,15.898L4.454,15.301L4.466,14.609L4.763,13.596L4.624,13.126L4.612,12.808L4.536,12.373L3.762,11.432L4.184,9.696L4.482,9.275L4.901,9.315L5.797,9.809L5.945,9.795L6.216,9.145L6.48,8.925L7.032,8.731L7.19,7.678L7.448,7.476L7.76,7.367L8.239,7.345L8.655,7.284L8.681,7.098L8.097,5.877L8.149,5.566L8.431,4.335L8.609,3.852L8.779,3.694L9.44,3.756L10.366,3.974L10.612,4.328L11.065,4.644L11.743,4.622L12.528,4.682L13.14,4.702L13.63,4.48L14.735,4.067L15.28,3.929L15.778,3.745L17.377,3.066L18.019,3.119L18.456,3.208L18.792,3.317L19.544,3.78L20.165,4.248L20.603,4.388L21.386,4.377L22.52,4.468L23.911,4.46L24.724,4.33L25.761,4.099L27.612,3.545L30.047,2.385L31.478,1.821L32.095,1.753L32.899,1.748L33.702,1.895L34.613,2L35.035,1.991L36.021,1.875L37.3,1.639L38.103,1.447L39.074,1.131L39.68,0.604L39.876,0.55L40.128,0.646L40.246,0.682L40.493,0.98L40.753,1.752Z" fill="#4B91EC" stroke="#DCDCDC" stroke-width="0.5" stroke-miterlimit="3.999327"/>
</svg>
