<svg width="202" height="148" viewBox="0 0 202 148" fill="none" xmlns="http://www.w3.org/2000/svg" xmlns:xlink="http://www.w3.org/1999/xlink">
<path d="M113.379,66.841L113.775,67.482L113.964,67.707L115.599,69.221L115.915,69.581L116.725,70.679L117.22,71.42L117.79,72.486L117.844,73.065L117.77,73.559L117.656,74.962L117.508,75.365L116.79,76.12L116.758,76.46L116.908,76.743L117.124,76.859L117.26,76.999L117.178,77.653L117.436,77.909L117.974,78.079L119.335,78.196L120.042,78.29L120.6,78.421L120.866,78.484L121.012,78.715L120.784,79.468L120.942,79.938L121.407,80.336L121.879,80.505L122.331,80.603L123.906,80.848L124.559,81.124L125.423,82.006L126.506,82.809L126.77,83.234L126.722,83.62L126.4,84.089L126.45,84.281L126.948,84.751L127.517,85.231L128.561,85.765L130.367,86.601L131.197,87.161L131.479,87.584L131.942,88.045L132.588,88.466L133.022,88.791L132.722,89.708L132.812,90.009L132.974,90.271L133.351,90.632L133.501,91.095L133.875,91.674L134.321,91.937L135.066,92.035L135.458,92.304L136.277,92.765L137.069,93.163L137.407,93.435L137.617,93.678L137.796,93.965L137.886,94.252L137.904,94.871L138.04,95.639L138.466,96.164L138.862,96.556L137.245,96.106L137.003,96.097L136.717,96.175L135.872,96.727L135.604,96.796L135.296,96.747L134.539,96.679L131.964,96.242L129.982,95.823L129.386,95.67L128.327,95.525L127.627,95.812L126.97,96.794L126.782,96.988L125.748,97.277L125.261,97.199L124.068,97.467L122.225,97.061L121.567,97.141L121.05,97.346L119.726,97.791L118.923,98.045L117.988,98.275L117.1,98.629L116.503,98.822L115.919,98.82L115.391,98.62L114.814,98.448L114.124,98.413L113.405,98.513L112.793,98.905L112.545,99.185L112.016,99.927L111.39,101.135L111.144,101.378L111.076,101.402L110.922,101.503L108.04,100.901L106.799,100.761L105.962,100.946L104.911,100.608L104.451,100.548L104.235,100.655L103.649,100.503L102.698,100.091L101.785,99.918L100.967,99.978L100.467,99.84L100.064,99.441L99.544,98.706L98.605,97.976L97.35,97.393L96.564,96.952L96.252,96.658L95.575,96.494L94.537,96.463L93.542,96.752L92.111,97.663L90.784,99.532L90.045,100.247L89.451,100.43L89.301,100.882L89.595,101.598L89.673,102.42L89.465,103.818L89.541,104.835L89.225,104.673L88.921,104.198L88.779,104.101L87.902,104.316L87.448,104.508L87.206,104.697L87.021,104.726L86.743,104.466L86.523,104.419L86.179,104.466L85.825,104.463L85.597,104.428L85.446,104.452L85.032,104.297L83.525,103.905L83.267,103.775L82.965,103.789L82.184,104.13L81.77,104.225L80.523,104.437L79.188,104.541L78.676,104.546L78.324,104.699L78.099,104.911L77.945,105.385L77.683,106.202L77.573,106.422L77.593,106.747L77.515,107.293L77.477,107.783L77.527,108.112L77.149,108.775L76.691,109.577L76.312,110.265L75.928,110.957L75.662,110.483L75.498,109.927L75.434,109.29L75.47,109.121L75.368,108.932L75.36,108.891L75.233,108.41L75.362,108.074L75.256,107.723L74.945,107.378L74.663,107.113L74.499,106.875L74.365,106.774L74.055,106.737L73.638,106.614L73.084,106.095L72.548,105.59L71.861,104.944L71.311,104.385L70.636,103.7L70.012,103.066L69.638,102.456L69.486,102.106L69.668,102.072L69.938,102.064L70.052,102.001L70.058,101.837L69.78,101.356L69.648,100.743L69.418,100.369L68.693,99.793L68.001,99.356L67.781,99.13L67.658,98.809L67.392,96.779L67.274,96.202L67.056,95.95L66.898,95.832L66.838,95.688L66.866,95.327L66.958,95.004L66.954,94.877L67.142,94.593L67.142,92.712L67.04,92.616L66.918,92.453L66.724,92.466L66.502,92.449L66.282,92.175L66.099,91.83L66.153,91.585L66.344,91.382L66.554,91.202L66.82,91.053L67.606,90.752L67.827,90.601L67.967,90.416L68.059,90.165L68.515,89.196L69.195,88.23L69.484,88.03L69.774,87.391L70.172,86.609L70.332,86.244L70.45,85.881L70.67,85.588L71.417,85.105L71.983,84.259L72.596,84.305L73.224,84.439L74.029,84.506L74.661,84.343L75.071,84.013L75.972,83.749L77.025,83.444L77.167,82.99L77.477,82.753L77.835,82.542L77.959,82.515L77.985,82.665L78.202,83.139L78.648,83.606L79.302,84.121L79.488,84.089L79.893,83.698L80.913,83.457L81.171,83.35L81.894,82.782L82.765,82.417L82.957,82.384L83.271,82.288L84.15,81.91L84.776,81.961L85.781,81.901L87.458,81.723L88.669,81.663L89.283,81.592L89.435,81.516L89.673,80.97L89.855,80.815L90.31,80.579L91.202,79.755L91.787,79.058L91.951,78.826L91.965,78.807L92.085,78.764L92.337,78.47L92.087,78.167L91.088,77.547L91.102,77.464L91.046,77.359L91.1,77.273L91.482,77.021L91.995,76.734L92.543,76.627L93.972,76.649L95.191,76.587L95.475,76.602L96.426,76.454L97.076,76.324L97.743,76.026L99.256,76.057L100.515,75.298L100.879,75.164L101.037,75.046L101.085,74.929L101.675,74.628L102.334,74.005L102.856,73.444L102.998,73.049L104.425,71.707L104.922,71.734L105.166,71.569L105.732,70.672L105.908,70.509L106.174,70.452L106.495,70.351L106.775,70.086L107.017,69.69L107.019,69.201L106.909,68.809L106.909,68.619L107.045,68.444L107.273,68.268L108.356,67.785L108.632,67.551L108.796,67.341L109.1,67.302L109.431,67.324L109.641,67.193L109.877,66.974L110.629,66.678L111.324,66.447L112.056,66.543L112.651,66.663L113.139,66.803L113.379,66.841Z" fill="#A1A28A" stroke="#DCDCDC" stroke-width="0.5" stroke-miterlimit="3.999327"/>
<path d="M89.541,104.835L89.607,105.719L89.187,106.819L88.871,107.643L88.044,109.005L87.304,110.225L86.523,112.258L86.527,113.745L86.441,114.68L86.185,115.252L85.569,116.79L85.477,118.113L85.697,119.731L85.487,121.265L84.846,122.714L84.57,123.854L84.73,125.229L83.553,126.372L82.072,127.509L81.113,127.837L80.367,128.221L79.835,128.654L79.661,128.89L79.274,129.417L78.392,131.049L77.933,131.764L77.331,132.376L76.436,133.123L76.108,133.475L75.974,133.987L76.032,134.927L76.118,137.794L75.968,138.625L75.722,139.992L74.843,141.525L74.183,142.376L73.524,142.638L72.656,142.868L72.24,143.157L71.987,143.584L71.503,143.954L70.789,144.272L69.886,145.051L68.797,146.292L68.051,147.004L67.651,147.187L67.238,147.204L66.808,147.055L66.45,147.035L66.27,147.102L66.155,147.048L65.985,146.931L65.991,146.645L65.941,146.171L65.731,145.682L65.981,145.29L66.204,144.992L66.165,144.836L65.941,144.588L65.691,144.23L65.455,144.255L64.953,144.528L64.432,144.742L63.944,144.831L63.56,145.052L63.35,145.172L63.021,145.172L62.837,145.04L62.435,144.913L62.217,144.956L62.093,145.018L62.041,145.468L61.993,145.849L61.915,146.207L61.772,146.374L61.166,146.552L60.754,146.797L60.4,146.962L60.181,146.921L59.741,146.596L59.303,146.294L59.061,146.04L58.925,145.858L58.837,145.779L58.562,145.766L58.48,145.933L58.342,145.855L57.912,145.512L57.404,144.971L57.221,144.887L56.941,144.896L56.497,145.096L56.061,145.406L55.276,145.693L54.62,145.853L54.56,146.049L54.406,146.387L54.191,146.597L53.609,146.663L53.399,146.964L52.897,147.545L52.566,147.81L52.478,147.698L52.276,147.556L51.864,147.106L51.456,146.545L51.348,146.291L51.233,146.145L51.215,145.582L50.601,144.914L49.062,143.727L48.898,143.373L47.583,142.287L47.919,141.505L48.169,141.142L48.47,140.891L49.682,140.277L49.865,140.301L50.701,141.098L50.967,141.162L51.265,141.14L51.616,141.173L51.79,141.016L51.816,140.811L51.562,140.581L51.524,140.334L51.704,140.067L51.804,139.769L52.066,139.421L52.094,139.255L51.818,139.076L51.253,138.801L50.867,138.536L50.719,138.284L50.825,137.961L51.135,137.698L51.117,137.554L50.843,137.318L50.643,137.066L50.439,136.908L49.869,136.813L49.979,136.474L50.187,135.973L50.239,135.59L50.081,134.584L50.093,134.402L50.249,134.31L50.587,134.421L50.929,134.573L51.86,134.355L52.184,134.321L52.454,134.513L52.824,134.664L54.966,134.244L55.008,133.818L55.13,133.431L55.146,133.142L55.058,132.955L54.952,132.816L54.888,132.525L54.886,132.215L55.092,132.068L55.775,131.697L55.987,131.71L56.465,131.913L56.913,132.229L57.312,132.894L57.586,133.467L58.028,134.161L58.961,134.444L60.077,134.624L60.68,134.577L61.542,133.985L62.029,133.524L62.187,133.275L62.471,133.404L62.793,134.01L62.999,134.246L63.051,134.471L62.907,134.751L63.047,134.931L63.646,135.06L64.172,134.938L64.408,134.691L64.801,134.368L64.805,134.096L64.594,133.92L64.594,133.676L64.813,133.486L65.025,132.963L65.091,132.581L65.299,132.338L65.693,132.169L65.835,132.017L66.055,131.113L65.941,130.786L65.941,130.515L66.191,130.169L66.236,129.602L66.131,128.674L66.061,128.037L65.985,127.369L66.177,126.492L66.376,125.579L66.34,125.352L66.063,125.074L65.721,124.822L64.841,124.613L64.514,124.281L64.258,123.929L64.072,123.816L63.109,123.678L62.897,123.478L62.983,122.908L63.069,122.068L63.035,121.485L63.205,121.013L63.398,120.659L63.824,120.285L64.048,119.844L64.172,119.735L64.977,119.66L65.269,119.477L65.499,119.29L65.597,119.039L65.873,118.624L66.117,118.342L66.145,118.152L66.093,117.887L65.849,117.365L65.557,116.932L65.381,116.775L65.025,115.755L64.695,115.515L64.052,115.385L62.847,115.269L62.117,115.452L61.008,115.795L60.161,116.033L59.609,116.167L59.285,116.131L59.137,115.975L59.353,115.842L59.459,115.532L59.321,115.087L59.107,114.68L58.985,114.107L59.037,113.397L59.245,112.729L59.691,111.861L59.719,111.507L61.064,111.518L62.407,111.529L63.874,111.519L65.291,111.512L66.396,111.541L66.928,111.316L67.434,111.657L67.681,111.732L67.765,111.705L67.959,111.944L68.589,111.919L68.689,111.973L68.743,112.264L69.326,112.257L69.614,112.32L69.848,112.313L70.188,112.146L70.432,112.2L70.875,112.418L71.191,112.605L71.633,112.543L72.656,112.576L73.45,112.756L74.235,113.253L74.761,113.54L75.232,113.965L75.406,113.889L75.57,113.773L75.662,113.722L75.656,113.359L75.392,112.739L75.29,112.215L75.348,111.785L75.548,111.474L75.89,111.287L75.924,110.997L75.928,110.957L76.312,110.265L76.691,109.577L77.149,108.774L77.527,108.112L77.477,107.783L77.515,107.293L77.593,106.746L77.573,106.421L77.683,106.202L77.945,105.385L78.099,104.911L78.324,104.699L78.676,104.546L79.188,104.541L80.523,104.437L81.77,104.225L82.184,104.13L82.965,103.789L83.267,103.774L83.525,103.905L85.032,104.297L85.446,104.452L85.597,104.428L85.825,104.462L86.179,104.466L86.523,104.419L86.743,104.466L87.021,104.726L87.206,104.697L87.448,104.508L87.902,104.315L88.779,104.101L88.921,104.197L89.225,104.673L89.541,104.835Z" fill="#7699BB" stroke="#DCDCDC" stroke-width="0.5" stroke-miterlimit="3.999327"/>
<path d="M71.982,84.259L71.417,85.105L70.669,85.588L70.449,85.88L70.331,86.243L70.172,86.608L69.774,87.391L69.484,88.03L69.194,88.229L68.515,89.195L68.059,90.165L67.967,90.415L67.827,90.6L67.605,90.751L66.82,91.053L66.554,91.201L66.344,91.381L66.152,91.584L66.098,91.83L66.282,92.175L66.502,92.449L66.724,92.465L66.918,92.452L67.04,92.616L67.142,92.712L67.142,94.593L66.954,94.876L66.958,95.003L66.866,95.326L66.838,95.688L66.898,95.831L67.056,95.949L67.274,96.201L67.391,96.779L67.657,98.809L67.781,99.13L68.001,99.355L68.693,99.793L69.418,100.368L69.648,100.742L69.78,101.356L70.058,101.837L70.052,102L69.938,102.064L69.668,102.071L69.486,102.106L69.638,102.456L70.012,103.066L70.635,103.7L71.311,104.384L71.86,104.943L72.548,105.59L73.084,106.094L73.637,106.614L74.055,106.737L74.365,106.773L74.499,106.875L74.663,107.113L74.944,107.378L75.256,107.723L75.362,108.073L75.232,108.409L75.36,108.89L75.368,108.932L75.47,109.121L75.434,109.29L75.498,109.927L75.662,110.482L75.928,110.956L75.924,110.996L75.89,111.287L75.548,111.474L75.348,111.784L75.29,112.214L75.392,112.739L75.656,113.358L75.662,113.721L75.57,113.772L75.406,113.888L75.232,113.965L74.761,113.54L74.235,113.253L73.449,112.755L72.656,112.576L71.633,112.543L71.191,112.605L70.875,112.418L70.431,112.2L70.188,112.145L69.848,112.312L69.614,112.32L69.326,112.256L68.743,112.263L68.689,111.973L68.589,111.918L67.959,111.944L67.765,111.704L67.681,111.731L67.433,111.657L66.928,111.316L66.396,111.541L65.291,111.512L63.874,111.519L62.407,111.528L61.064,111.517L59.719,111.506L59.585,111.189L59.307,111.025L58.805,111.011L57.328,111.074L56.197,111.023L55.835,110.982L55.434,110.9L54.49,110.826L53.323,110.885L53.057,110.869L52.124,110.88L49.989,110.795L48.808,110.807L48.836,111.002L48.76,111.14L48.698,111.477L47.395,111.476L45.68,111.476L44.061,111.476L42.966,111.476L41.131,111.476L40.516,111.245L40.33,111.096L40.292,110.929L40.27,110.816L40.126,110.784L40.244,109.593L40.502,108.602L40.602,107.681L40.955,106.859L40.767,106.043L40.55,105.688L39.404,104.533L39.93,104.097L39.238,104.157L39.091,103.727L38.755,103.213L38.961,103.129L39.159,102.848L39.784,102.933L39.764,102.795L39.224,102.363L39.276,102.145L39.498,101.902L39.39,101.799L39.003,102.053L38.723,102.044L38.507,101.88L38.347,101.853L38.443,102.184L38.225,102.48L38.019,102.583L37.668,102.565L37.38,102.49L37.302,102.325L37.032,102.2L36.272,101.98L35.635,101.722L35.507,101.018L35.253,100.715L35.149,100.372L35.089,99.98L35.177,99.377L35.013,99.281L34.829,99.248L34.554,99.277L34.3,99.244L33.996,98.91L33.73,98.781L33.894,99.395L33.706,99.567L33.249,99.518L33.053,99.286L33.015,99.112L33.225,98.371L33.143,98.355L33.306,97.961L33.618,97.481L34.04,96.873L34.518,96.107L34.845,94.754L35.067,93.91L35.269,93.14L35.619,92.445L35.973,91.98L36.974,91.08L37.729,90.399L38.115,90.125L38.383,89.894L38.855,89.631L39.336,89.317L39.706,88.716L40.008,88.155L40.238,88.033L40.54,87.935L41.463,87.333L42.049,86.949L42.185,87.14L42.284,87.376L42.396,87.485L42.888,87.559L43.562,87.556L43.949,87.487L44.155,87.287L44.365,86.741L44.487,86.637L44.645,86.61L45.38,86.991L45.992,87.534L46.596,88.071L46.901,88.262L47.035,88.473L47.299,89.451L47.451,89.695L47.713,89.796L48.184,89.731L48.674,89.558L49.106,89.308L49.532,88.983L49.821,88.691L49.947,88.475L50.011,87.674L50.107,87.498L50.541,87.178L51.268,86.644L51.684,86.338L51.648,86.229L51.388,85.902L51.158,85.542L51.392,85.172L51.634,84.887L52.551,83.923L52.556,83.603L52.603,83.217L53.337,82.12L53.759,80.664L53.771,80.383L54.208,79.68L54.726,78.78L55.731,78.634L56.117,78.409L56.563,78.012L56.851,77.641L56.987,77.289L57.086,76.608L57.264,75.833L57.374,75.152L57.676,74.522L58.18,74.204L59.055,73.939L59.187,73.816L59.313,73.398L59.411,72.53L59.439,72.008L59.473,71.781L59.585,71.389L60.396,70.693L60.756,69.604L61.076,68.462L61.997,67.08L63.076,65.704L63.576,65.334L63.998,65.163L64.485,65.145L64.817,65.043L65.978,64.357L66.464,64.125L66.822,63.887L66.908,63.678L66.944,63.375L66.832,62.663L67.032,62.142L67.15,61.33L67.198,60.699L67.156,60.479L66.974,60.176L66.94,60.11L66.592,59.716L66.01,59.479L65.211,59.413L64.787,59.273L64.717,58.943L64.677,58.752L64.635,58.545L64.577,58.086L64.04,55.666L65.055,55.673L66.27,55.962L66.576,56.18L66.738,57.008L67.178,57.478L67.951,57.863L68.433,58.66L68.621,59.865L69.046,60.586L69.144,60.701L69.626,61.741L69.746,62.06L69.782,62.687L69.728,63.11L69.974,63.633L69.602,64.526L69.49,65.072L69.458,65.84L69.676,67.195L70.032,68.239L70.417,69.083L70.839,69.738L71.533,70.461L72.274,71.12L72.964,71.536L72.324,71.779L71.085,71.81L70.373,71.67L70.034,71.663L69.692,71.75L68.369,71.875L67.034,71.817L65.797,71.652L65.045,71.679L64.465,72.08L63.994,72.683L63.554,73.161L63.708,73.689L64.04,73.981L64.679,74.624L65.251,75.247L65.545,75.664L66.688,76.579L67.791,77.396L68.007,77.532L68.317,77.679L68.509,77.739L69.11,78.208L69.942,78.976L70.705,80.178L71.247,81.398L71.775,82.583L72.006,82.783L72.374,82.91L72.418,83.164L72.39,83.54L72.276,83.847L71.982,84.259Z" fill="#4B91EC" stroke="#DCDCDC" stroke-width="0.5" stroke-miterlimit="3.999327"/>
<path d="M61.474,52.409L62.355,53.529L63.303,54.733L64.04,55.668L64.58,58.088L64.638,58.547L64.68,58.754L64.722,58.945L64.792,59.273L65.215,59.415L66.015,59.48L66.596,59.718L66.944,60.112L66.978,60.178L67.162,60.481L67.204,60.701L67.154,61.332L67.036,62.144L66.836,62.667L66.948,63.378L66.912,63.682L66.824,63.889L66.466,64.126L65.981,64.359L64.82,65.045L64.488,65.147L64.002,65.165L63.58,65.336L63.081,65.706L62.001,67.082L61.08,68.464L60.76,69.606L60.4,70.695L59.589,71.39L59.475,71.781L59.441,72.008L59.413,72.532L59.315,73.4L59.189,73.818L59.059,73.941L58.184,74.206L57.68,74.524L57.379,75.154L57.269,75.835L57.093,76.61L56.993,77.291L56.857,77.643L56.569,78.013L56.123,78.411L55.738,78.636L54.732,78.783L54.215,79.684L53.777,80.386L53.765,80.668L53.343,82.124L52.61,83.22L52.562,83.607L52.56,83.925L51.642,84.889L51.399,85.174L51.165,85.546L51.397,85.905L51.654,86.232L51.692,86.343L51.277,86.65L50.549,87.184L50.115,87.503L50.019,87.677L49.956,88.478L49.83,88.694L49.54,88.988L49.114,89.311L48.682,89.562L48.193,89.736L47.723,89.802L47.459,89.7L47.309,89.457L47.046,88.476L46.912,88.266L46.606,88.075L46.002,87.538L45.391,86.995L44.653,86.614L44.495,86.641L44.373,86.744L44.163,87.291L43.958,87.49L43.57,87.559L42.896,87.563L42.405,87.487L42.293,87.378L42.193,87.142L42.057,86.953L41.469,87.336L40.546,87.939L40.246,88.037L40.016,88.159L39.712,88.72L39.343,89.321L38.861,89.635L38.391,89.9L38.121,90.13L37.736,90.403L36.98,91.083L35.979,91.984L35.625,92.449L35.275,93.144L35.072,93.914L34.85,94.756L34.524,96.111L34.044,96.877L33.625,97.485L33.313,97.962L33.149,98.356L33.081,98.344L32.917,98.513L32.449,98.402L32.239,98.059L31.95,98.002L31.45,97.5L31.344,97.583L31.872,98.861L31.676,99.36L30.191,99.371L28.914,99.538L28.036,99.524L27.597,99.342L27.401,98.863L27.325,98.912L27.281,99.168L27.003,99.37L26.018,99.408L25.582,99.081L25.23,98.714L24.852,98.552L24.91,98.705L25.344,99.063L25.292,99.576L24.499,100.172L23.993,100.206L23.683,99.95L23.521,99.533L23.439,98.916L23.232,98.513L23.12,98.513L23.224,98.881L23.258,99.183L23.261,99.809L23.639,100.295L23.06,100.446L22.824,100.452L22.364,100.462L22.276,100.281L22.188,99.878L22.066,99.773L21.924,100.455L21.619,100.502L21.407,100.497L20.495,100.646L20.291,100.617L20.25,100.49L20.357,100.301L20.333,99.994L20.018,100.23L19.968,100.704L19.788,100.78L19.246,100.713L18.653,100.47L18.291,100.221L17.687,99.874L16.504,98.903L16.312,98.465L15.974,97.93L15.723,97.385L15.359,96.456L15.471,96.388L15.745,96.468L15.878,96.328L15.387,96.227L15.285,96.118L15.251,95.791L15.273,95.392L15.673,95.252L16.018,95.183L16.192,94.941L16.292,94.698L15.375,95.067L14.513,94.649L14.327,94.397L14.421,94.202L14.833,94.173L15.421,94.188L15.773,93.999L15.557,93.932L15.177,93.939L15.037,93.814L15.049,93.511L14.925,93.578L14.761,93.847L14.182,94.045L13.842,93.847L13.808,93.407L13.734,93.209L13.448,93.055L12.433,91.891L11.158,90.92L10.024,90.25L8.312,89.931L4.726,89.943L4.524,89.851L4.744,89.698L5.058,89.595L6.211,89.052L6.017,88.979L4.818,89.319L4.408,89.351L3.877,90.003L0.719,90.112L0.349,90.147L0.357,89.849L0.511,88.992L0.613,88.654L0.731,88.4L0.609,88.095L0.489,87.681L0.431,87.031L0.579,86.83L0.629,86.584L0.593,86.2L0.593,84.914L0.679,84.774L0.781,84.667L0.787,84.497L0.595,84.164L0.417,83.785L0.423,83.238L0.351,82.71L0.229,82.469L0.321,81.568L0.373,80.428L0.325,79.922L0.441,79.564L0.503,78.683L0.493,77.821L0.729,76.457L1.42,76.392L2.244,76.278L2.611,75.742L2.823,75.063L2.755,74.391L2.915,74.17L3.245,73.805L3.841,73.284L3.817,72.712L3.98,72.536L4.262,72.403L4.666,72.336L5.118,72.051L5.368,71.552L5.613,70.753L5.226,70.196L5.232,70.072L5.38,69.773L5.617,69.473L5.805,69.377L6.245,69.453L6.321,69.428L6.389,69.333L6.673,68.449L6.647,68.211L6.237,67.62L6.169,67.198L6.109,66.572L6.009,66.016L5.891,65.806L5.673,65.63L5.575,65.515L4.728,64.386L4.742,63.85L5.098,63.166L5.33,62.834L5.653,62.649L5.717,62.491L5.621,62.298L5.457,62.153L5.419,61.844L5.465,61.639L5.581,61.414L5.535,60.942L5.545,60.218L5.599,59.161L5.615,58.515L6.303,58.035L7.304,57.242L7.814,56.412L8.088,55.784L8.424,53.693L8.667,53.565L8.955,53.467L9.96,52.705L10.734,52.422L11.326,52.258L12.215,52.12L12.767,52.177L13.772,52.211L14.563,52.135L15.235,51.719L15.539,51.603L15.966,51.53L17.909,52.091L19.85,52.621L20.202,52.572L20.497,52.647L20.983,52.934L21.699,53.549L22.124,53.947L22.33,54.179L23.327,55.514L23.699,55.849L24.073,56.033L24.453,56.098L24.744,56.073L25.02,55.922L25.396,55.624L25.968,55.488L26.433,55.515L28.85,54.315L29.084,54.299L29.787,54.393L30.569,54.559L32.593,55.762L34.246,56.55L35.407,56.813L36.776,57L39.101,57.057L40.858,55.37L41.507,55.002L42.291,54.669L42.543,54.613L43.924,54.357L46.632,54.141L49.172,54.235L49.672,54.303L50.751,54.526L52.414,55.076L53.131,55.604L54.259,55.691L55.066,55.586L55.33,55.063L56.141,54.375L56.731,54.096L57.357,53.738L58.348,53.293L59.163,53.093L59.893,52.583L60.471,52.422L61.474,52.409ZM26.104,100.065L25.562,100.219L25.206,100.181L25.694,99.509L25.942,99.655L26.259,99.714L26.104,100.065Z" fill="#A1A28A" stroke="#DCDCDC" stroke-width="0.5" stroke-miterlimit="3.999327"/>
<path d="M161.654,7.762L161.474,8.248L162.524,8.248L164.365,8.248L166.205,8.248L168.046,8.248L169.887,8.247L171.726,8.247L173.566,8.247L175.407,8.247L177.248,8.247L179.089,8.247L180.927,8.247L182.77,8.245L184.609,8.245L186.45,8.245L188.291,8.245L190.131,8.245L191.972,8.243L192.034,9.488L192.282,10.481L193.149,11.899L193.881,12.662L194.144,13.081L194.169,13.276L194.134,13.457L193.913,13.248L193.537,13.107L193.485,13.769L193.571,14.24L193.661,15.124L193.969,16.072L193.747,16.947L193.777,18.428L194.165,20.2L194.087,21.329L194.72,23.958L195.336,25.414L195.673,25.772L196.055,25.964L196.787,26.088L197.864,26.827L198.717,27.607L199.021,28.016L199.433,28.463L199.717,28.383L199.891,28.263L200.169,28.624L201.522,29.403L201.721,29.764L201.234,30.118L200.672,30.728L200.53,30.972L200.464,31.115L200.398,31.297L200.25,31.476L199.929,31.723L199.801,31.83L199.725,32.001L199.531,32.112L199.319,32.117L199.135,32.194L198.857,32.31L198.444,32.25L198.022,32.357L197.868,32.491L197.532,32.609L197.198,32.635L197.081,32.675L196.765,32.873L196.377,33.15L195.923,33.326L195.763,33.385L195.556,33.575L195.234,34.526L194.998,34.775L194.602,34.801L194.089,34.801L193.643,34.882L193.037,34.777L192.743,34.79L192.666,34.993L192.558,35.808L192.572,36.159L192.332,36.571L192.064,37.088L192.162,37.96L192.208,38.822L191.716,40.118L191.646,40.416L191.149,41.442L190.893,41.825L190.257,43.739L190.009,44.327L189.478,44.946L189.598,45.953L189.725,47.019L189.845,48.025L190.025,49.526L189.574,50.928L189.592,51.692L189.276,52.818L189.026,53.339L188.804,53.646L188.618,53.965L188.275,54.666L187.983,55.59L187.853,56.536L187.843,57.086L187.785,57.337L187.687,57.497L187.013,57.6L186.076,57.713L185.572,57.836L185.234,58.029L184.819,58.477L183.995,59.704L183.566,60.456L182.89,61.484L182.105,62.21L181.939,62.564L181.809,63.221L181.519,64.261L181.253,64.998L181.301,65.594L181.053,66.623L181.089,67.124L180.814,67.404L180.444,67.669L180.192,67.736L179.652,67.433L179.241,67.126L179.073,67.044L178.715,67.237L178.285,67.522L177.794,68.186L177.412,68.858L177.632,70.283L177.612,70.594L177.5,70.933L176.904,71.994L176.756,72.33L176.54,72.965L176.311,74.074L176.302,74.341L176.297,74.341L175.253,74.337L175.235,74.332L175.219,74.316L175.203,74.292L175.185,74.258L175.145,74.112L175.123,73.885L175.159,73.493L175.275,73.027L175.637,72.371L175.655,72.317L175.659,72.286L175.659,72.251L175.625,72.133L175.583,72.032L175.563,71.879L175.625,71.538L175.631,71.433L175.623,71.298L175.595,71.211L175.343,70.643L175.259,70.552L172.831,68.742L172.387,68.25L172.339,68.217L172.279,68.192L171.046,67.778L170.986,67.736L170.994,67.676L171.032,67.598L171.18,67.359L171.2,67.297L171.222,67.201L170.666,63.373L170.668,63.299L170.692,63.248L170.712,63.217L170.786,63.136L170.85,63.052L170.924,62.903L170.942,62.849L171.02,62.163L171.014,61.563L171.338,60.563L171.374,60.136L168.696,60.106L168.68,60.127L168.678,60.155L168.684,60.184L168.688,60.216L168.686,60.283L168.666,60.407L168.66,60.474L168.662,60.539L168.704,60.781L168.774,60.961L168.784,61.021L168.788,61.086L168.78,61.211L165.052,61.226L166.527,62.729L166.545,62.76L166.571,62.842L166.581,62.903L166.609,63.432L166.531,64.267L166.547,64.804L166.633,65.153L167.033,65.839L167.007,65.968L166.915,66.129L164.271,68.166L164.197,68.263L163.829,69.112L163.479,69.604L163.325,69.746L162.712,70.438L160.299,72.607L159.904,72.753L158.702,72.812L158.067,72.829L157.995,72.845L157.887,72.881L157.821,72.938L157.743,72.979L157.665,72.958L157.575,72.898L156.092,71.683L153.446,70.149L153.192,70.289L151.695,70.95L151.387,71.12L151.215,71.242L151.207,71.981L150.946,72.355L150.474,72.765L149.179,73.025L148.505,73.246L147.816,73.579L147.704,73.662L147.704,73.66L147.44,73.891L146.918,74.354L146.862,74.713L146.946,75.036L142.483,75.024L142.189,74.766L141.57,73.633L141.542,73.622L141.086,73.693L137.017,73.56L136.435,73.678L135.272,74.147L134.687,74.225L134.083,74.011L131.942,71.752L131.481,71.482L131.311,71.336L130.995,70.941L130.537,70.705L130.383,70.534L130.333,70.292L130.347,69.795L130.198,69.485L129.86,69.414L126.982,69.938L126.57,69.879L125.966,69.973L125.758,70.066L125.515,70.363L125.465,70.672L125.473,70.984L125.399,71.291L125.179,71.634L124.359,72.4L124.178,72.734L124.215,73.577L124.162,74.003L124.038,74.201L123.682,74.525L123.552,74.712L123.492,74.975L123.472,75.53L123.408,75.79L122.96,76.443L122.854,76.674L122.828,77.144L122.757,77.288L121.455,77.66L120.97,77.898L120.672,78.265L120.6,78.421L120.042,78.29L119.335,78.195L117.974,78.079L117.436,77.909L117.178,77.653L117.26,76.999L117.124,76.859L116.908,76.743L116.758,76.46L116.79,76.12L117.508,75.365L117.656,74.962L117.77,73.559L117.844,73.065L117.79,72.486L117.22,71.42L116.725,70.679L115.915,69.581L115.599,69.221L113.964,67.707L113.775,67.482L113.379,66.841L113.575,66.277L113.815,65.438L113.842,65.049L113.73,64.648L113.317,64.347L112.949,64.31L112.785,64.158L112.465,63.936L112.15,63.764L111.87,63.433L111.676,62.97L111.814,61.313L111.72,61.091L111.302,61.03L111.204,60.91L111.22,60.592L110.996,59.646L110.745,58.862L110.878,58.43L110.531,57.838L109.863,57.584L109.234,57.662L108.558,57.78L108.15,57.747L107.872,57.636L107.675,57.42L107.575,57.163L107.667,56.778L108.038,56.07L108.5,55.489L109.441,54.957L109.691,54.675L109.835,54.361L109.859,54.002L109.795,53.622L109.689,53.275L109.411,52.816L109.158,52.275L109.152,51.912L109.274,51.651L109.525,51.335L110.025,50.979L110.145,50.908L110.459,50.717L110.732,50.578L111.416,50.204L111.576,50.024L111.518,49.808L111.35,49.632L111.074,49.385L111.018,49.082L110.938,48.564L110.797,48.234L110.695,47.992L110.888,47.811L111.178,47.558L111.54,47.404L112.098,47.273L112.317,47.092L112.381,46.747L112.363,46.416L112.565,46.171L112.835,45.645L113.053,45.405L113.419,45.131L113.785,44.788L113.946,44.388L113.992,44.005L113.792,42.84L114.214,42.353L114.754,41.95L115.529,41.977L116.732,41.888L117.552,41.721L118.136,41.727L119.469,41.945L119.579,41.892L119.609,41.849L119.681,41.54L119.679,40.763L119.677,38.41L119.674,36.053L119.673,33.691L119.671,31.322L119.669,28.947L119.667,26.567L119.665,24.18L119.663,21.787L119.663,21.115L119.663,20.445L119.663,19.773L119.663,19.1L121.046,19.102L122.431,19.102L123.814,19.102L125.197,19.104L125.215,19.093L125.233,19.084L125.249,19.073L125.267,19.065L125.269,16.375L125.269,13.675L125.271,10.966L125.271,8.248L127.413,8.248L129.558,8.25L131.701,8.25L133.843,8.25L135.986,8.25L138.128,8.25L140.273,8.25L142.415,8.252L144.558,8.252L146.7,8.252L148.843,8.252L150.986,8.252L153.128,8.254L155.271,8.254L157.415,8.254L159.558,8.254L160.211,8.254L160.499,8.214L161.049,7.195L161.283,7.119L161.64,7.179L161.764,7.419L161.654,7.762Z" fill="#A1A28A" stroke="#DCDCDC" stroke-width="0.5" stroke-miterlimit="3.999327"/>
<path d="M119.663,21.787L119.665,24.18L119.667,26.567L119.669,28.947L119.671,31.322L119.673,33.691L119.675,36.053L119.677,38.41L119.679,40.763L119.681,41.54L119.609,41.848L119.579,41.892L119.469,41.945L118.136,41.727L117.552,41.721L116.733,41.888L115.529,41.977L114.754,41.95L114.214,42.353L113.793,42.84L113.992,44.005L113.946,44.388L113.785,44.788L113.419,45.131L113.053,45.405L112.835,45.645L112.565,46.171L112.364,46.416L112.382,46.747L112.318,47.092L112.098,47.273L111.54,47.404L111.178,47.558L110.888,47.811L110.695,47.992L110.797,48.234L110.939,48.564L111.018,49.081L111.074,49.385L111.35,49.632L111.518,49.808L111.576,50.024L111.416,50.203L110.733,50.577L110.459,50.717L110.145,50.908L110.025,50.979L109.526,51.335L109.274,51.65L109.152,51.912L109.158,52.275L109.412,52.816L109.689,53.275L109.795,53.622L109.859,54.002L109.835,54.361L109.691,54.675L109.441,54.957L108.5,55.488L108.038,56.069L107.667,56.777L107.575,57.162L107.675,57.42L107.873,57.636L108.15,57.747L108.558,57.78L109.234,57.662L109.863,57.584L110.531,57.838L110.878,58.43L110.745,58.862L110.996,59.646L111.22,60.592L111.204,60.91L111.302,61.029L111.72,61.091L111.814,61.313L111.676,62.97L111.87,63.433L112.15,63.764L112.465,63.936L112.785,64.158L112.949,64.31L113.317,64.346L113.731,64.648L113.843,65.049L113.815,65.438L113.575,66.276L113.379,66.841L113.139,66.803L112.651,66.663L112.056,66.543L111.324,66.447L110.629,66.678L109.877,66.974L109.641,67.193L109.431,67.324L109.1,67.302L108.796,67.34L108.632,67.551L108.356,67.785L107.273,68.268L107.045,68.444L106.909,68.618L106.909,68.809L107.019,69.201L107.017,69.69L106.775,70.085L106.495,70.35L106.174,70.452L105.908,70.508L105.732,70.672L105.166,71.569L104.923,71.734L104.425,71.707L102.998,73.048L102.856,73.444L102.334,74.005L101.675,74.628L101.085,74.929L101.037,75.045L100.879,75.163L100.515,75.298L99.256,76.057L97.743,76.026L97.076,76.324L96.426,76.454L95.475,76.601L95.191,76.587L93.972,76.648L92.543,76.627L91.995,76.734L91.482,77.021L91.1,77.273L91.046,77.358L91.102,77.464L91.088,77.547L92.087,78.166L92.337,78.469L92.085,78.764L91.965,78.807L91.951,78.825L91.787,79.058L91.202,79.755L90.31,80.579L89.855,80.815L89.673,80.969L89.435,81.516L89.283,81.592L88.669,81.663L87.458,81.723L85.781,81.901L84.776,81.961L84.151,81.91L83.271,82.288L82.957,82.384L82.765,82.416L81.894,82.781L81.171,83.35L80.913,83.457L79.893,83.698L79.488,84.089L79.302,84.121L78.648,83.606L78.203,83.139L77.985,82.665L77.959,82.515L77.835,82.542L77.477,82.752L77.167,82.99L77.025,83.444L75.972,83.749L75.071,84.012L74.661,84.343L74.029,84.506L73.224,84.439L72.596,84.305L71.983,84.259L72.277,83.847L72.391,83.54L72.418,83.164L72.375,82.91L72.007,82.783L71.775,82.584L71.247,81.398L70.706,80.178L69.942,78.976L69.111,78.208L68.509,77.74L68.317,77.68L68.007,77.533L67.792,77.397L66.688,76.58L65.545,75.664L65.251,75.247L64.68,74.624L64.04,73.981L63.708,73.689L63.554,73.161L63.994,72.683L64.466,72.081L65.045,71.679L65.797,71.652L67.034,71.817L68.369,71.875L69.692,71.75L70.034,71.663L70.374,71.67L71.085,71.81L72.325,71.779L72.964,71.536L72.275,71.12L71.533,70.461L70.84,69.739L70.418,69.083L70.032,68.239L69.676,67.195L69.458,65.841L69.49,65.073L69.602,64.526L69.974,63.633L69.728,63.11L69.782,62.687L69.746,62.061L69.626,61.741L69.145,60.701L69.047,60.587L68.621,59.866L68.433,58.66L67.951,57.863L67.178,57.478L66.738,57.008L66.576,56.18L66.271,55.962L65.055,55.674L64.04,55.666L63.303,54.731L62.355,53.528L61.474,52.409L60.91,50.165L60.586,48.88L60.952,48.49L61.676,47.573L62.599,45.815L64.68,43.094L65.745,41.698L67.869,39.61L70.48,37.039L71.951,35.587L72.189,32.936L72.44,30.125L72.63,27.996L72.866,25.463L73.066,23.343L73.21,21.794L73.414,19.595L73.588,19.172L74.613,17.442L74.693,17.21L74.503,16.919L73.04,15.445L72.584,15.116L72.32,14.348L72.696,13.918L70.937,11.435L70.502,11.129L70.31,10.826L70.288,10.376L70.256,8.651L69.788,5.937L69.173,2.764L71.239,1.858L72.808,1.168L74.811,0.287L76.666,1.189L79.354,2.493L82.042,3.793L84.728,5.093L87.416,6.391L90.103,7.685L92.791,8.976L95.477,10.267L98.165,11.556L100.851,12.842L103.539,14.125L106.226,15.407L108.914,16.687L111.6,17.965L114.288,19.241L116.974,20.514L119.663,21.787Z" fill="#4B91EC" stroke="#DCDCDC" stroke-width="0.5" stroke-miterlimit="3.999327"/>
</svg>
