<svg width="152" height="186" viewBox="0 0 152 186" fill="none" xmlns="http://www.w3.org/2000/svg" xmlns:xlink="http://www.w3.org/1999/xlink">
<path d="M135.628,31.885L135.252,32.061L134.093,32.751L133.385,33.215L132.534,33.557L132.754,34.009L134.169,34.103L134.387,34.232L134.545,34.463L134.571,34.833L134.429,35.43L132.898,38.7L132.85,39.385L133.349,41.28L134.051,43.502L136.172,44.484L137.747,45.249L138.758,47.053L140.427,49.415L141.31,50.294L141.36,50.567L141.098,52.181L140.029,53.789L139.03,55.14L137.994,56.759L137.185,58.134L136.308,59.773L136.206,60.303L136.19,60.803L136.341,61.353L137.465,63.337L137.902,64.345L138.424,65.43L138.874,66.61L139.134,67.665L139.583,68.687L139.863,69.208L140.327,69.938L140.886,71.02L141.072,71.875L141.918,74.824L142.004,75.57L141.962,76.122L141.59,76.256L140.769,76.343L139.877,76.705L139.833,76.826L140.415,77.513L139.901,78.684L139.827,80.352L139.28,81.224L139.228,81.425L139.251,81.594L139.349,81.727L140.363,81.959L140.451,82.195L140.455,82.683L140.365,83.134L139.855,83.468L139.309,83.96L139.188,84.414L139.205,84.817L139.391,85.497L139.753,86.289L140.211,86.785L141.836,87.255L142.046,87.642L142.134,88.172L142.1,88.689L141.344,89.72L141.35,90.116L141.66,91.071L142.032,91.981L143.617,92.965L144.162,93.502L144.306,93.929L144.386,94.617L144.376,95.361L144.252,96.02L143.754,96.868L142.605,98.535L141.448,99.179L141.378,99.319L141.736,99.849L143.772,101.966L145.102,102.952L146.892,104.277L148.048,105.321L148.421,106.069L148.921,106.901L149.483,107.578L149.888,108.164L150.042,108.542L150.028,108.947L149.487,110.165L149.179,111.104L148.637,112.474L148.082,113.426L146.674,115.158L144.598,117.3L144.116,117.945L143.145,119.065L141.48,121.303L141.05,121.795L139.687,123.567L139.066,124.13L138.576,124.655L137.227,126.316L135.776,127.571L134.353,128.732L133.925,129.319L133.393,129.767L132.76,130.192L132.494,130.43L131.061,132.008L129.072,134.183L128.871,134.217L128.353,134.568L127.543,134.653L127.192,134.92L125.955,134.157L125.749,134.108L125.021,134.297L124.324,134.851L123.034,135.02L122.395,135.199L121.987,135.455L121.903,134.851L122.079,134.083L122.363,133.569L122.389,133.235L122.181,133.269L121.767,134.023L121.547,134.902L121.106,135.343L120.134,135.523L119.189,134.818L118.739,134.824L119.021,135.328L119.211,135.882L119.187,136.191L118.683,136.136L118.122,136.467L117.63,136.95L117.39,136.951L117.058,136.276L116.451,136.592L115.931,137.015L114.878,137.146L114.25,137.701L113.139,138.077L112.529,138.068L111.136,138.518L110.673,139.212L110.267,139.466L109.689,139.252L107.909,139.589L106.206,140.032L105.482,140.007L104.759,139.824L103.991,140.437L103.176,141.258L102.278,141.55L101.957,141.445L102.214,141.015L102.808,140.57L103.216,139.965L103.272,139.46L102.992,139.263L102.608,139.201L102.126,138.678L101.665,137.541L101.415,137.478L101.289,137.777L101.147,138.647L101.003,138.898L100.759,139.097L100.466,139.297L100.178,139.395L99.148,139.382L99.013,138.943L99.013,138.76L99.197,138.181L99.037,138.079L99.188,137.625L99.43,137.65L99.718,137.581L99.862,137.349L99.852,137.069L99.452,136.997L99.428,136.806L99.784,136.007L99.834,135.786L99.696,135.74L99.474,135.828L98.001,135.577L96.185,134.553L95.737,134.5L95.463,133.584L95.025,133.7L94.386,134.237L93.906,133.829L93.39,133.56L93.248,133.141L93.256,132.52L93.213,131.784L93.073,130.922L92.971,129.693L93.067,128.729L93.478,128.014L93.636,127.556L93.828,126.385L93.872,125.011L93.762,124.542L93.79,124.23L94.118,124.23L94.046,123.961L93.902,123.814L93.742,123.509L93.878,123.348L94.27,123.337L94.302,123.233L94.346,123.088L94.042,122.282L94.006,121.897L93.586,120.726L93.105,119.611L92.383,118.803L92.639,117.469L92.931,116.258L92.873,115.673L92.761,114.96L91.875,114.176L91.745,113.068L91.53,111.873L91.612,111.14L91.755,110.575L92.047,110.013L93.516,108.233L93.606,107.3L94.602,107.231L94.14,106.396L94.032,105.926L94.008,105.376L95.439,104.998L95.975,105.308L97.234,104.925L98.353,104.176L98.333,103.776L98.161,103.418L97.923,102.729L98.091,102.536L98.499,102.678L98.311,102.335L98.345,101.972L98.791,102.122L99.516,101.107L99.542,100.33L100.797,99.924L102.246,98.33L102.914,97.832L103.56,97.471L104.935,95.868L105.522,95.793L105.824,94.708L106.993,93.257L107.349,93.072L107.895,91.757L109.332,90.232L110.243,88.277L110.745,87.58L110.901,86.835L111.46,86.772L111.964,86.224L113.055,85.842L114.134,85.948L114.584,86.209L114.998,86.127L114.956,85.456L114.66,85.04L114.902,84.639L115.471,84.335L115.414,83.664L115.29,83.259L114.816,82.72L115.052,81.507L115.108,80.172L115.332,78.624L114.738,77.801L112.48,76.396L112.06,76.445L111.558,76.267L111.035,75.198L111.268,74.272L111.296,73.931L111.092,73.942L110.761,74.394L110.041,74.909L109.106,74.513L108.646,74.601L108.048,72.3L107.743,71.416L107.253,70.312L106.38,69.773L106.208,69.466L106.092,68.996L106.054,68.342L105.942,67.373L105.988,66.576L106.096,66.1L106.474,65.781L107.017,64.875L107.131,64.216L107.177,63.203L107.427,62.315L107.705,61.865L107.635,61.505L107.443,60.993L107.035,60.263L106.416,59.372L105.958,58.517L105.756,57.716L105.652,56.997L105.668,56.344L105.84,55.897L106.424,55.334L106.502,55.094L106.27,53.847L105.862,53.62L105.168,53.499L104.781,53.488L104.707,53.35L104.687,53.099L104.767,52.585L104.985,51.995L105.166,51.618L105.19,51.298L104.959,50.202L104.889,48.853L104.969,47.792L105.704,47.008L105.738,46.721L104.815,45.866L104.149,44.895L103.941,44.327L103.18,44.241L102.704,42.582L102.017,41.772L101.337,41.069L100.935,40.743L98.577,39.731L97.642,39.539L96.532,38.947L95.707,38.203L94.999,37.723L94.394,37.13L93.548,36.574L93.306,36.098L92.393,35.216L91.965,34.633L90.48,33.531L90.426,33.096L90.416,32.674L90.348,32.498L88.817,31.689L89.119,31.224L90.316,31.195L91.306,31.618L91.524,31.436L91.653,31.06L91.232,29.55L91.308,29.154L91.744,28.678L92.435,28.299L93.524,28.244L94.268,28.301L94.426,28.343L95.535,30.009L96.488,31.627L96.994,32.313L98.231,34.252L98.695,35.369L98.853,36.166L99.356,36.162L101.097,36.511L102.56,36.805L102.968,37.25L103.975,37.161L104.753,36.759L106.124,36.253L106.492,35.628L106.949,34.958L107.753,35.064L108.632,35.592L109.629,36.285L110.519,36.605L111.712,37.106L112.268,37.753L113.047,37.938L113.863,37.291L114.344,35.528L114.772,34.739L115.378,34.159L116.071,33.904L116.601,33.811L117.003,33.359L117.572,32.353L117.684,31.129L117.574,28.907L117.678,28.17L118.144,26.961L118.769,23.737L119.049,22.8L119.391,22.23L119.861,21.89L120.714,20.902L121.933,18.934L122.263,18.767L123.138,18.668L124.226,18.74L125.205,19.087L125.311,19.06L125.751,18.878L126.548,18.264L127.915,17.041L128.791,16.703L129.586,16.75L130.467,18.09L131.713,19.577L132.512,20.296L134.693,21.641L136.607,22.522L137.683,25.416L137.151,26.561L136.887,26.955L135.95,28.09L134.948,29.684L134.872,30.512L135.204,31.345L135.628,31.885ZM112.532,84.542L111.694,84.942L111.02,84.693L111.009,83.918L111.426,83.542L112.182,83.391L113.217,83.767L113.369,83.967L112.775,84.118L112.532,84.542ZM92.167,104.945L92.227,105.156L92.555,105.098L92.999,104.713L93.312,104.893L93.276,105.441L93.065,105.419L93.007,105.328L92.733,105.641L92.685,105.83L92.369,105.949L91.785,105.414L91.418,104.531L92.273,104.53L92.191,104.74L92.167,104.945ZM93.474,134.244L93.396,134.726L93.015,134.673L92.627,134.76L92.315,134.283L92.149,133.476L92.207,133.302L92.451,133.119L92.637,133.562L93.474,134.244ZM96.522,136.232L96.113,136.278L95.535,135.768L95.463,135.568L95.689,135.452L95.539,135.041L95.583,134.86L96.029,135.185L96.272,135.563L96.035,135.65L96.438,136.04L96.522,136.232ZM97.538,135.884L98.247,136.122L98.545,136.036L98.885,136.576L98.309,136.917L98.269,137.342L98.497,137.605L98.577,137.986L98.003,137.986L97.729,137.665L97.61,137.256L97.342,136.968L96.986,136.748L97.16,136.454L97.26,136.033L97.538,135.884ZM95.619,138.242L95.057,138.593L94.843,138.509L94.897,137.917L95.231,137.647L95.793,137.616L95.619,138.242ZM94.47,138.576L93.978,138.678L93.672,138.382L93.788,138.162L94.13,137.917L94.502,137.952L94.582,138.239L94.47,138.576Z" fill="#F7B329" stroke="#DCDCDC" stroke-width="0.5" stroke-miterlimit="3.999327"/>
<path d="M116.67,0.171L118.169,0.774L118.681,0.761L119.426,1.885L119.814,1.785L119.74,2.468L118.989,2.793L117.82,2.989L117.646,3.125L116.646,3.016L116.085,2.097L115.147,1.87L115.149,1.574L115.757,0.877L116.67,0.171ZM146.306,20.864L146.612,22.798L146.602,23.47L146.458,24.119L146.256,24.452L145.855,24.597L144.881,24.539L143.56,23.778L142.707,23.061L142.441,23.03L142.325,23.117L142.533,23.836L142.477,24.388L142.349,24.987L142.169,25.53L141.919,25.984L141.396,26.569L140.49,27.03L137.998,27.928L137.8,28.324L136.997,30.812L136.779,31.175L136.485,31.481L135.628,31.879L135.212,31.331L134.88,30.497L134.956,29.67L135.957,28.076L136.895,26.941L137.159,26.547L137.69,25.401L136.615,22.507L134.7,21.627L132.52,20.281L131.72,19.563L130.475,18.076L129.594,16.736L128.798,16.689L127.923,17.026L126.556,18.25L125.758,18.864L125.318,19.045L125.213,19.072L124.233,18.726L123.146,18.653L122.271,18.753L121.941,18.92L120.722,20.888L119.868,21.875L119.398,22.215L119.057,22.785L118.777,23.722L118.151,26.946L117.686,28.155L117.582,28.893L117.692,31.115L117.58,32.338L117.01,33.344L116.608,33.796L116.079,33.889L115.385,34.145L114.78,34.724L114.352,35.514L113.87,37.277L113.055,37.923L112.275,37.738L111.72,37.091L110.526,36.59L109.637,36.271L108.64,35.577L107.76,35.049L106.957,34.944L106.499,35.614L106.131,36.238L104.76,36.745L103.983,37.146L102.976,37.235L102.568,36.79L101.105,36.496L99.364,36.147L98.86,36.151L98.702,35.354L98.239,34.237L97.002,32.298L96.496,31.612L95.543,29.995L94.433,28.328L94.275,28.286L93.532,28.23L92.443,28.284L91.751,28.664L91.315,29.139L91.239,29.535L91.661,31.046L91.531,31.422L91.313,31.603L90.324,31.18L89.127,31.209L88.825,31.674L88.096,31.725L85.991,31.901L86.92,33.128L87.228,33.62L87.29,34.339L87.128,35.672L86.682,36.806L86.163,37.727L85.162,38.636L86.682,39.533L85.649,40.741L85.166,41.209L84.606,41.129L83.605,40.713L81.18,39.704L80.023,39.325L78.988,39.208L78.436,39.223L76.241,38.355L75.818,38.451L75.03,38.827L74.942,39.67L74.992,41.756L75.108,43.353L74.819,44.272L74.529,44.895L73.651,46.567L71.677,45.43L70.329,44.675L69.464,45.679L67.296,47.513L66.184,51.1L66.12,51.216L65.463,52.122L64.621,52.538L63.984,52.743L63.612,53.798L64.477,55.303L64.921,56.095L65.335,57.369L65.259,58.177L65.163,58.678L64.234,59.702L62.251,62.391L60.416,65.176L59.665,65.971L60.004,68.31L59.395,68.992L58.152,69.762L57.516,70.058L56.833,70.232L54.73,70.539L55.104,73.008L55.246,74.096L55.244,74.738L55.026,75.365L54.766,76.558L54.374,80.788L54.074,81.24L53.661,82.374L52.33,85.085L51.262,86.875L49.721,89.437L50.975,90.241L52.118,90.828L52.356,91.726L52.513,93.222L52.476,94.237L52.038,95.147L51.698,95.784L51.46,96.094L49.835,95.786L47.753,95.388L47.213,95.385L46.002,95.671L44.909,96.258L44.333,96.752L44.179,96.948L43.452,98.07L42.156,100.052L41.447,100.915L41.655,102.1L40.464,104.379L41.243,106.663L41.277,106.739L41.691,107.658L41.259,108.249L41.077,108.567L41.139,109.611L41.253,110.775L41.153,111.456L41.111,112.209L42.17,115.577L42.158,116.361L42.107,116.866L41.779,118.937L41.339,121.699L42.107,122.42L43.198,123.28L43.811,123.62L44.717,124.64L45.408,125.633L45.312,126.29L45.112,127.015L44.823,127.52L44.549,128.211L44.427,128.721L44.299,128.858L43.09,128.914L42.452,129.106L42.119,129.322L42.232,130.481L42.966,132.592L43.575,134.084L43.771,135.065L43.572,136.056L43.364,136.563L43.358,137.244L43.198,138.594L42.726,139.275L42.109,140.016L41.421,140.568L40.875,140.722L40.408,140.786L40.092,141.065L39.806,141.888L39.542,142.748L38.681,143.805L38.705,144.172L39.033,145.417L39.34,146.83L39.081,148.146L38.859,149.52L38.469,150.433L37.913,150.76L37.506,150.597L37.044,149.344L37.02,149.048L36.906,148.663L35.595,148.28L35.363,148.293L34.847,148.068L34.546,148.004L33.926,147.875L33.41,146.761L32.865,145.831L32.785,145.442L32.805,143.694L32.637,142.913L32.585,142.06L32.241,142.754L32.441,143.848L32.017,144.306L31.48,144.529L31.53,145.167L31.749,145.288L31.795,145.947L31.666,146.924L30.61,149.083L30.398,149.313L30.252,149.604L29.713,149.411L29.019,150.01L28.362,150.107L28.124,149.429L27.198,148.531L26.763,148.581L27.155,149.025L27.542,149.6L27.322,149.979L27.107,150.228L26.729,150.357L25.376,151.107L25.857,151.61L25.448,152.18L24.976,152.263L24.724,152.528L24.636,152.888L23.235,153.914L20.953,156.53L19.78,157.267L18.96,158.03L18.239,158.011L17.331,158.66L15.033,159.226L13.508,158.97L12.447,159.195L11.877,158.75L11.803,158.445L11.831,158.267L11.925,158.053L11.727,157.982L11.311,157.946L11.133,158.16L11.109,158.649L10.912,158.776L10.12,158.496L9.92,158.246L10.204,157.735L10.692,157.276L10.604,157.182L10.51,156.902L10.272,156.866L9.564,156.935L8.989,156.851L7.114,155.815L6.676,155.259L5.163,154.371L4.486,153.427L4.1,152.389L4.13,151.445L4.316,149.943L4.634,149.571L5.991,150.099L7.364,150.978L7.578,150.934L8.009,150.245L8.845,149.689L8.607,149.536L7.364,150.174L6.902,149.822L6.185,149.103L6.185,148.73L6.518,148.358L6.63,147.855L6.457,147.38L6.538,146.731L7.092,146.043L7.924,145.344L8.523,144.667L9.139,144.251L9.075,144.112L8.371,144.377L7.698,144.827L6.906,145.58L5.941,146.189L5.227,146.425L4.888,146.621L4.364,146.81L3.822,147.679L3.231,148.051L2.171,148.089L1.938,147.454L2.237,145.188L2.557,144.079L2.909,143.293L3.461,143.16L3.848,142.583L4.17,142.583L4.45,142.85L5.531,143.108L6.065,142.372L6.758,142.263L8.023,141.519L7.997,141.383L7.142,141.546L6.622,141.57L5.879,141.757L5.483,141.623L5.297,141.065L5.595,140.56L6.788,139.353L7.202,138.823L7.436,138.327L7.398,137.99L7.598,137.289L8.765,136.063L9.716,135.501L10.028,135.984L9.762,137.492L9.764,138.113L10.516,135.916L10.848,135.392L11.223,135.021L12.135,134.773L12.393,134.424L11.329,134.538L8.753,135.381L7.668,136.131L7.378,136.706L6.624,137.574L6.271,138.135L6.115,138.959L5.691,139.406L5.117,139.571L4.322,140.61L3.97,141.443L3.179,142.104L2.677,142.612L2.511,142.794L2.239,143.291L2.014,143.327L1.818,143.035L1.784,142.392L1.864,141.361L2.245,140.617L2.427,139.889L2.175,139.208L2.351,138.776L2.685,138.792L3.309,138.988L3.97,138.957L5.059,138.418L4.886,138.102L4.416,138.057L3.539,138.102L2.801,137.574L2.227,136.521L1.968,135.108L2.141,134.704L4.264,133.258L4.836,132.599L4.504,132.534L3.706,133.333L2.567,133.827L1.848,133.139L1.474,132.396L1.258,130.822L1.336,130.01L1.246,128.941L1.734,128.593L2.277,128.778L2.815,128.847L4.032,128.752L6.718,128.108L8.449,128.491L9.153,128.456L10.23,127.901L11.171,127.845L11.877,128.268L12.263,128.754L12.311,129.402L12.636,129.834L12.856,129.693L12.68,129.179L12.644,128.382L15.476,127.476L15.81,127.124L14.685,127L14.363,126.171L14.957,124.911L14.901,124.747L14.275,125.414L13.967,126.347L14.091,127.091L13.967,127.436L13.392,127.594L12.097,127.652L11.265,127.336L10.496,127.165L10.234,126.928L10.322,126.396L10.176,126.285L9.856,126.762L9.572,127.712L8.961,127.932L7.272,127.579L4.828,127.786L3.73,128.262L3.021,128.2L1.798,127.365L1.322,126.699L1.144,125.352L1.216,124.758L2.167,124.508L2.649,124.524L3.101,124.204L2.701,123.996L2.139,123.585L1.758,122.765L1.18,122.496L0.794,121.793L0.696,120.731L0.806,119.991L1.114,119.753L1.856,119.914L3.81,119.789L5.649,120.544L6.898,120.969L9.427,120.755L10.908,120.081L10.636,119.896L9.029,120.285L7.544,120.268L4.926,119.508L3.852,119.262L2.695,119.371L2.093,119.141L1.74,118.386L2.002,116.937L2.549,116.625L2.845,117.002L3.203,117.026L3.566,116.419L3.912,116.073L4.188,115.288L5.225,114.542L5.663,114.479L6.291,114.135L6.692,114.233L6.948,114.578L7.274,114.863L7.978,114.829L10.06,114.23L10.284,114.054L10.69,113.562L9.371,113.781L8.275,114.13L7.57,114.228L7.47,113.79L7.73,113.404L8.137,112.99L8.335,112.284L8.785,111.982L9.271,111.999L10.274,111.87L10.981,111.686L12.195,111.808L14.005,112.078L15.171,112.736L15.61,112.676L16.076,112.501L16.288,112.264L15.373,111.991L15.321,111.601L15.434,111.307L16.929,110.764L18.56,110.644L18.281,110.207L14.707,110.867L13.774,110.415L13.036,110.419L12.554,110.677L11.179,110.989L10.928,110.768L11.189,110.001L12.013,108.741L12.081,108.433L12.462,108.128L14.597,107.393L15.622,106.536L16.084,106.427L16.542,106.487L17.239,106.387L18.586,106.632L19.208,107.703L19.766,108.039L21.518,109.371L21.44,108.99L19.921,107.18L19.342,106.73L18.908,105.837L19.056,104.991L19.544,104.424L21.277,104.121L21.586,103.792L21.618,103.228L21.352,102.841L20.715,102.863L20.189,102.623L20.045,102.013L20.255,101.599L21.254,100.842L21.8,100.597L22.748,100.332L24.392,100.931L24.518,101.243L24.057,101.995L24.103,102.416L24.506,102.462L25.446,101.194L26.551,101.018L27.009,100.746L27.54,100.573L28.298,101.721L28.632,102.088L28.881,102.238L29.123,103.19L29.357,103.24L29.691,102.765L30.296,102.512L31.146,102.347L32.553,102.6L33.191,102.413L33.502,102.44L33.202,101.585L33.017,101.336L33.306,100.57L33.608,100.27L34.58,99.731L35.507,99.49L36.113,98.978L36.926,98.504L36.798,98.126L36.572,97.687L36.045,97.659L35.831,97.42L36.498,96.85L37.414,96.214L37.254,95.964L36.566,95.681L36.045,95.893L35.269,96.385L34.366,97.162L34.659,97.389L35.111,98.041L34.482,98.905L31.14,101.191L29.547,101.857L28.811,101.753L28.636,101.131L28.298,100.671L27.934,99.718L27.314,99.744L26.963,99.954L26.811,99.642L27.077,98.622L27.6,97.814L28.478,97.202L28.899,96.461L29.295,95.283L30.564,94.157L32.411,91.358L33.916,90.459L34.468,89.473L35.355,89.037L36.113,88.266L36.706,88.19L37.785,87.492L38.397,86.661L37.997,86.61L37.048,87.149L36.51,87.367L36.548,86.476L36.808,85.559L37.59,84.718L41.349,82.266L41.725,82.672L42.174,83.391L43.306,83.23L44.597,81.837L45.59,80.317L45.053,80.583L44.467,81.205L43.326,82.068L42.798,82.204L42.496,82.091L42.328,81.516L41.933,81.329L41.575,81.458L41.205,81.047L41.139,80.032L41.611,78.516L41.985,77.511L42.388,76.746L43.975,74.568L44.317,73.373L45.035,72.741L45.966,72.881L46.248,72.698L45.928,71.91L44.913,71.285L44.851,70.891L48.234,69.855L49.845,69.889L50.323,69.372L51.198,69.038L51.862,68.402L51.52,68.121L49.883,68.705L48.86,68.979L48.398,68.97L48.036,69.17L46.729,69.246L46.444,66.71L46.649,65.325L47.137,65.354L47.249,64.027L47.813,63.241L48.59,63.064L48.982,62.729L49.548,62.042L50.483,62.2L51.444,62.048L51.204,61.723L50.011,61.305L49.717,60.586L50.137,60.183L50.595,59.887L50.998,59.835L51.796,58.424L52.282,57.819L52.823,57.925L53.579,57.3L54.322,57.513L55.04,57.104L56.021,56.834L59.613,56.73L59.719,56.147L58.963,56.013L56.295,55.862L54.932,55.875L54.358,56.026L54.148,55.822L54.186,55.474L54.682,54.92L54.916,54.308L55.907,52.809L57.068,51.806L57.958,52.062L58.903,53.019L59.577,53.139L59.891,53.448L60.382,54.762L60.616,54.804L60.51,53.542L61.16,52.511L60.992,52.226L60.016,52.6L59.269,52.211L58.679,51.434L58.511,50.722L58.879,50.018L59.225,49.662L58.991,49.246L57.516,50.356L56.473,50.615L56.061,50.461L56.283,49.455L56.159,48.655L57.558,46.676L58.04,46.447L58.825,46.607L59.535,47.166L60.128,47.077L60.772,46.777L60.684,46.24L59.289,46.026L58.929,45.579L59.059,45.138L60.016,44.673L60.97,43.833L62.061,43.587L62.938,42.95L63.108,43.095L63.256,43.346L63.572,45.703L64.358,47.612L64.647,47.681L64.346,46.058L64.627,45.59L64.983,45.234L65.095,44.827L64.687,44.689L64.353,44.105L63.878,42.229L64.042,41.739L65.075,40.733L66.37,40.503L67.749,41.207L68.235,41.215L69.034,41.026L70.391,40.445L71.191,40.223L71.607,40.223L71.709,39.929L71.323,39.74L71.199,39.557L70.897,39.452L69.642,39.766L66.178,39.666L65.845,39.33L65.783,38.747L66.15,37.912L66.554,37.449L67.861,36.616L69.242,36.503L70.699,35.016L71.255,33.898L71.571,32.164L72.458,30.755L74.685,29.951L74.774,29.595L74.539,28.856L74.559,27.524L75.168,25.964L75.574,25.421L75.762,25.356L76.241,25.868L76.825,26.954L77.739,27.574L78.936,27.682L79.255,27.377L78.326,26.759L77.621,25.95L77.565,25.134L77.898,24.702L78.418,24.749L79.07,24.659L79.677,24.109L79.765,23.722L79.791,23.195L79.943,22.66L80.834,21.376L83.581,20.539L83.78,20.881L83.633,23.355L83.317,24.946L83.327,26.104L83.862,24.946L84.578,21.756L85.118,20.245L85.725,19.376L86.159,19.18L86.589,18.727L87.156,18.459L87.33,18.806L87.51,19.61L87.204,22.417L87.234,23.299L86.892,24.477L85.583,27.09L85.643,27.422L85.939,27.298L86.445,26.87L88.068,24.386L89.485,24.7L89.503,24.497L89.047,23.765L88.493,23.063L88.325,22.191L88.399,19.853L88.827,18.922L90.05,19.02L90.784,18.891L91.126,19.314L91.859,19.283L92.367,17.595L93.372,17.446L94.255,18.564L95.317,19.314L96.17,20.389L96.412,20.095L95.952,17.578L95.449,16.656L94.355,16.175L93.19,15.033L92.888,14.524L92.94,14.147L93.968,13.782L95.323,14.201L96.53,13.245L96.86,13.508L97.785,13.007L98.361,13.682L98.714,13.482L98.918,12.576L100.395,12.014L101.333,12.535L101.834,13.07L102.068,14.1L102.426,16.124L103.157,17.211L103.613,17.743L104.151,17.89L104.411,17.349L103.907,16.696L103.771,16.079L104.013,14.543L104.295,13.938L105.876,11.634L107.199,10.432L107.99,10.331L109.377,7.62L109.769,7.124L110.131,7.01L110.039,6.342L109.281,5.919L109.255,5.087L110.255,4.074L111.468,2.366L112.065,2.251L112.441,2.727L113.622,3.499L114.346,4.379L114.87,4.822L115.209,4.73L115.491,4.069L115.831,3.758L116.58,3.933L117.028,4.358L117.378,4.414L117.694,4.672L117.768,5.236L117.118,5.852L116.011,7.473L114.919,9.307L114.56,10.269L114.206,12.78L113.353,14.376L113.287,15.49L113.63,16.013L114.572,15.603L115.733,14.116L116.023,12.529L118.927,8.188L120.29,5.766L121.837,3.746L122.704,3.326L123.112,4.668L122.784,6.411L122.127,7.517L122.612,8.023L122.52,9.33L122.369,10.055L122.273,10.812L122.279,11.476L122.734,11.298L124.547,9.933L125.007,8.448L125.432,7.33L125.636,6.362L126.342,5.441L127.673,5.434L127.725,5.071L126.11,3.806L125.92,3.226L126.462,2.453L127.951,0.972L128.716,1.135L129.174,1.473L131.007,1.73L132.414,2.789L132.36,4.439L132.046,5.125L131.738,5.547L129.937,6.788L129.642,7.4L130.207,7.611L131.422,6.994L131.738,7.555L131.35,8.953L131.285,11.039L131.145,12.25L131.145,13.35L131.296,13.94L131.786,11.598L131.952,10.993L132.668,10.105L132.933,8.31L133.633,6.14L134.422,4.873L134.88,4.526L136.399,4.575L137.051,5.053L137.626,6.111L138.056,6.534L139.411,6.983L139.875,7.544L139.961,7.878L140.292,7.945L141.208,7.148L141.801,7.015L142.769,8.257L142.575,9.174L142.631,9.465L143.802,9.406L144.777,9.766L146.63,11.632L146.824,12.5L146.732,13.55L144.058,14.699L142.903,15.795L141.012,16.217L134.592,15.483L134.722,16.276L139.193,18.003L139.449,18.495L139.305,19.526L139.303,20.352L139.387,20.915L139.717,21.438L140.263,21.683L141.376,21.554L141.923,21.836L142.299,21.42L142.439,20.016L142.763,19.706L143.386,20.115L143.658,21.614L143.832,21.768L144.146,20.701L144.763,20.777L145.437,20.688L146.306,20.864ZM104.634,5.269L104.524,5.755L104.335,6.228L103.875,6.725L102.544,8.688L101.762,9.002L101.515,9.308L101.203,9.492L100.231,9.225L99.948,9.621L99.68,9.886L98.976,9.987L98.563,9.902L97.497,9.18L96.864,8.395L96.52,7.723L97.505,7.736L97.855,7.573L98.517,7.714L98.914,7.023L99.754,7.106L101.367,6.625L101.958,6.894L103.311,5.28L103.735,5.322L104.383,4.859L104.634,5.269ZM107.87,9.094L106.801,9.704L106.181,9.18L105.922,8.64L105.884,7.44L106.027,6.707L106.529,6.327L106.855,6.605L106.941,6.838L107.525,7.064L108.21,7.82L107.87,9.094ZM105.616,9.37L105.72,10.086L105.76,10.674L105.236,11.522L104.029,12.631L104.099,12.929L103.681,13.214L103.055,13.422L102.726,13.221L102.77,12.271L102.67,11.988L102.196,12.366L101.702,11.881L101.702,11.394L101.832,10.971L102.29,10.327L103.051,9.882L103.553,10.049L105.228,8.337L105.408,8.697L105.616,9.37ZM84.032,14.414L84.318,14.59L84.602,14.481L84.836,14.635L85.305,15.427L85.811,15.737L85.835,16.133L85.373,16.518L84.764,16.634L84.11,16.5L83.918,16.006L83.716,15.184L83.171,14.376L83.089,13.666L83.565,13.553L84.032,14.414ZM81.158,16.667L81.656,17.478L82.098,17.4L82.23,17.095L82.529,16.943L83.137,17.373L83.051,18.101L82.21,19.018L81.606,20.321L80.834,20.623L80.463,20.467L79.771,21.216L79.219,21.993L78.646,22.974L78.61,23.479L78.52,23.863L76.419,24.245L75.656,24.497L74.846,24.172L74.463,23.526L74.587,23.175L75.394,23.036L75.42,22.435L75.626,22.068L75.888,21.866L76.08,21.097L76.399,20.895L76.995,21.084L77.397,20.525L77.623,20.428L77.9,20.891L78.034,20.254L77.9,19.672L77.97,19.278L78.74,18.252L79.074,17.502L79.553,17.017L80.015,17.093L80.149,16.378L80.015,15.645L80.065,15.165L80.473,14L80.92,13.951L81.126,14.987L81.158,16.667ZM89.706,16.318L89.405,16.665L88.941,16.807L88.691,16.592L88.335,16.451L87.94,16.514L87.608,15.877L87.646,15.341L88.1,14.615L89.009,14.201L89.744,14.372L89.932,14.584L89.706,16.318ZM141.182,20.668L140.117,21.098L139.993,20.744L140.227,20.192L140.506,19.06L140.944,19.105L141.388,19.537L141.736,20.053L141.182,20.668ZM71.331,23.609L72.004,24.443L72.306,24.188L72.904,24.092L73.347,24.386L73.711,24.915L74.141,24.938L74.411,25.628L74.549,26.523L74.237,27.19L73.793,27.493L73.673,28.275L73.841,29.37L72.846,29.744L71.695,29.911L71.243,29.388L70.323,30.343L69.41,31.826L68.97,32.001L68.938,31.532L68.283,31.207L67.443,31.189L67.471,30.841L67.625,30.595L68.349,30.231L68.493,29.475L68.361,28.125L68.489,27.466L68.517,27.012L68.972,26.478L70.531,26.728L70.721,26.218L70.603,25.897L69.798,25.334L69.922,24.955L70.503,24.615L71.053,24.57L71.219,23.996L71.247,23.744L71.331,23.609ZM61.555,38.37L61.623,38.468L62.387,37.124L63.234,36.705L63.286,36.235L63.614,35.781L63.576,35.036L63.742,34.432L64.174,34.27L64.444,34.065L64.741,33.951L65.283,34.443L65.587,34.987L65.966,36.2L65.809,37.369L64.791,38.279L63.984,38.687L63.166,39.726L62.757,40.574L62.403,40.757L62.181,40.688L61.983,40.485L61.569,40.485L61.114,41.218L59.739,41.814L59.199,41.641L59.175,40.911L58.853,40.971L58.338,41.846L57.834,42.139L57.496,42.228L56.875,41.899L55.204,43.384L53.637,43.66L53.121,43.489L53.119,42.582L54.132,41.416L54.962,40.605L57.82,40.036L59.601,37.611L60.03,34.955L60.45,33.989L60.252,33.442L59.775,33.346L59.745,32.504L59.994,31.581L60.928,30.31L61.447,29.768L62.293,28.226L62.701,27.879L63.164,27.879L63.622,28.284L63.54,29.11L62.855,30.595L61.839,31.855L61.963,32.758L62.367,33.497L62.467,34.757L62.493,35.966L61.723,37.593L61.555,38.37ZM58.451,33.005L59.181,34.428L59.515,35.258L59.245,36.817L58.535,37.602L57.442,37.741L56.675,37.676L56.191,37.298L56.131,36.875L55.851,36.75L55.114,37.295L54.602,37.367L53.951,36.946L53.775,36.271L54.466,35.423L54.786,34.762L55.551,34.82L55.743,35.025L56.177,35.154L56.441,34.357L56.381,33.805L56.575,33.42L57.5,33.698L57.502,32.191L57.862,32.086L58.01,32.144L58.276,32.462L58.451,33.005ZM50.969,42.462L51.302,42.696L52.174,42.627L52.35,42.714L52.224,43.101L51.846,43.526L51.053,43.787L50.695,44.435L50.439,44.655L49.753,44.657L49.348,44.807L48.85,45.381L48.452,44.958L48.34,45.26L48.268,45.797L48.046,45.953L47.359,46.147L47.193,44.896L47.509,44.443L47.757,43.898L48.136,43.814L48.476,43.86L49.09,42.683L49.929,42.347L50.471,42.309L50.969,42.462ZM45.912,47.796L45.082,48.509L45.384,47.206L45.832,45.88L46.452,45.12L46.759,45.418L46.617,46.055L46.619,46.683L46.488,46.979L45.912,47.796ZM42.818,71.617L42.298,71.699L42.384,71.145L42.804,70.619L42.966,70.259L43.05,69.835L43.422,69.513L43.945,69.925L43.955,70.623L43.695,71.258L42.818,71.617ZM43.322,73.384L42.872,73.42L42.876,72.91L43.134,72.445L43.542,72.135L44.067,72.053L44.655,72.017L44.833,72.264L44.495,72.611L43.322,73.384ZM40.284,76.799L39.912,77.178L39.218,77.069L39.145,76.743L39.342,76.089L39.764,75.819L40.308,75.871L40.482,76.144L40.284,76.799ZM36.152,86.044L35.859,86.378L35.205,86.111L33.916,86.318L33.396,85.993L33.81,85.357L34.975,84.689L35.601,84.72L36.238,85.541L36.152,86.044ZM20.667,100.098L20.023,100.125L19.636,99.867L20.557,99.355L22.002,98.865L22.14,98.555L22.314,98.516L22.564,98.898L22.596,99.421L22.436,99.68L20.667,100.098ZM18.6,103.856L18.051,103.863L17.397,103.689L16.987,103.317L16.923,102.988L17.677,102.58L18.434,102.34L18.786,102.79L18.812,103.527L18.6,103.856ZM0.966,128.456L0.469,128.589L0.069,128.474L0.211,127.469L0.419,127.305L0.72,127.247L1.046,127.786L0.966,128.456ZM1.68,136.532L1.698,137.75L1.182,137.657L0.95,137.191L0.882,136.891L0.924,136.185L0.808,135.455L0.96,135.092L1.148,135.043L1.482,135.693L1.68,136.532Z" fill="#CCAA5A" stroke="#DCDCDC" stroke-width="0.5" stroke-miterlimit="3.999327"/>
<path d="M108.646,74.586L107.159,74.873L106.042,74.298L105.484,74.586L104.511,74.599L103.403,74.826L103.03,75.274L102.736,75.454L101.711,74.82L100.741,73.769L100.034,74.57L99.576,74.721L99.162,73.996L98.803,73.878L98.609,74.12L98.439,74.761L98.167,75.263L98.095,75.581L98.049,76.859L97.979,77.155L97.038,76.99L97.094,77.326L97.3,77.495L97.383,77.707L97.042,77.985L96.108,77.958L96.012,78.254L96.274,78.718L96.068,79.127L95.878,79.287L94.761,79.539L94.116,79.481L93.93,79.744L93.88,80.086L94.002,80.421L94.288,80.599L94.381,80.812L94.362,81.271L94.124,81.355L93.452,80.547L93.246,80.588L93.4,81.008L93.784,81.465L94.006,81.932L94.2,82.491L94.162,82.916L93.326,84.281L92.591,85.14L92.043,85.912L91.719,86.729L92.095,87.139L92.511,87.731L92.805,88.865L93.154,89.875L93.86,90.835L93.718,91.389L93.554,91.819L92.381,92.765L91.05,94.185L89.615,97.787L89.137,98.268L87.882,98.873L87.42,99.457L86.485,100.151L84.852,100.746L84.112,101.574L83.779,102.427L83.407,102.489L83.037,102.155L82.545,101.906L82.481,102.464L82.503,102.872L81.716,102.268L81.344,102.823L81.054,103.747L79.921,104.989L78.7,104.766L78.564,104.984L78.888,105.142L78.938,105.34L78.716,105.445L78.38,105.434L77.863,105.679L77.523,105.661L77.361,106.246L77.097,106.952L76.408,107.244L76.052,107.304L75.876,107.705L76.937,107.789L76.853,108.128L76.829,108.468L76.719,108.831L75.512,109.354L75.326,109.764L75.074,110.018L74.537,110.004L74.557,109.768L74.645,109.501L73.845,109.524L73.595,108.934L73.444,109.085L73.534,109.561L73.741,110.055L73.975,110.779L73.785,111.235L73.575,111.462L73.729,111.67L74.155,111.83L74.327,112.115L73.821,112.358L73.19,113.194L72.534,113.214L72.134,113.765L71.709,113.764L71.363,113.417L70.809,113.132L70.631,113.633L70.603,114.032L70.915,115.04L71.511,115.817L72.062,116.153L71.665,116.38L71.369,116.881L71.011,118.442L70.817,119.056L70.608,120.134L70.739,121.042L70.847,121.487L71.117,122.092L70.384,122.013L69.608,121.661L69.716,122.393L69.24,123.257L69.328,124.016L69.428,124.508L69.28,125.323L69.504,125.579L69.626,126.064L69.424,126.422L69.512,126.728L69.546,127.812L69.698,129.503L69.642,129.858L70.068,131.318L69.97,131.828L69.912,132.476L70.524,133.099L71.067,133.09L71.619,133.081L71.829,133.235L72.041,133.675L72.21,134.194L72.664,134.152L73.39,133.731L73.861,133.631L74.173,134.441L75.021,135.508L75.514,135.986L76.352,136.238L77.235,137.095L77.111,138.126L77.479,138.469L78.52,138.874L78.89,139.421L79.068,139.886L79.342,140.27L79.663,141.431L79.551,142.144L79.132,142.389L78.138,143.152L77.697,143.72L77.351,144.072L76.366,144.829L76.004,144.965L75.658,145.358L75.324,145.53L75.024,145.432L73.905,146.142L73.15,145.946L72.832,145.595L73.034,144.201L72.908,143.751L72.762,143.524L72.266,143.783L72.354,144.317L71.497,144.339L70.689,143.887L70.586,144.777L68.851,144.039L68.373,144.226L67.607,143.856L67.11,144.299L66.518,144.139L66.108,143.613L65.541,144.539L64.302,144.802L63.136,144.949L63.698,145.258L66.312,145.2L67.052,145.428L68.013,145.276L68.865,146.002L69.478,146.176L70.204,147.01L70.576,146.783L71.159,146.817L71.699,147.055L73.412,147.024L73.993,146.443L74.851,146.57L75.288,146.42L75.624,146.064L75.992,145.982L76.326,146.049L76.681,145.768L76.961,145.655L77.249,145.791L77.571,146.465L76.903,146.814L76.43,146.83L76.198,147.93L75.912,148.402L75.706,148.629L74.657,149.096L73.963,149.686L73.146,150.16L72.79,150.056L72.252,150.537L71.059,151.106L70.446,151.872L69.073,152.554L68.373,153.11L66.472,153.139L64.658,153.017L64.088,153.281L64.671,153.362L65.079,153.62L65.569,153.511L66.72,153.64L67.312,153.782L68.071,154.686L67.514,155.005L66.546,155.252L66.91,156.527L67.208,157.384L66.816,157.899L66.786,160.236L66.236,160.279L66.003,161.242L66.174,161.732L66.16,162.867L66.274,163.564L66.544,164.205L66.424,164.871L65.555,166.427L65.573,167.155L65.731,167.587L65.847,168.275L65.451,169.595L65.173,170.693L64.841,171.616L64.1,172.718L63.73,173.54L62.867,176.095L62.439,176.599L61.913,176.986L61.328,176.628L60.79,176.434L60.135,176.458L59.107,176.752L57.562,176.556L56.053,176.65L55.672,176.902L55.901,177.823L55.344,177.943L54.8,177.681L54.321,177.994L53.921,178.335L53.135,179.145L52.871,179.642L52.804,180.577L53.217,181.414L53.583,182.393L52.642,183.567L52.116,183.607L50.581,183.28L47.861,184.016L45.419,183.435L45.724,182.805L45.714,182.342L45.852,181.628L45.934,180.897L45.912,180.406L45.732,179.882L45.131,179.196L43.774,176.87L43.372,175.884L43.092,175.472L43.294,175.45L44.413,175.98L44.673,175.915L44.947,175.717L44.613,174.956L44.325,174.613L44.131,174.097L44.785,173.958L45.259,173.989L45.606,173.408L45.405,172.465L44.897,172.175L44.473,172.048L43.66,170.559L42.812,169.786L41.299,166.788L40.746,164.715L40.232,164.913L39.982,164.007L39.802,163.144L39.766,162.511L38.959,162.148L38.927,161.701L38.781,159.704L37.916,159.435L37.356,158.31L37.256,156.169L36.686,155.779L36.229,155.888L36.251,155.356L36.361,154.855L36.093,152.861L36.003,151.033L35.787,150.477L35.663,149.827L35.773,149.265L35.937,148.94L36.494,148.854L37.016,149.352L37.478,150.604L37.886,150.768L38.441,150.441L38.831,149.528L39.053,148.153L39.313,146.837L39.005,145.425L38.677,144.179L38.653,143.813L39.515,142.756L39.778,141.895L40.064,141.073L40.38,140.793L40.848,140.73L41.393,140.575L42.081,140.024L42.698,139.283L43.17,138.602L43.33,137.251L43.336,136.57L43.544,136.064L43.744,135.073L43.548,134.092L42.938,132.6L42.205,130.488L42.091,129.33L42.425,129.114L43.062,128.922L44.271,128.865L44.399,128.729L44.521,128.219L44.795,127.527L45.085,127.023L45.285,126.298L45.381,125.641L44.689,124.648L43.784,123.627L43.17,123.288L42.079,122.427L41.311,121.707L41.751,118.945L42.079,116.874L42.131,116.369L42.143,115.585L41.083,112.217L41.125,111.463L41.225,110.783L41.111,109.619L41.049,108.575L41.231,108.257L41.663,107.665L41.249,106.747L41.215,106.67L40.436,104.386L41.627,102.108L41.419,100.922L42.129,100.06L43.424,98.077L44.151,96.955L44.305,96.759L44.881,96.266L45.974,95.679L47.185,95.392L47.725,95.396L49.808,95.794L51.433,96.102L51.67,95.792L52.01,95.154L52.448,94.245L52.486,93.23L52.328,91.734L52.09,90.835L50.947,90.249L49.694,89.445L51.235,86.883L52.302,85.093L53.633,82.382L54.047,81.247L54.347,80.795L54.738,76.565L54.998,75.372L55.216,74.746L55.218,74.103L55.076,73.016L54.702,70.547L56.805,70.24L57.488,70.066L58.124,69.77L59.367,69L59.977,68.317L59.637,65.979L60.388,65.184L62.223,62.399L64.206,59.71L65.135,58.686L65.231,58.185L65.307,57.377L64.893,56.102L64.45,55.311L63.584,53.806L63.956,52.751L64.593,52.546L65.435,52.13L66.092,51.224L66.157,51.108L67.268,47.52L69.436,45.687L70.302,44.683L71.649,45.438L73.623,46.574L74.501,44.902L74.791,44.28L75.08,43.361L74.965,41.763L74.915,39.677L75.003,38.835L75.79,38.459L76.214,38.363L78.408,39.231L78.96,39.216L79.995,39.332L81.152,39.712L83.577,40.721L84.578,41.137L85.138,41.217L85.621,40.748L86.655,39.541L85.134,38.644L86.135,37.735L86.655,36.814L87.1,35.679L87.262,34.347L87.2,33.628L86.893,33.136L85.963,31.909L88.068,31.733L88.797,31.682L90.328,32.491L90.396,32.668L90.406,33.089L90.46,33.524L91.945,34.626L92.373,35.209L93.286,36.092L93.528,36.567L94.374,37.123L94.979,37.716L95.687,38.196L96.512,38.94L97.621,39.532L98.557,39.724L100.915,40.736L101.317,41.063L101.996,41.765L102.684,42.575L103.16,44.234L103.921,44.32L104.129,44.888L104.794,45.859L105.718,46.714L105.684,47.001L104.948,47.785L104.868,48.846L104.938,50.195L105.17,51.291L105.146,51.611L104.964,51.988L104.747,52.578L104.667,53.092L104.687,53.343L104.761,53.481L105.148,53.492L105.842,53.613L106.25,53.84L106.481,55.087L106.403,55.327L105.82,55.89L105.648,56.337L105.632,56.99L105.736,57.709L105.938,58.51L106.395,59.365L107.015,60.256L107.423,60.986L107.615,61.498L107.684,61.858L107.407,62.308L107.157,63.196L107.111,64.209L106.997,64.868L106.453,65.774L106.076,66.093L105.968,66.569L105.922,67.366L106.034,68.335L106.072,68.989L106.188,69.459L106.359,69.766L107.233,70.305L107.723,71.409L108.028,72.293L108.646,74.586ZM77.457,145.022L77.317,145.354L77.175,144.947L77.231,144.867L77.327,144.466L77.599,144.246L78.032,144.379L78.03,144.479L77.615,144.804L77.457,145.022ZM76.452,149.412L76.202,149.506L76.078,149.477L76.232,149.018L76.346,148.82L76.723,148.635L76.839,148.667L76.452,149.412ZM80.605,160.174L80.503,160.771L80.211,160.726L79.945,160.285L80.483,159.611L81.304,159.648L81.586,159.789L80.605,160.174ZM80.155,161.004L79.691,161.231L79.42,161.904L79.044,162.019L78.684,162.242L78.556,164.359L79.214,165.16L78.852,165.272L78.522,165.512L78.286,165.866L78.045,166.627L77.139,167.057L76.797,167.375L76.292,168.081L76.028,169.103L75.516,169.539L74.941,169.642L75.276,168.807L75.718,168.124L75.294,167.654L75.038,166.919L74.707,166.352L74.971,165.719L74.841,164.68L74.883,163.662L75.266,163.148L75.706,162.729L76.39,161.761L77.131,161.056L78.166,160.741L78.634,161.033L78.836,160.392L79.17,160.245L79.483,160.394L80.155,161.004ZM65.865,175.461L65.575,175.922L65.319,175.889L65.149,175.274L65.109,173.687L65.211,172.899L66.434,170.045L66.98,169.811L67.747,168.05L67.955,167.262L68.289,166.552L68.485,165.915L68.651,165.657L69.009,165.777L69.168,165.895L68.791,166.265L68.835,166.746L68.809,166.944L67.855,169.03L67.601,170.377L67.264,170.706L65.865,175.461Z" fill="#7699BB" stroke="#DCDCDC" stroke-width="0.5" stroke-miterlimit="3.999327"/>
</svg>
