<svg width="280" height="212" viewBox="0 0 280 212" fill="none" xmlns="http://www.w3.org/2000/svg" xmlns:xlink="http://www.w3.org/1999/xlink">
<path d="M223.261,68.841L223.379,69.179L223.399,69.495L222.867,69.789L222.517,69.96L222.097,70.771L221.32,71.321L221.19,71.488L221.196,71.639L221.724,71.888L221.9,72.124L221.982,72.44L221.746,73.569L221.598,74.433L221.404,75.564L221.412,75.995L221.612,76.51L221.81,76.911L221.872,77.365L221.802,78.482L222.043,79.126L222.237,79.72L221.776,80.459L221.578,81.111L221.454,82.042L221.404,82.628L221.106,83.169L220.718,83.676L220.281,83.992L219.741,84.264L219.119,84.622L218.616,85.579L217.526,86.374L217.299,86.646L217.197,87.282L217.223,88.162L217.415,88.861L217.936,89.892L218.394,91.025L218.518,91.594L218.694,91.81L219.337,92.18L220.451,92.681L220.656,92.886L221.208,93.663L221.732,95.054L221.896,95.973L222.915,96.702L223.856,97.374L224.76,97.964L225.741,98.603L225.883,98.799L226.209,100.152L226.534,101.492L226.89,102.964L227.25,104.438L227.674,106.169L227.914,107.147L228.203,108.333L228.545,109.72L227.995,110.014L227.376,110.39L227.828,111.101L228.699,112.258L229.225,113.189L229.409,113.594L229.818,114.747L230.152,115.862L230.238,116.223L230.36,117.08L230.21,119.433L230.45,122.409L230.774,123.886L230.264,125.217L229.828,126.486L229.856,127.123L230.096,128.117L230.332,128.85L230.652,129.235L230.59,130.468L230.456,130.914L229.476,131.559L228.391,132.149L228.091,132.648L228.005,133.204L228.149,133.656L228.895,134.654L230.016,136.148L231.249,137.79L231.351,138.202L231.401,139.364L231.915,140.822L232.47,141.457L232.678,141.931L233.072,142.27L233.464,142.519L233.708,142.548L235.093,142.152L237.461,142.806L239.702,143.471L239.865,143.601L240.355,144.442L241.157,145.813L241.75,146.907L242.282,147.886L239.378,149.571L236.472,151.252L233.568,152.929L230.664,154.602L227.76,156.272L224.854,157.939L221.95,159.602L219.045,161.259L217.119,162.358L215.894,163.327L214.357,164.538L212.906,165.74L211.764,166.686L210.285,167.906L209.54,168.521L207.891,169.881L207.395,170.123L205.211,170.524L203.206,170.891L201.355,171.23L200.09,171.462L198.865,171.686L197.084,172.002L195.813,172.229L194.442,172.472L194.228,172.514L193.98,172.523L193.794,172.514L193.415,172.379L192.957,172.062L192.651,171.898L192.575,171.648L192.753,171.314L192.975,171.014L193.059,170.778L193.211,170.598L193.407,170.453L193.415,170.248L193.253,169.91L193.111,169.444L193.117,168.596L193.121,168.312L193.121,168.211L192.711,167.886L191.938,167.526L191.226,167.316L190.902,167.243L190.117,167.116L189.032,166.889L188.65,166.733L187.946,165.943L187.601,165.742L185.972,165.607L185.43,165.477L184.986,165.29L184.607,165.035L184.393,164.602L184.329,164.248L184.187,164.079L182.39,163.222L181.932,162.931L181.691,162.661L181.683,162.26L181.731,161.767L181.655,161.33L181.579,161.116L180.757,160.596L178.921,159.431L177.084,158.265L175.247,157.098L173.41,155.929L171.573,154.758L169.737,153.585L167.9,152.41L166.063,151.234L164.226,150.054L162.388,148.875L160.553,147.692L158.716,146.508L156.879,145.322L155.041,144.133L153.204,142.942L151.367,141.749L149.814,140.742L148.101,139.674L146.828,138.892L145.565,138.111L144.206,137.274L143.322,136.755L142.269,136.134L141.214,135.511L140.159,134.888L139.103,134.266L138.048,133.643L136.993,133.019L135.939,132.394L134.884,131.768L133.829,131.141L132.776,130.515L131.72,129.889L130.665,129.26L129.61,128.632L128.554,128.002L127.499,127.372L126.446,126.742L126.446,125.577L126.446,124.627L126.446,123.229L126.446,122.013L126.446,120.796L126.446,119.958L126.446,119.082L126.474,118.687L126.578,118.518L127.147,118.233L128.039,117.583L128.369,117.294L128.79,117.002L130.283,116.121L130.593,115.874L132.044,114.86L132.384,114.711L133.163,114.611L133.489,114.42L133.927,114.014L134.57,113.549L134.988,113.327L135.088,113.287L135.356,113.255L136.697,113.393L137.26,113.496L137.934,113.583L138.144,113.523L138.324,113.378L138.578,113.053L138.632,112.666L138.648,112.329L138.688,112.182L138.805,112.114L139.099,112.14L139.491,112.185L140.292,112.171L140.564,112.124L141.474,112.051L142.759,111.831L143.778,111.544L144.59,111.317L145.459,110.72L146.097,110.09L146.758,109.15L147.284,108.333L148.349,107.823L149.238,107.512L149.748,107.39L150.903,106.958L151.881,106.305L152.798,105.691L153.5,105.609L154.387,105.508L154.585,105.393L154.809,105.175L154.821,104.791L154.553,104.52L154.229,104.378L153.999,104.222L153.771,104.193L153.649,104.008L153.717,103.667L153.751,103.351L153.897,103.035L153.857,102.588L153.629,102.142L153.56,101.82L153.576,101.501L153.687,101.252L154.015,101.087L154.397,101.023L154.933,101.103L155.858,100.996L158.226,100.223L158.39,99.985L158.542,99.449L158.712,98.979L158.958,98.821L159.092,98.787L159.881,98.66L160.999,98.482L161.418,98.456L162.637,98.507L163.525,98.545L164.96,98.607L165.979,98.638L166.867,98.665L167.998,98.701L168.276,98.592L168.276,98.249L168.072,97.61L168.196,97.211L168.631,96.84L169.175,96.426L168.921,95.922L168.488,95.584L167.882,95.177L167.568,95.012L167.018,94.52L166.683,93.959L166.455,92.775L166.037,92.111L165.733,91.29L166.003,89.782L165.599,88.868L165.537,88.473L165.534,88.006L165.657,87.198L165.577,86.06L165.102,84.883L165.326,84.482L165.43,84.273L165.396,84.094L164.962,83.72L164.778,83.409L164.874,83.119L165.1,82.696L165.08,82.518L164.378,82.002L163.195,81.165L162.863,80.798L162.701,80.339L163.835,80.457L164.42,80.401L165.763,79.849L166.831,79.103L167.66,78.723L168.39,77.904L169.051,77.387L170.006,76.828L172.763,75.621L173.184,75.611L174.092,75.886L174.881,75.8L175.421,75.377L176.002,74.357L176.904,73.734L178.041,73.11L179.588,72.512L180.601,71.962L182.204,71.485L186.228,71.182L188.294,70.911L189.699,70.973L191.118,70.098L191.828,69.809L194.9,69.742L196.349,69.101L201.841,69.101L202.513,69.315L203.172,69.66L204.295,70.49L204.855,70.671L205.581,70.499L207.267,69.713L209.17,69.302L210.205,68.834L210.645,68.15L211.537,67.897L212.038,68.424L214.011,68.954L215.222,68.801L215.754,68.642L215.562,67.855L216.843,68.064L217.826,68.444L218.856,69.203L219.523,69.353L220.738,69.012L223.261,68.841Z" fill="#F7B329" stroke="#DCDCDC" stroke-width="0.5" stroke-miterlimit="3.999327"/>
<path d="M165.09,25.81L165.098,26.053L165.318,26.387L165.545,26.51L166.025,26.681L166.395,26.705L166.899,26.785L167.24,26.977L167.26,27.277L167.174,27.611L166.967,27.918L166.849,28.152L166.959,28.286L167.138,28.391L167.332,28.42L167.464,28.386L167.564,28.201L167.754,27.974L167.86,27.945L167.852,28.074L167.942,28.233L168.559,28.5L169.915,28.998L170.446,29.007L170.876,29.065L171.002,29.274L171.865,30.04L172.071,30.02L172.455,30.038L172.919,29.976L173.254,29.833L173.474,29.856L173.718,30.005L174.002,30.134L174.37,30.387L174.697,30.697L174.923,30.799L176.284,30.59L176.588,30.773L176.91,30.772L177.272,30.724L178.059,30.821L178.699,30.797L178.757,30.721L178.811,30.031L178.913,29.786L179.064,29.72L179.442,29.769L180.819,30.178L181.387,30.434L181.932,30.634L182.408,30.655L182.724,30.79L183.166,31.443L183.09,31.772L183.13,31.894L183.176,32.12L183.164,32.373L183.28,32.538L183.489,32.558L183.757,32.509L184.051,32.411L184.567,32.131L184.721,32.086L185.584,32.404L185.966,32.616L186.098,32.847L186.296,33.083L186.553,33.117L186.921,32.894L187.495,32.654L188.47,32.865L189.555,33.17L190.025,33.206L190.041,33.057L190.127,32.845L190.305,32.738L190.573,32.707L190.944,32.594L191.368,32.409L191.81,32.333L192.272,32.471L192.829,32.583L193.163,32.582L193.323,33.017L193.593,33.183L193.699,33.56L193.203,33.756L192.911,33.783L192.821,34.428L192.961,34.61L193.239,34.78L193.315,34.978L193.371,35.922L192.803,36.49L192.008,37.128L188.114,39.17L187.187,40.156L186.833,40.383L183.939,41.002L181.916,41.663L180.947,41.903L179.736,43.048L179.162,43.509L179.62,43.636L180.154,44.183L179.974,44.424L179.196,44.798L178.857,44.913L178.673,44.853L178.499,44.904L177.196,46.873L176.044,48.286L175.397,48.9L174.733,49.813L173.32,52.16L173.31,52.836L174.006,55.158L174.406,55.766L174.965,56.276L176.024,56.71L176.286,57.137L175.921,57.543L174.861,58.264L173.018,59.237L172.235,60.003L172.069,60.74L171.53,61.073L171.326,62.102L170.998,62.783L170.936,63.014L170.588,63.529L170.542,63.905L171.112,64.421L170.83,64.644L170.548,64.742L169.899,64.802L167.714,64.867L165.957,65.98L165.08,66.964L164.284,68.789L163.319,69.862L162.893,70.06L162.232,69.589L161.404,69.517L160.603,69.673L160.183,70.047L159.528,70.256L158.886,70.076L157.499,69.978L156.881,69.996L155.916,70.299L155.089,70.098L153.691,69.994L150.668,70.236L150.286,70.348L149.908,70.799L148.945,71.574L147.48,71.601L146.155,72.095L145.823,72.411L145.267,73.28L145.093,73.914L144.977,73.919L144.833,73.763L144.63,73.814L144.524,74.297L144.026,74.517L143.61,74.597L142.585,74.206L141.73,73.62L141.282,73.578L140.554,72.663L140.241,72.08L140.019,71.449L140.065,71.207L140.003,71.006L139.357,70.75L139.199,70.169L139.671,69.411L140.057,69.09L140.296,68.998L139.713,69.03L139.291,69.517L138.752,68.736L136.551,67.213L136.693,66.862L136.669,66.674L136.299,67.082L136.047,67.187L134.922,67.122L133.627,67.309L133.285,65.722L133.123,65.112L133.081,64.716L133.415,63.801L133.781,63.427L134.267,62.656L134.866,62.013L135.5,61.861L135.78,61.766L136.013,61.269L136.145,60.844L136.049,60.802L135.31,60.889L133.983,59.101L134.025,58.816L134.191,58.393L134.301,57.857L134.329,57.434L134.674,57.069L135.204,56.703L135.65,56.18L135.873,55.67L135.919,55.205L135.668,54.873L134.942,54.689L134.193,53.36L134.027,52.527L133.873,52.44L133.411,52.06L132.967,51.345L132.903,51.233L133.361,51.107L135.248,51.102L135.642,50.944L135.702,50.889L136.045,50.332L136.405,49.415L136.489,48.854L136.375,48.622L135.75,48.054L135.722,47.887L135.821,47.618L136.193,47.331L136.695,47.004L136.969,46.723L136.903,46.501L136.757,46.271L136.733,46.055L136.825,45.79L136.859,44.882L136.923,44.649L136.825,43.822L136.703,43.144L136.305,42.266L136.377,42.071L136.561,41.908L137.163,41.603L137.642,40.884L138.34,40.281L139.253,39.797L139.893,39.257L140.145,38.843L140.322,38.734L140.271,38.542L140.151,38.262L139.787,37.988L139.317,37.832L138.795,37.839L138.472,37.783L138.378,37.569L138.414,36.988L138.386,36.412L138.286,36.147L138.044,35.948L137.566,36L137.153,35.837L136.839,35.799L136.657,35.928L135.732,35.889L135.346,35.797L135.076,35.682L134.904,35.746L134.806,35.859L134.79,36.035L134.726,36.267L134.394,36.478L133.637,36.687L133.025,36.67L132.464,36.521L132.284,36.411L132.014,36.313L130.873,36.434L130.735,36.345L130.341,36.561L129.762,36.819L129.436,36.834L129.318,36.779L129.276,36.665L129.032,36.263L129.096,36.051L129.564,35.428L129.512,35.279L129.32,35.078L129.148,34.787L129.098,34.637L128.8,34.611L128.482,34.764L127.273,35.078L126.983,35.192L126.46,35.494L125.93,35.955L125.508,36.051L125.363,35.915L125.313,34.833L125.956,34.112L126.414,33.676L126.2,33.587L125.714,33.6L125.748,33.262L125.976,33.099L126.196,32.73L125.938,32.573L125.736,32.329L125.748,31.694L125.804,31.436L125.738,31.156L124.749,31.534L124.495,31.478L124.485,31.006L125.033,30.285L125.089,30.063L124.447,29.956L123.967,29.602L123.676,29.285L123.364,28.829L123.362,28.419L123.686,27.458L124.147,27.179L124.547,27.006L125.393,26.34L126.558,26.463L127.279,26.32L127.927,25.978L128.299,25.902L128.896,25.604L128.876,25.201L128.67,24.902L128.85,24.62L129.52,24.276L130.263,23.818L131.117,23.729L131.984,23.324L132.566,23.586L133.075,23.497L133.661,23.807L134.43,24.517L135.558,24.802L136.457,24.579L138.046,24.532L138.839,24.626L140.25,24.45L141.058,24.513L142.367,24.161L143.38,24.6L145.345,24.806L146.524,25.165L149.79,25.768L150.969,25.775L152.638,25.436L153.346,25.181L153.993,25.332L154.943,25.04L155.398,25.1L155.992,25.516L158.081,26.077L158.628,25.601L159.036,25.497L160.539,25.788L162.054,26.38L162.841,26.421L163.993,26.26L164.906,25.871L165.09,25.81ZM199.237,50.032L199.135,50.109L197.41,49.344L196.846,49.259L196.709,49.143L196.725,48.745L196.769,48.569L197.924,48.489L198.857,48.773L199.359,49.535L199.397,49.666L199.237,50.032ZM192.795,50.374L193.333,50.593L193.9,50.396L194.202,50.457L194.5,50.564L194.572,50.982L194.308,51.447L193.938,51.919L193.627,52.436L193.355,53.03L192.849,53.38L192.391,53.591L191.424,53.15L190.86,53.039L190.693,52.874L190.559,52.217L190.305,52.008L189.931,51.915L189.603,52.084L189.176,52.431L188.948,52.084L188.586,52.019L188.45,51.81L188.456,51.541L190.777,49.945L191.448,49.591L192.873,49.179L193.091,49.241L192.905,49.484L192.919,49.595L193.097,49.713L193.055,49.902L192.875,50.065L192.795,50.374ZM183.258,56.093L183.054,56.494L182.2,56.352L182.012,56.191L182.196,55.737L182.442,55.682L182.458,55.359L182.716,55.034L183.927,54.771L184.201,54.993L184.259,55.31L183.535,56.004L183.258,56.093ZM184.093,57.699L183.967,57.785L183.595,57.707L183.038,57.707L183.016,57.444L183.102,57.26L183.21,57.073L183.549,57.44L184.087,57.509L184.093,57.699ZM98.217,117.403L97.835,117.785L97.409,117.647L97.613,116.811L97.811,116.563L98.587,116.198L99.232,116.051L99.422,115.662L99.634,115.511L99.862,115.742L99.69,116.011L99.554,116.85L99.124,117.118L98.217,117.403ZM75.116,119.82L74.976,119.863L74.849,119.408L74.183,118.289L74.587,117.79L75.322,117.777L75.62,118.126L75.72,118.485L75.58,118.692L75.622,119.112L75.544,119.382L75.116,119.82ZM95.519,121.684L94.757,122.336L93.996,122.185L93.866,122.078L94.629,121.913L95.323,121.417L95.768,120.319L96.466,119.103L96.606,118.587L96.882,118.385L97.261,118.367L97.425,118.405L97.593,118.676L97.591,119.288L97.393,120.303L97.028,121.2L95.519,121.684ZM83.529,120.473L83.059,121.788L82.621,122.302L82.362,122.474L81.716,122.617L80.948,121.802L80.549,120.973L80.329,120.706L80.679,120.495L81.188,120.531L82.284,120.355L82.505,120.284L83.619,119.446L84.714,119.342L84.74,119.618L83.529,120.473ZM78.76,122.53L78.53,122.579L78.258,122.436L77.97,121.98L78.164,121.643L78.342,121.488L78.59,121.512L79.066,121.761L79.212,122.018L79.226,122.178L78.76,122.53ZM88.767,121.81L88.733,122.253L88.865,122.699L88.831,123.376L88.563,123.743L87.876,124.108L87.334,124.043L87.028,123.896L86.485,123.302L86.473,122.688L86.97,122.289L87.184,121.771L88.475,121.869L88.587,121.77L88.683,121.741L88.767,121.81ZM74.815,123.749L74.273,124.684L73.589,124.335L73.424,124.219L73.286,124.026L73.943,123.988L74.609,123.518L74.815,123.749Z" fill="#7699BB" stroke="#DCDCDC" stroke-width="0.5" stroke-miterlimit="3.999327"/>
<path d="M251.997,3.458L251.883,3.881L251.646,3.987L251.23,4.234L250.754,4.571L250.31,4.951L250.191,5.363L250.312,5.631L250.432,5.724L250.594,5.642L250.83,5.693L251.126,5.84L251.62,5.984L251.634,6.125L251.53,6.307L251.146,6.628L250.8,6.991L250.766,7.213L250.808,7.374L250.928,7.472L251.44,7.429L251.516,7.561L251.266,8.493L251.344,8.651L251.793,8.8L252.121,9.023L252.735,9.611L252.979,10.087L252.811,10.247L252.425,10.325L252.111,10.285L252.467,9.998L251.598,8.952L251.204,8.954L250.682,9.397L249.231,8.949L248.953,9.13L248.747,9.484L248.244,9.923L247.53,10.116L246.735,10.599L245.897,10.94L245.258,11.198L244.89,11.153L245.474,10.595L245.226,10.584L244.45,10.978L244.005,11.311L243.861,11.87L243.731,12.788L244.071,13.032L244.666,14.241L245.4,14.756L245.258,15.248L245.064,15.637L244.62,15.973L244.253,15.724L244.027,15.73L243.857,16.516L244.175,18.605L244.686,20.065L245.194,20.7L246.339,21.686L247.55,22.205L249.729,23.859L250.924,24.382L251.238,24.665L251.961,25.935L252.587,27.396L253.261,29.68L253.74,30.8L254.708,32.064L256.714,33.865L258.539,35.177L260.238,35.987L261.563,36.129L264.699,35.951L265.244,36.027L265.824,36.245L265.962,36.806L265.75,37.184L265.091,37.576L264.419,38.119L264.345,38.858L264.973,39.377L267.999,40.751L271.093,41.897L272.056,42.48L273.173,43.385L275.869,44.627L276.325,45.23L277.964,46.525L278.705,47.521L278.847,48.293L278.494,49.075L278.33,49.625L278.052,50.168L277.354,49.963L276.561,49.404L275.366,47.127L273.185,46.897L272.733,46.728L271.958,46.336L271.912,46.076L271.72,45.753L271.522,45.644L270.689,45.571L270.111,45.942L269.432,46.819L268.66,48.077L267.877,49.916L267.833,50.657L268.258,51.374L269.529,51.773L270.511,52.41L271.158,53.075L271.204,54.674L271.494,55.58L271.068,56.094L270.243,55.962L269.144,56.288L268.364,56.873L268.04,57.429L268.124,58.867L267.965,59.413L266.488,60.444L265.712,61.497L265.518,61.933L265.222,62.427L263.358,62.445L262.916,61.833L262.9,60.923L263.22,60.363L263.905,60.099L264.367,58.93L264.221,58.084L264.491,57.708L264.745,57.443L265.266,57.287L266.004,57.138L266.078,55.953L265.502,55.413L265.3,54.656L265.032,53.255L264.083,51.459L263.576,49.852L263.178,49.057L262.574,48.641L261.485,48.647L260.943,48.529L259.017,47.407L258.883,47.236L258.895,46.937L259.215,46.485L258.999,45.873L258.771,45.294L258.393,44.8L257.979,44.542L257.112,44.7L256.808,44.822L256.26,44.78L255.831,44.999L255.591,45.007L256.266,44.137L256.085,43.932L255.417,43.574L254.51,43.52L254.258,43.476L254.11,43.7L253.934,43.578L253.952,43.189L252.899,41.443L252.191,40.729L251.833,40.602L251.188,40.753L250.107,40.441L249.461,40.372L249.105,40.448L248.574,40.675L248.306,40.524L248.212,40.29L247.231,39.562L246.005,39.15L243.621,36.82L242.889,35.947L241.384,34.983L240.433,33.574L239.654,33.057L238.52,32.641L238.259,32.694L237.919,32.85L237.651,32.872L237.439,32.688L237.655,32.5L237.897,32.414L237.803,31.873L236.512,30.468L235.756,30.014L235.542,29.734L235.384,29.351L235.223,29.099L234.865,28.954L234.559,28.979L234.137,28.883L234.151,28.204L234.235,27.683L234.171,27.24L233.76,26.073L233.048,25.081L232.628,22.701L232.305,22.028L231.517,21.517L229.74,20.944L227.264,19.399L226.74,19.371L225.251,18.769L224.328,18.665L223.129,19.206L221.672,20.691L220.49,22.229L220.061,22.527L218.536,23.05L217.189,23.298L217.175,22.906L217.127,22.61L217.355,22.285L217.73,21.902L218.076,21.419L218.22,21.071L218.152,20.838L217.996,20.493L217.784,20.468L216.501,20.758L216.207,20.684L215.258,20.232L214.237,19.676L213.861,19.281L213.719,18.881L213.825,18.623L213.741,18.373L213.541,18.035L213.721,17.652L214.039,17.175L214.199,16.85L214.467,16.766L214.594,16.568L214.381,15.777L214.269,15.65L214.085,15.552L213.801,15.541L213.305,15.377L212.954,15.103L212.878,14.733L212.692,14.377L212.374,14.05L212.334,13.692L212.696,13.504L213.189,13.496L213.537,13.567L214.317,12.992L214.604,12.941L214.862,12.817L215.078,12.029L215.244,11.793L215.284,11.655L215.13,11.49L214.501,10.935L214.213,10.354L213.759,9.702L213.337,9.413L213.251,9.188L213.241,8.903L213.327,8.651L214.091,8.259L214.543,7.841L214.736,8.001L215.148,8.171L216.265,7.939L216.959,7.705L217.447,7.458L217.748,7.501L218.844,7.87L219.205,7.683L219.995,7.184L220.113,6.921L220.736,6.122L220.748,5.927L220.493,5.425L220.572,5.314L221.336,4.798L221.71,4.341L222.115,4.034L222.407,4.027L222.487,4.132L222.521,4.346L222.495,5.228L222.607,5.499L223.207,6.131L223.634,6.49L224.628,6.737L224.674,6.855L224.4,7.329L225.001,7.895L225.109,8.309L225.387,8.542L225.779,8.427L225.907,8.208L225.753,7.825L225.639,7.423L225.661,7.191L225.769,6.924L226.043,6.55L226.786,5.693L227.054,5.198L227.102,4.43L227.104,3.812L227.352,3.662L227.886,3.772L228.045,3.76L228.117,4.139L228.345,4.744L228.613,5.056L228.899,5.13L229.235,5.132L230.066,4.764L230.608,4.604L230.915,4.647L231.097,4.898L231.485,5.557L231.707,5.631L231.975,5.555L232.069,5.443L231.983,5.189L231.869,4.638L231.713,4.212L231.509,4.012L231.467,3.752L231.595,3.284L231.741,2.892L232.025,2.785L232.351,2.736L232.78,3.151L233.29,3.282L233.67,3.26L233.736,3.019L233.712,2.754L233.486,2.413L233.53,1.895L233.792,0.929L233.941,1.004L234.505,1.013L235.119,1.067L235.514,1.461L235.902,1.596L236.454,1.637L236.824,1.583L237.003,1.434L237.217,0.973L237.613,0.401L238.233,0.107L239.292,0.052L239.821,-0.055L240.371,-0.049L240.785,0.04L241.213,0.029L242.3,-0.371L243.421,-0.687L243.577,-0.634L243.601,-0.529L243.399,-0.285L243.203,0.038L243.335,0.406L243.973,1.145L244.32,1.71L244.648,2.133L245.158,2.356L245.827,2.492L246.395,2.541L246.989,2.701L249.025,3.095L250.051,3.204L250.828,3.221L251.997,3.458ZM245.184,22.342L245.35,21.978L245.288,21.719L244.936,21.772L244.688,22.109L244.854,22.394L245.184,22.342ZM244.926,36.227L244.922,36.172L244.88,36.178L244.862,36.21L244.88,36.232L244.926,36.227ZM233.462,29.629L233.648,29.898L233.67,30.054L233.544,30.232L233.596,30.631L233.126,30.299L232.416,30.466L231.981,30.43L231.861,30.132L231.961,29.958L232.636,29.92L232.846,29.834L233.258,29.874L233.462,29.629ZM229.179,43.102L229.46,43.531L230.09,45.284L230.15,45.662L230.024,46.049L229.864,46.323L229.239,47.202L229.331,47.926L229.562,48.375L229.596,48.87L229.48,49.484L229.093,53.24L228.905,53.903L228.787,54.475L228.359,54.649L227.808,54.466L227.112,54.142L226.79,54.162L226.467,54.273L226.201,54.179L225.947,53.995L225.757,55.277L225.443,55.796L224.966,56.129L224.516,56.149L224.052,56.038L223.66,56.038L223.363,55.793L223.127,55.361L222.751,54.836L222.369,54.213L222.327,53.649L222.261,52.401L222.371,52.129L222.531,51.868L222.609,51.308L222.555,50.82L222.667,50.646L222.889,50.82L223.055,50.755L223.045,50.502L223.095,50.043L222.803,49.658L222.309,49.527L222.261,49.124L222.313,48.73L222.573,48.465L222.661,48.113L222.663,47.036L222.315,46.639L222.181,46.036L222.001,45.651L221.678,45.263L221.31,44.947L221.084,44.642L221.034,43.843L221.162,43.175L221.278,42.888L221.396,42.93L221.76,43.262L222.057,43.336L222.647,43.416L223.227,43.309L223.938,43.006L224.624,42.639L225.617,41.559L226.229,41.339L226.542,41.054L226.65,40.669L226.91,40.57L227.216,40.944L227.596,40.983L228.181,41.292L228.433,41.586L228.649,41.94L228.857,42.096L229.079,42.185L229.111,42.269L228.935,42.352L228.733,42.757L228.847,42.873L229.179,43.102ZM221.63,42.042L221.444,42.349L221.18,42.327L221.284,42.1L221.528,41.644L221.824,41.492L221.956,41.628L221.816,41.889L221.63,42.042ZM253.334,44.286L253.085,44.344L252.939,44.264L252.859,44.163L252.957,43.91L253.466,44.061L253.46,44.202L253.334,44.286ZM222.713,55.121L222.389,55.767L222.051,55.31L222.037,54.918L222.083,54.805L222.499,54.97L222.713,55.121ZM262.524,60.626L262.145,61.359L261.959,61.641L260.606,63.429L260.45,63.841L260.354,64.29L260.214,64.682L260.026,65.05L259.848,65.519L259.882,66.049L259.946,66.308L260.11,66.479L260.378,66.639L260.584,66.886L260.268,67.109L260.613,67.557L260.909,67.823L260.949,68.088L260.943,68.353L260.33,68.85L260.09,69.124L259.942,69.456L259.878,69.798L259.944,70.106L259.924,70.413L259.306,70.375L258.675,70.186L258.037,70.268L257.13,69.912L256.8,69.849L256.5,69.709L255.747,68.605L255.139,68.138L254.488,67.774L253.822,67.752L253.157,67.793L252.569,67.568L251.372,66.815L250.103,66.21L249.565,65.818L249.319,65.553L249.031,65.377L248.306,65.203L247.652,64.792L247.356,64.763L246.719,64.812L246.391,64.783L246.061,64.638L245.426,64.157L245.018,63.489L244.912,63.193L245.2,62.429L245.542,61.693L245.843,61.488L246.195,61.339L246.407,61.121L246.587,60.855L247.241,61.624L247.532,61.811L247.828,61.77L248.352,61.494L248.396,61.19L248.975,60.807L249.711,60.8L250.051,60.871L250.228,61.218L250.508,61.325L250.832,61.37L251.899,62.029L252.199,62.136L252.501,62.154L253.33,61.878L253.966,61.773L255.299,61.926L256.019,61.76L256.522,61.74L257.256,61.486L257.819,61.063L258.113,60.958L258.429,60.927L259.192,60.954L259.96,61.051L260.282,60.951L260.552,60.673L260.863,60.548L261.205,60.631L262.091,60.156L262.482,60.123L262.854,60.306L262.524,60.626ZM242.75,69.983L242.48,70.054L242.128,69.836L242.104,69.531L242.168,69.44L242.596,69.58L242.73,69.863L242.75,69.983Z" fill="#4B91EC" stroke="#DCDCDC" stroke-width="0.5" stroke-miterlimit="3.999327"/>
<path d="M162.701,80.339L162.863,80.799L163.195,81.165L164.378,82.002L165.08,82.518L165.1,82.696L164.874,83.119L164.778,83.409L164.962,83.72L165.396,84.094L165.43,84.274L165.326,84.482L165.102,84.884L165.577,86.06L165.657,87.198L165.534,88.006L165.538,88.473L165.6,88.869L166.003,89.782L165.733,91.291L166.037,92.111L166.455,92.776L166.683,93.96L167.019,94.521L167.568,95.013L167.882,95.178L168.488,95.584L168.921,95.922L169.175,96.427L168.631,96.841L168.196,97.211L168.072,97.611L168.276,98.25L168.276,98.593L167.998,98.702L166.867,98.665L165.979,98.638L164.96,98.607L163.525,98.546L162.638,98.507L161.418,98.457L160.999,98.482L159.881,98.66L159.092,98.787L158.958,98.822L158.712,98.979L158.542,99.45L158.39,99.985L158.226,100.223L155.858,100.997L154.933,101.104L154.397,101.024L154.015,101.087L153.688,101.253L153.576,101.501L153.56,101.821L153.63,102.142L153.857,102.589L153.897,103.035L153.751,103.351L153.717,103.667L153.65,104.008L153.771,104.194L153.999,104.223L154.229,104.379L154.553,104.521L154.821,104.791L154.809,105.176L154.585,105.394L154.387,105.508L153.5,105.61L152.798,105.691L151.881,106.305L150.903,106.959L149.748,107.391L149.239,107.513L148.349,107.823L147.284,108.333L146.758,109.15L146.097,110.091L145.459,110.721L144.59,111.318L143.778,111.545L142.759,111.832L141.474,112.051L140.564,112.124L140.292,112.171L139.491,112.186L139.099,112.14L138.806,112.115L138.688,112.182L138.648,112.329L138.632,112.667L138.578,113.053L138.324,113.378L138.144,113.524L137.934,113.584L137.261,113.496L136.697,113.393L135.356,113.255L135.088,113.288L134.988,113.328L134.57,113.549L133.927,114.014L133.489,114.421L133.163,114.611L132.384,114.711L132.044,114.86L130.593,115.875L130.283,116.122L128.79,117.002L128.369,117.295L128.039,117.583L127.147,118.233L126.578,118.518L126.474,118.687L126.446,119.083L126.446,119.958L126.446,120.797L126.446,122.013L126.446,123.23L126.446,124.627L125.692,124.627L125.692,124.629L125.688,124.627L101.237,124.653L101.245,124.631L102.004,123.978L102.518,123.15L103.389,122.781L105.212,122.603L107.92,121.915L110.351,120.875L111.038,120.461L111.774,119.629L112.997,118.546L115.281,117.242L116.333,116.512L117.936,114.68L119.001,113.161L119.886,112.18L120.498,111.309L120.928,110.425L121.169,108.998L121.008,108.438L120.332,107.523L119.88,107.278L119.758,106.846L120,106.084L119.996,104.769L120.132,102.663L120.884,100.958L122.72,98.716L123.062,97.792L123.272,96.322L123.29,95.8L125.588,93.702L126.934,92.088L127.401,91.692L128.588,90.953L132.734,89.335L135.076,88.175L136.443,87.329L137.259,86.325L139.517,82.369L141.734,76.748L141.919,76.095L142.911,75.906L143.612,75.824L144.178,75.617L144.877,75.192L145.549,75.363L145.213,75.652L145.213,76.349L145.689,77.164L146.516,78.079L148.019,79.239L149.191,79.704L150.863,79.984L152.814,79.475L153.905,79.466L154.435,79.246L155.013,79.568L156.11,79.671L157.169,79.502L157.971,79.016L158.48,78.455L158.56,78.731L158.584,79.029L158.74,79.203L159.056,79.915L159.222,80.192L159.831,80.147L160.361,80.287L161.556,80.22L162.701,80.339Z" fill="#7699BB" stroke="#DCDCDC" stroke-width="0.5" stroke-miterlimit="3.999327"/>
<path d="M259.173,150.763L259.788,153.937L260.256,156.651L260.288,158.376L260.31,158.826L260.502,159.129L260.937,159.434L262.696,161.918L262.32,162.348L262.584,163.116L263.04,163.445L264.503,164.919L264.693,165.21L264.613,165.442L263.588,167.172L263.414,167.595L263.21,169.794L263.066,171.343L262.866,173.463L262.63,175.996L262.44,178.125L262.188,180.936L261.951,183.586L260.48,185.039L257.869,187.61L255.745,189.698L254.68,191.094L252.599,193.815L251.676,195.573L250.952,196.489L250.586,196.88L250.91,198.165L251.474,200.409L250.466,200.424L249.889,200.583L249.159,201.094L248.344,201.295L247.352,201.74L246.725,202.096L246.135,202.377L245.324,203.065L245.06,203.588L244.253,203.692L243.123,203.606L242.406,203.078L240.743,202.528L239.664,202.305L239.164,202.237L236.624,202.143L233.914,202.359L232.532,202.615L232.281,202.671L231.497,203.004L230.848,203.372L229.091,205.059L226.764,205.002L225.397,204.815L224.236,204.552L222.583,203.764L220.558,202.561L219.777,202.397L219.076,202.303L218.842,202.319L216.423,203.517L215.958,203.492L215.388,203.626L215.012,203.924L214.734,204.073L214.445,204.098L214.063,204.033L213.691,203.85L213.319,203.516L212.322,202.181L212.116,201.947L211.69,201.551L210.975,200.934L210.489,200.647L210.194,200.573L209.842,200.622L207.899,200.091L205.958,199.53L205.531,199.603L205.227,199.719L204.555,200.133L203.764,200.209L202.759,200.177L202.207,200.12L201.319,200.258L200.728,200.424L199.952,200.705L198.947,201.469L198.659,201.568L198.415,201.695L198.08,203.786L197.806,204.414L197.296,205.244L196.295,206.036L195.607,206.515L195.591,207.161L195.537,208.218L195.527,208.942L195.573,209.414L195.457,209.639L195.411,209.845L195.447,210.151L195.611,210.298L195.707,210.491L195.643,210.647L195.319,210.832L194.962,210.36L194.502,210.028L193.998,209.879L193.657,209.638L193.481,209.303L192.819,208.65L191.296,207.355L191.14,207.325L190.886,207.274L190.457,207.428L190.193,207.64L190.007,207.724L189.727,207.737L189.004,207.9L188.424,208.111L188.408,208.285L188.686,209.264L188.554,209.794L188.296,209.541L187.461,208.554L186.883,207.822L186.781,207.659L186.699,207.406L186.755,207.297L186.985,207.221L187.515,207.125L187.613,207.049L187.639,206.847L187.557,206.471L187.267,205.963L186.957,205.625L186.785,205.56L186.467,205.549L186.124,205.594L185.478,206.006L185.192,206.083L184.525,206.048L183.931,205.968L183.569,205.756L182.494,204.935L181.305,204.069L180.805,203.946L180.689,203.857L180.611,203.191L180.631,202.388L180.697,202.178L181.193,202.303L181.721,202.361L181.89,202.216L181.467,201.931L180.861,201.642L180.635,201.204L180.461,201.052L180.19,200.896L179.876,200.816L179.562,200.692L179.346,200.565L178.992,200.507L178.621,200.415L178.083,199.705L177.559,199.013L177.252,198.468L177.142,198.142L177.298,197.584L177.142,197.365L176.558,196.798L176.07,196.272L176.19,195.456L176.29,194.776L176.294,194.345L176.372,194.102L176.434,193.828L176.758,193.741L177.581,193.748L179.182,193.875L180.465,193.732L180.537,193.706L181.443,192.976L182.446,192.21L183.955,192.136L185.582,192.056L186.865,192.016L188.732,191.958L190.239,191.907L191.986,191.849L192.038,191.497L192.145,191.41L192.317,191.397L193.601,191.586L194.808,191.769L194.9,191.103L195.959,190.269L196.561,190.099L196.709,189.954L196.898,189.672L197.016,189.236L197.068,188.928L197.292,188.67L197.456,188.196L197.672,187.368L198.27,186.497L198.611,185.313L198.661,184.169L198.727,183.3L198.905,183.122L198.899,181.573L198.895,180.013L198.889,178.694L198.883,177.049L198.879,175.604L198.873,174.033L198.869,172.622L198.865,171.686L200.09,171.462L201.355,171.23L203.206,170.89L205.211,170.524L207.395,170.122L207.891,169.881L209.54,168.521L210.285,167.906L211.764,166.686L212.906,165.74L214.357,164.538L215.894,163.327L217.119,162.357L219.046,161.259L221.95,159.601L224.854,157.938L227.76,156.272L230.664,154.601L233.568,152.929L236.472,151.252L239.378,149.571L242.282,147.886L245.204,148.528L247.98,149.137L250.772,149.748L251.43,150.084L252.911,151.281L254.807,152.809L254.889,152.831L254.975,152.839L256.798,151.938L259.173,150.763Z" fill="#A1A28A" stroke="#DCDCDC" stroke-width="0.5" stroke-miterlimit="3.999327"/>
<path d="M78.726,94.013L79.491,94.331L80.195,94.178L81.066,94.587L81.52,94.681L81.116,94.974L80.711,95.344L79.697,95.257L78.84,94.901L78.532,94.631L78.448,94.387L78.726,94.013ZM34.768,68.696L34.744,68.812L34.426,68.767L34.024,68.801L33.808,68.463L34.004,68.323L34.456,68.289L34.672,68.44L34.768,68.696ZM31.282,63.069L31.638,63.113L33.426,63.019L33.902,63.087L33.852,63.56L33.514,63.748L32.461,63.875L30.804,63.57L30.249,63.164L30.169,62.866L30.179,62.726L30.528,62.615L31.282,63.069ZM17.269,59.122L17.731,59.382L17.03,59.438L16.798,59.565L16.23,59.382L15.544,59.409L15.115,59.061L15.017,58.698L15.233,58.472L15.838,58.471L17.269,59.122ZM14.497,58.654L13.922,58.67L13.372,58.176L14.181,57.917L14.419,58.075L14.595,58.255L14.699,58.485L14.497,58.654ZM19.338,58.454L19.072,58.532L17.577,58.033L17.043,57.806L16.352,57.231L18.305,57.93L19.338,58.454ZM23.281,57.884L23.169,57.946L22.004,57.77L21.672,57.532L21.538,57.089L21.734,56.938L22.246,56.849L22.99,56.933L23.467,57.251L23.467,57.655L23.281,57.884ZM0.497,52.897L0.249,53.213L-0.179,53.1L-0.321,52.982L-0.197,52.307L0.145,52.149L0.489,52.421L0.497,52.897ZM129.306,36.761L129.424,36.815L129.75,36.8L130.329,36.543L130.723,36.327L130.861,36.416L132.002,36.294L132.272,36.392L132.452,36.503L133.013,36.652L133.625,36.668L134.383,36.459L134.714,36.249L134.778,36.016L134.794,35.84L134.892,35.728L135.064,35.664L135.334,35.778L135.72,35.871L136.645,35.909L136.827,35.78L137.141,35.818L137.554,35.982L138.032,35.929L138.274,36.129L138.374,36.394L138.402,36.969L138.366,37.55L138.46,37.765L138.784,37.821L139.305,37.814L139.775,37.97L140.139,38.244L140.259,38.523L140.311,38.716L140.133,38.825L139.881,39.239L139.241,39.778L138.328,40.263L137.63,40.865L137.151,41.584L136.549,41.889L136.365,42.053L136.293,42.247L136.691,43.126L136.813,43.803L136.911,44.631L136.847,44.863L136.813,45.771L136.721,46.036L136.745,46.252L136.891,46.483L136.957,46.704L136.683,46.986L136.181,47.312L135.81,47.599L135.71,47.868L135.738,48.035L136.363,48.603L136.477,48.836L136.393,49.397L136.033,50.314L135.69,50.871L135.63,50.925L135.236,51.083L133.349,51.089L132.892,51.214L132.956,51.327L133.399,52.042L133.861,52.421L134.015,52.508L134.181,53.342L134.93,54.671L135.656,54.854L135.908,55.186L135.862,55.651L135.638,56.161L135.192,56.684L134.662,57.051L134.317,57.416L134.289,57.839L134.179,58.374L134.013,58.797L133.971,59.082L135.298,60.871L136.037,60.784L136.133,60.825L136.001,61.25L135.768,61.748L135.488,61.842L134.854,61.995L134.255,62.637L133.769,63.409L133.403,63.783L133.069,64.698L133.111,65.094L133.273,65.704L133.615,67.29L133.123,67.361L131.213,68.394L130.621,68.396L129.516,67.942L127.565,67.795L126.93,67.659L126.136,67.957L125.523,67.949L125.035,68.329L124.685,68.225L125.087,67.374L125.716,65.686L125.69,64.652L125.84,63.752L125.668,62.859L125.353,62.3L125.782,60.849L125.734,60.099L125.341,59.148L126.534,59.293L126.164,58.915L125.8,58.685L125.449,58.737L125.151,58.723L124.135,59.092L123.626,59.202L123.478,59.137L123.534,58.549L123.27,57.784L123.678,57.583L124.151,57.525L124.555,57.198L124.805,56.833L124.673,56.181L125.023,55.562L125.844,55.037L125.419,55.117L124.931,55.444L124.163,56.628L123.914,57.227L123.26,57.421L122.674,57.517L122.375,57.454L122.015,57.303L121.983,56.862L122.011,56.51L122.255,55.809L122.351,54.818L122.696,53.928L122.67,53.69L122.572,53.336L122.88,52.99L123.262,52.761L123.842,51.995L124.651,50.163L125.584,48.207L125.509,47.968L125.311,47.783L125.391,47.253L125.952,44.941L126.18,44.638L126.444,43.957L126.504,42.857L126.608,42.098L126.584,41.717L126.5,41.258L126.142,40.379L125.766,38.516L125.736,37.892L126.046,37.576L125.536,37.53L125.305,37.125L125.357,36.666L125.924,35.924L126.454,35.462L126.978,35.161L127.267,35.047L128.477,34.733L128.794,34.58L129.092,34.606L129.142,34.756L129.314,35.047L129.506,35.248L129.558,35.397L129.09,36.02L129.026,36.232L129.27,36.633L129.306,36.761Z" fill="#A1A28A" stroke="#DCDCDC" stroke-width="0.5" stroke-miterlimit="3.999327"/>
<path d="M239.683,92.118L239.671,92.278L239.473,93.427L239.429,93.839L239.399,94.538L239.399,95.377L239.847,96.085L239.859,96.396L239.685,96.755L238.86,97.165L237.795,97.695L236.879,98.198L235.876,98.75L235.568,99.106L235.07,99.38L234.655,99.654L234.579,99.918L234.287,100.413L233.907,100.809L232.954,100.996L232.778,101.114L232.336,101.71L232.132,101.942L231.881,102.43L232.204,103.694L232.6,104.99L232.678,105.529L232.672,105.978L232.45,106.461L231.943,107.151L231.571,107.657L230.857,108.567L230.647,108.792L230.156,109.057L229.206,109.407L228.537,109.718L228.197,108.331L227.905,107.145L227.665,106.165L227.244,104.435L226.884,102.96L226.526,101.488L226.2,100.148L225.873,98.796L225.733,98.598L224.751,97.959L223.848,97.369L222.907,96.697L221.887,95.969L221.723,95.05L221.2,93.66L220.648,92.882L220.44,92.679L219.327,92.176L218.685,91.806L218.51,91.59L218.386,91.022L217.928,89.889L217.406,88.857L217.214,88.158L217.188,87.278L217.29,86.641L217.518,86.368L218.605,85.573L219.109,84.616L219.733,84.257L220.272,83.986L220.71,83.67L221.098,83.164L221.394,82.623L221.444,82.036L221.567,81.105L221.765,80.453L222.225,79.714L222.031,79.119L221.787,78.476L221.857,77.36L221.795,76.906L221.597,76.505L221.396,75.989L221.39,75.559L221.583,74.428L221.731,73.562L221.967,72.434L221.883,72.118L221.707,71.882L221.18,71.633L221.174,71.483L221.302,71.316L222.081,70.764L222.499,69.952L222.849,69.783L223.38,69.489L223.36,69.173L223.24,68.834L224.625,68.451L225.945,67.445L226.41,67.198L229.472,66.269L229.87,66.332L230.316,66.468L230.188,66.815L230.012,67.089L230.272,67.574L230.643,67.278L230.549,67.08L230.527,66.817L231.157,66.793L231.715,66.835L232.326,67.124L232.284,68.218L233.1,69.288L232.87,69.82L233.537,70.134L234.131,69.756L234.429,69.199L235.522,68.876L236.561,68.055L237.137,67.972L237.267,68.645L237.545,69.233L237.151,69.44L236.651,70.065L235.702,71.644L234.829,72.107L234.173,72.714L233.961,73.144L233.897,73.645L234.061,74.542L234.539,75.451L235.09,76L235.622,76.17L236.859,77.035L236.839,77.547L237.011,78.155L237.077,78.894L237.507,79.484L236.587,80.766L236.084,81.69L235.1,82.961L234.225,83.785L232.35,85.007L231.891,85.412L231.591,85.831L231.453,86.268L231.503,86.782L232.12,88.044L232.942,88.787L233.777,89.188L235.23,89.026L235.18,89.511L235.284,90.09L235.874,90.063L236.27,89.972L236.603,89.408L237.313,89.794L237.683,90.971L238.284,91.337L238.354,91.474L238.142,91.564L237.976,91.699L238.154,91.795L238.736,91.94L239.088,91.848L239.683,92.118ZM238.412,82.507L237.547,82.951L237.713,82.565L238.284,82.096L238.432,82.209L238.412,82.507ZM236.615,88.836L236.467,88.865L236.196,89.03L236.052,89.048L235.644,88.861L235.488,88.863L235.292,88.732L235.358,88.02L235.422,87.819L236.414,87.792L236.951,88.218L237.039,88.331L237.061,88.453L236.811,88.69L236.615,88.836Z" fill="#A1A28A" stroke="#DCDCDC" stroke-width="0.5" stroke-miterlimit="3.999327"/>
</svg>
