<svg width="44" height="36" viewBox="0 0 44 36" fill="none" xmlns="http://www.w3.org/2000/svg" xmlns:xlink="http://www.w3.org/1999/xlink">
<path d="M40,2L40,0L40,2ZM2,28L0,28C0,29.105 0.895,30 2,30L2,28ZM16,28L16,30C17.105,30 18,29.105 18,28L16,28ZM16,14L18,14C18,12.895 17.105,12 16,12L16,14ZM9,14L9,12C8.497,12 8.013,12.189 7.643,12.53L9,14ZM2,20.462L0.643,18.992C0.233,19.371 0,19.904 0,20.462L2,20.462ZM40,0L18,0L18,4L40,4L40,0ZM18,0C16.939,0 15.922,0.421 15.172,1.172L18,4L18,4L18,0ZM15.172,1.172C14.421,1.922 14,2.939 14,4L18,4L18,4L15.172,1.172ZM14,4L14,26L18,26L18,4L14,4ZM14,26C14,27.061 14.421,28.078 15.172,28.828L18,26L18,26L14,26ZM15.172,28.828C15.922,29.579 16.939,30 18,30L18,26L18,26L15.172,28.828ZM18,30L40,30L40,26L18,26L18,30ZM40,30C41.061,30 42.078,29.579 42.828,28.828L40,26L40,26L40,30ZM42.828,28.828C43.579,28.078 44,27.061 44,26L40,26L40,26L42.828,28.828ZM44,26L44,4L40,4L40,26L44,26ZM44,4C44,2.939 43.579,1.922 42.828,1.172L40,4L40,4L44,4ZM42.828,1.172C42.078,0.421 41.061,0 40,0L40,4L40,4L42.828,1.172ZM2,30L16,30L16,26L2,26L2,30ZM18,28L18,14L14,14L14,28L18,28ZM16,12L9,12L9,16L16,16L16,12ZM7.643,12.53L0.643,18.992L3.357,21.932L10.357,15.47L7.643,12.53ZM0,20.462L0,28L4,28L4,20.462L0,20.462Z" transform="rotate(360 22 15)" fill="#1C75BC"/>
<path d="M16,30C16,28.895 15.105,28 14,28C12.895,28 12,28.895 12,30L16,30ZM8,30C8,28.895 7.105,28 6,28C4.895,28 4,28.895 4,30L8,30ZM38,30C38,28.895 37.105,28 36,28C34.895,28 34,28.895 34,30L38,30ZM30,30C30,28.895 29.105,28 28,28C26.895,28 26,28.895 26,30L30,30ZM12,30C12,30.53 11.789,31.039 11.414,31.414L14.243,34.243C15.368,33.117 16,31.591 16,30L12,30ZM11.414,31.414C11.039,31.789 10.53,32 10,32L10,36C11.591,36 13.117,35.368 14.243,34.243L11.414,31.414ZM10,32C9.47,32 8.961,31.789 8.586,31.414L5.757,34.243C6.883,35.368 8.409,36 10,36L10,32ZM8.586,31.414C8.211,31.039 8,30.53 8,30L4,30C4,31.591 4.632,33.117 5.757,34.243L8.586,31.414ZM34,30C34,30.53 33.789,31.039 33.414,31.414L36.243,34.243C37.368,33.117 38,31.591 38,30L34,30ZM33.414,31.414C33.039,31.789 32.53,32 32,32L32,36C33.591,36 35.117,35.368 36.243,34.243L33.414,31.414ZM32,32C31.47,32 30.961,31.789 30.586,31.414L27.757,34.243C28.883,35.368 30.409,36 32,36L32,32ZM30.586,31.414C30.211,31.039 30,30.53 30,30L26,30C26,31.591 26.632,33.117 27.757,34.243L30.586,31.414Z" transform="rotate(360 21 32)" fill="#1C75BC"/>
</svg>
