<svg width="112" height="34" viewBox="0 0 112 34" fill="none" xmlns="http://www.w3.org/2000/svg" xmlns:xlink="http://www.w3.org/1999/xlink">
<path d="M86.361,11.621L85.903,11.843L85.452,12.119L85,12.356L84.79,12.543L84.864,12.805L84.974,13.38L85.034,13.832L85.192,14.012L85.316,14.192L85.266,14.388L84.998,14.762L85.15,14.835L84.956,15.33L84.668,15.697L84.27,15.997L84.014,16.066L83.809,15.938L83.473,15.61L83.107,15.154L82.937,14.889L82.411,14.853L82.224,14.642L82.212,14.384L82.064,14.083L81.856,13.76L81.548,13.509L81.134,13.315L80.958,13.175L81.598,13.184L82.28,13.103L82.981,12.832L83.657,12.505L84.224,12.131L84.758,11.71L85.316,11.378L86.185,10.991L86.477,11.022L86.475,11.296L86.361,11.621ZM86.361,11.621L86.996,11.621L87.154,11.788L87.488,12.378L87.706,12.97L87.776,13.872L88.042,14.255L88,14.334L87.84,14.399L87.592,14.426L87.164,14.339L86.809,14.207L86.497,13.23L86.359,12.678L86.371,12.019L86.361,11.621Z" fill="#4B91EC" stroke="#DCDCDC" stroke-width="0.5" stroke-miterlimit="3.999327"/>
<path d="M98.223,0.075L97.881,0.343L97.765,0.018L97.789,-0.399L98.251,-0.788L98.908,-0.862L99.002,-0.552L98.924,-0.196L98.77,-0.013L98.223,0.075ZM100.651,15.323L100.443,15.32L99.96,15.211L98.988,14.671L97.995,14.481L96.552,14.464L95.736,14.388L95.405,14.468L95.125,14.472L94.923,14.363L94.709,14.308L94.146,14.626L93.884,14.53L93.618,14.395L93.146,14.352L92.575,14.39L91.943,14.717L91.24,14.423L91.04,14.426L90.906,14.503L90.602,14.906L90.02,15.212L89.732,15.777L89.555,16.318L89.401,16.505L89.359,17.549L89.267,18.054L89.413,18.72L89.387,19.007L89.129,19.433L89.095,19.531L88.959,20.209L89.011,20.39L88.977,20.617L88.759,21.093L88.365,21.224L87.952,21.298L87.596,21.136L87.276,21.398L86.87,21.801L86.694,22.073L86.697,22.326L86.739,22.494L86.655,22.669L86.645,22.854L86.665,23.121L86.94,23.232L87.228,23.462L87.218,23.684L87.06,23.836L86.699,24.072L86.039,24.555L85.296,24.967L85.014,25.063L84.912,25.254L84.86,25.51L85.024,26.071L85.18,26.236L85.261,26.432L85.162,26.667L85.09,26.868L84.816,26.995L84.548,27.088L84.45,27.247L84.31,27.919L84.148,28.27L83.784,28.791L83.663,29.029L83.475,29.105L82.771,28.862L82.142,29.009L81.306,29.103L80.599,29.088L80.053,29.196L79.677,29.47L79.257,29.816L78.816,30.074L78.482,30.2L77.87,29.833L77.561,29.866L77.005,29.738L75.7,29.328L75.378,29.208L75.03,29.197L74.926,29.079L74.98,28.881L74.926,28.62L74.673,28.522L72.052,28.562L71.297,28.787L70.787,28.965L70.423,29.17L70.32,29.68L70.102,30.16L69.82,30.668L68.948,30.82L68.309,31.334L68.089,31.396L67.649,31.322L67.178,31.28L66.838,31.423L66.48,31.416L65.379,31.176L64.338,31.138L63.748,31.26L63.422,31.305L61.609,32.01L60.996,32.091L60.748,31.99L60.398,31.701L59.929,31.412L58.803,30.43L58.388,30.2L58.112,29.964L57.85,29.682L57.476,29.379L57.136,29.17L56.677,28.745L56.219,28.281L56.115,27.462L55.751,27.311L55.627,27.097L55.571,26.855L56.077,26.191L56.445,26.893L56.585,27.05L57.4,27.523L58.072,27.759L58.797,27.856L59.537,27.876L59.829,27.843L60.116,27.749L60.398,27.85L61.943,28.618L62.543,28.756L63.176,28.698L63.428,28.774L64.318,29.364L64.579,29.435L65.017,29.39L64.459,29.121L64.092,28.93L63.926,28.571L64.028,28.188L64.384,27.932L64.631,27.654L64.719,26.826L64.877,26.407L65.173,26.009L65.271,25.624L64.937,25.33L64.863,24.826L64.935,24.408L65.125,24.123L65.425,24.312L65.737,24.486L66.042,24.468L66.254,24.399L66.292,24.183L66.236,23.807L66.252,23.117L66.64,22.565L67.262,22.186L67.847,22.004L70.042,21.696L73.511,20.906L74.539,20.601L74.916,20.443L75.234,20.223L75.772,19.522L76.781,18.417L77.489,17.509L78.98,16.186L80.169,14.958L80.329,14.728L80.527,14.058L80.543,13.742L80.507,13.422L80.665,13.273L80.896,13.184L80.952,13.184L81.128,13.324L81.542,13.519L81.85,13.769L82.058,14.092L82.206,14.394L82.218,14.651L82.405,14.862L82.931,14.898L83.101,15.163L83.467,15.619L83.803,15.948L84.008,16.075L84.264,16.006L84.662,15.706L84.95,15.34L85.144,14.844L84.992,14.771L85.26,14.397L85.309,14.201L85.185,14.021L85.028,13.842L84.968,13.39L84.858,12.814L84.784,12.553L84.994,12.366L85.445,12.128L85.897,11.852L86.355,11.63L86.367,12.03L86.355,12.689L86.493,13.241L86.804,14.218L87.16,14.35L87.588,14.437L87.836,14.41L87.996,14.345L88.038,14.267L87.772,13.883L87.702,12.981L87.484,12.389L87.15,11.799L86.992,11.632L88.309,11.465L88.603,11.28L89.121,10.875L89.317,10.648L89.471,10.136L88.825,9.833L88.571,9.444L88.555,9.025L89.327,8.244L89.595,8.057L89.711,8.335L90.05,8.406L90.362,8.417L90.676,8.401L91.128,8.007L91.359,7.44L92.151,6.64L92.433,6.026L92.593,5.383L94.591,3.386L94.835,3.076L96.022,1.066L96.17,0.999L96.488,1.193L96.582,1.832L96.54,2.11L96.346,2.524L96.236,2.956L96.372,2.947L96.938,2.683L97.527,1.981L97.861,1.373L98.145,1.108L98.714,1.256L98.84,1.362L98.8,1.799L98.854,2.053L99.072,2.596L99.556,2.927L100.223,3.134L100.843,3.435L101.047,3.633L101.179,3.871L101.315,4.261L101.325,4.657L100.877,5.044L101.067,5.67L101.037,6.035L100.885,6.347L100.233,6.632L102.01,6.349L102.448,6.187L103.056,5.775L103.379,6.131L103.683,6.747L103.439,6.901L102.666,7.128L102.628,7.22L102.884,7.54L103.205,7.509L103.843,7.295L104.429,6.957L104.712,6.961L105.012,7.03L105.59,7.248L105.914,7.424L106.189,7.651L106.367,8.121L107.035,8.292L108.402,8.951L108.656,9.007L108.922,9.02L109.641,8.94L109.895,9.032L110.075,9.27L110.135,9.564L110.115,9.88L110.041,10.12L109.873,10.318L109.383,10.619L108.15,11.013L106.801,11.313L106.123,11.293L105.172,11.037L104.826,11.069L104.49,11.187L104.071,12.003L104.848,12.814L106.185,13.658L106.369,13.869L106.321,14.129L106.11,14.283L105.826,14.368L105.074,14.503L104.315,14.602L103.689,14.748L103.076,14.936L102.446,14.871L101.579,14.493L101.329,14.466L101.065,14.661L100.807,15.191L100.651,15.323ZM13.858,4.793L14.827,4.991L15.199,5.151L16.288,6.727L17.723,7.834L18.333,8.248L18.802,8.444L19.444,9.036L20.003,9.78L21.231,11.874L21.442,12.792L21.526,14.194L21.257,16.307L20.927,17.36L20.991,17.858L21.442,18.62L21.306,19.341L21.394,19.94L21.362,21.599L21.618,22.09L21.91,22.402L23.451,23.386L23.565,23.751L24.324,25.004L25.732,27.73L26.123,28.956L26.079,29.286L25.909,29.423L25.496,29.542L25.15,29.303L25.034,29.132L25.07,28.918L24.934,28.707L24.596,28.457L24.402,28.232L24.456,28.604L24.458,29.087L24.029,29.128L23.479,28.978L22.792,29.114L21.98,29.706L21.59,29.722L21.295,29.214L21.143,28.869L20.901,28.625L18.321,27.378L17.367,27.059L16.364,26.113L14.105,25.069L12.67,24.05L12.061,23.422L10.594,22.865L9.962,22.208L9.65,22.079L9.339,21.845L9.668,21.205L9.532,20.539L9.363,19.976L8.327,18.867L7.82,18.094L6.846,17.322L6.457,16.877L6.085,16.362L6.317,16.18L6.533,16.071L6.335,15.695L5.777,15.044L5.517,14.294L5.517,12.878L4.726,10.886L4.048,8.125L4.17,7.157L3.996,6.108L3.547,5.098L2.959,4.377L2.739,3.778L2.845,3.54L2.975,2.761L3.063,2.607L3.285,2.533L3.537,2.553L4.006,3.23L5.231,3.649L5.601,3.749L6.083,3.582L6.301,3.687L6.521,3.86L6.646,4.343L6.968,4.782L7.612,4.719L7.84,4.782L7.974,4.795L8.099,5.183L8.157,5.859L8.098,6.251L7.634,6.812L7.572,7.193L7.816,7.429L8.131,7.682L8.313,7.876L8.503,7.843L8.743,7.712L8.963,7.382L9.115,7.099L9.94,6.783L10.794,6.498L10.91,6.527L11.047,6.652L11.319,7.066L11.479,7.153L11.709,7.195L12.109,7.151L12.572,6.917L12.816,6.48L12.924,6.135L13.592,5.537L13.666,5.089L13.858,4.793ZM1.22,3.655L1.616,4.201L1.418,4.444L1.318,4.515L1.08,4.435L0.852,4.644L0.635,4.686L0.417,4.308L0.147,4.158L0.089,3.896L0.451,3.851L0.666,3.942L1.072,3.76L1.22,3.655ZM3.692,9.613L3.552,9.755L3.145,9.673L3.217,8.84L3.449,8.733L3.812,8.883L3.972,9.025L3.692,9.613ZM102.39,15.243L101.609,15.341L101.067,15.33L101.167,15.153L101.141,14.918L101.399,14.857L101.696,14.907L102.39,15.243ZM9.469,21.316L9.185,21.409L9.169,21.276L9.219,21.091L9.427,20.915L9.522,21.015L9.469,21.316ZM25.751,22.618L25.48,22.671L25.332,22.636L25.232,22.438L25.46,21.984L25.544,21.908L25.76,22.402L25.751,22.618ZM65.958,24.221L65.787,24.288L65.521,24.108L65.459,22.571L65.645,22.433L65.767,22.453L65.896,22.732L65.885,23.406L65.909,24.001L65.958,24.221Z" fill="#4B91EC" stroke="#DCDCDC" stroke-width="0.5" stroke-miterlimit="3.999327"/>
</svg>
