<svg width="44" height="38" viewBox="0 0 44 38" fill="none" xmlns="http://www.w3.org/2000/svg" xmlns:xlink="http://www.w3.org/1999/xlink">
<path d="M24.335,14.324L24.037,14.644L23.983,14.849L23.791,15.21L23.641,15.406L23.859,15.857L24.107,15.877L24.203,15.935L24.265,16.022L24.251,16.118L24.155,16.203L23.917,16.312L23.691,16.572L23.713,16.859L23.572,17.008L23.116,17.088L22.224,17.088L21.789,17.108L21.439,17.157L21.209,17.342L20.917,17.472L20.687,17.502L20.486,17.718L20.284,18.023L20.352,18.233L20.56,18.511L20.681,18.796L20.522,19.259L20.346,19.617L20.242,19.889L20.1,20.412L19.758,20.989L19.514,21.316L19.514,21.674L19.638,22.178L20.336,22.916L20.568,23.268L20.757,23.832L21.387,24.277L21.785,24.637L21.747,25.11L21.801,25.259L22.047,25.379L22.346,25.47L22.676,25.463L22.972,25.423L23.04,25.356L23.723,25.346L23.801,25.466L23.841,26.149L23.869,26.427L24.031,26.537L24.129,26.708L24.135,26.861L24.165,27.244L24.267,27.445L24.251,27.852L24.321,28.003L24.511,28.104L24.749,28.397L24.839,28.433L24.885,28.536L25.088,28.952L25.192,29.077L25.264,29.096L25.296,29.241L25.444,29.629L25.544,29.726L25.734,30.011L25.812,30.323L26.064,30.675L26.322,30.922L26.438,31.178L26.767,31.743L27.087,32.14L27.519,32.244L27.881,32.3L28.106,32.452L28.328,32.618L28.09,32.694L27.877,32.796L27.579,32.718L27.167,32.759L26.739,32.872L26.344,32.926L25.598,32.748L25.372,32.723L25.216,32.647L24.909,32.296L24.761,32.255L24.365,32.418L23.883,32.532L23.647,32.511L23.37,32.629L23.112,32.787L22.62,33.471L22.366,33.712L22.094,33.823L21.549,33.82L20.965,33.845L20.528,34.01L20.12,34.094L19.916,34.105L19.846,34.48L19.752,34.655L19.624,34.755L19.306,34.784L19.021,34.771L18.849,34.615L18.527,34.537L18.241,34.48L18.057,34.391L17.907,34.413L17.783,34.569L17.685,34.704L17.6,34.951L17.166,35.029L16.98,35.169L17.088,35.628L17.038,35.808L16.948,35.947L16.424,35.975L15.979,35.966L15.723,36.134L15.403,36.332L15.209,36.369L14.979,36.358L14.677,36.127L14.386,35.846L13.646,35.648L12.913,35.484L12.431,35.036L12.317,34.816L12.091,34.718L11.52,34.186L11.204,33.845L10.862,33.752L10.47,33.611L10.486,33.362L10.46,33.124L10.29,33.026L10.055,32.963L9.969,32.828L9.993,32.516L10.039,31.708L9.973,30.937L9.447,30.67L9.219,30.486L8.819,29.344L8.632,28.831L8.624,28.447L8.755,27.307L8.905,26.813L9.313,25.824L9.547,25.488L9.561,25.238L9.537,24.916L9.417,24.281L10.105,23.88L10.4,23.711L10.45,23.442L10.818,23.102L10.982,22.779L11.118,22.525L11.08,22.391L10.92,22.313L10.73,22.071L10.332,21.374L10.189,21.233L10.067,21.036L10.129,20.73L10.284,20.394L10.264,20.254L10.027,20.074L9.535,19.773L9.127,19.751L8.811,19.642L8.348,19.628L7.978,19.595L7.766,19.482L7.81,19.297L7.902,19.156L8.214,18.803L8.422,18.429L8.45,18.063L8.514,17.581L8.604,17.162L8.652,16.69L8.162,16.38L8.006,16.124L7.804,15.897L7.58,15.897L7.245,15.8L6.721,16.098L6.307,16.044L6.023,16.156L5.368,16.133L4.946,15.987L4.438,16.084L3.249,14.887L2.054,13.683L0.877,12.5L0.799,12.338L1.291,11.774L1.73,11.369L2.096,11.138L2.27,10.937L2.136,10.065L2.144,9.753L1.972,9.412L1.85,9.03L1.996,8.711L2.174,8.489L2.404,8.402L2.951,8.326L3.339,8.293L3.477,8.166L3.701,8.019L3.997,8.01L4.572,8.113L4.836,7.921L5.314,7.66L6.385,7.211L6.625,6.917L6.793,6.463L6.775,6.247L6.665,6.167L6.399,6.093L5.991,6.082L5.666,6.2L5.328,6.134L5.048,5.855L5.032,5.622L5.198,5.296L5.102,5.078L4.566,4.388L4.568,4.197L4.958,3.887L5.178,3.624L5.48,2.992L5.72,2.781L6.465,2.707L6.655,2.572L7.035,2.238L7.602,1.857L8.418,1.552L8.652,0.998L8.797,0.846L9.447,0.555L9.561,0.399L9.545,0.261L8.502,-0.982L8.71,-0.899L9.517,-0.086L9.965,0.091L10.059,0.094L10.063,-0.116L10.474,-0.029L11.534,0.528L13.087,1.445L15.267,3.177L15.887,3.836L16.304,4.146L16.952,4.902L17.142,5.268L17.124,6.737L16.548,7.729L16.408,8.475L16.378,9.468L16.045,10.036L16.486,9.727L16.624,8.832L17.002,8.288L17.492,7.69L18.145,7.547L18.849,7.801L19.416,7.847L19.916,8.023L20.979,8.978L22.019,9.733L22.398,10.337L23.5,10.641L24.151,11.118L24.361,11.532L24.489,12.61L24.277,14.241L24.335,14.324Z" fill="#A1A28A" stroke="#DCDCDC" stroke-width="0.5" stroke-miterlimit="3.999327"/>
<path d="M41.379,15.287L40.908,15.646L40.394,16.158L39.719,17.042L39.749,17.32L39.601,17.545L39.565,17.941L39.613,18.386L39.787,18.676L39.867,19.228L39.733,19.726L39.785,20.016L39.921,20.474L40.032,20.964L40.02,21.16L40.184,21.322L40.336,21.478L40.288,21.913L40.822,22.69L41.148,23.028L41.623,23.359L41.795,23.68L42.063,24.068L42.223,24.114L42.309,24.27L42.221,24.57L42.203,24.985L41.901,25.468L41.202,26.352L41.116,26.558L41.298,27.291L41.202,27.894L41.16,28.182L40.816,28.711L40,29.987L39.533,30.218L39.249,30.586L39.067,30.59L38.863,30.624L38.799,30.67L38.543,30.666L38.344,30.503L38.312,30.31L38.206,30.089L37.954,30.022L37.478,30.1L37.34,30.043L37.058,29.807L36.825,29.548L36.765,29.297L36.615,29.321L36.253,29.548L36.005,29.593L35.811,29.535L35.593,29.551L35.042,29.795L34.716,29.849L34.484,30.094L32.951,30.205L32.547,30.269L31.632,29.847L31.396,29.709L31.276,29.689L31.174,29.711L31.074,29.806L30.923,30.336L30.785,30.479L30.545,30.597L30.311,30.808L30.265,31.013L30.625,31.127L30.925,31.525L31.25,31.844L31.512,32.124L31.476,32.444L31.432,32.896L31.242,33.05L30.925,33.124L29.763,32.907L28.872,32.71L28.498,32.669L28.328,32.618L28.106,32.453L27.881,32.3L27.519,32.244L27.087,32.14L26.767,31.743L26.438,31.178L26.322,30.922L26.064,30.675L25.812,30.323L25.734,30.011L25.544,29.726L25.444,29.629L25.296,29.241L25.264,29.096L25.192,29.078L25.088,28.952L24.885,28.536L24.839,28.433L24.749,28.397L24.511,28.104L24.321,28.003L24.251,27.852L24.267,27.445L24.165,27.244L24.135,26.861L24.129,26.708L24.031,26.538L23.869,26.427L23.841,26.149L23.801,25.466L23.723,25.347L23.04,25.356L22.972,25.423L22.676,25.463L22.346,25.47L22.047,25.379L21.801,25.259L21.747,25.111L21.785,24.637L21.387,24.277L20.757,23.832L20.567,23.268L20.336,22.916L19.638,22.179L19.514,21.674L19.514,21.316L19.758,20.989L20.1,20.412L20.242,19.889L20.346,19.617L20.522,19.259L20.681,18.796L20.559,18.511L20.352,18.233L20.284,18.023L20.486,17.718L20.687,17.502L20.917,17.473L21.209,17.342L21.439,17.157L21.789,17.108L22.224,17.088L23.116,17.088L23.571,17.008L23.713,16.859L23.691,16.572L23.917,16.312L24.155,16.204L24.251,16.118L24.265,16.022L24.203,15.935L24.107,15.877L23.859,15.857L23.641,15.407L23.791,15.21L23.983,14.849L24.037,14.644L24.335,14.324L24.407,14.423L24.637,13.838L24.665,13.362L24.841,12.894L25.11,12.338L25.596,12.062L28.424,12.344L29.715,12.609L31.376,13.066L31.612,13.556L31.624,13.066L31.542,12.572L32.002,12.222L33.009,12.099L34.518,12.267L35.815,12.061L37.58,12.086L40.258,12.485L41.457,12.758L41.951,13.005L42.045,13.448L41.999,14.016L41.803,14.559L41.379,15.287Z" fill="#CCAA5A" stroke="#DCDCDC" stroke-width="0.5" stroke-miterlimit="3.999327"/>
</svg>
