<svg width="92" height="76" viewBox="0 0 92 76" fill="none" xmlns="http://www.w3.org/2000/svg" xmlns:xlink="http://www.w3.org/1999/xlink">
<path d="M9.784,26.633L9.7,26.633L9.342,26.555L9.088,26.368L8.431,26.5L7.552,26.801L7.064,26.787L6.676,26.464L5.089,26.003L4.833,25.965L3.786,25.946L3.784,25.946L3.734,25.217L3.604,24.688L3.236,23.9L3.78,23.71L3.674,22.166L3.476,21.366L1.959,20.54L0.764,19.735L1.04,17.012L1.158,16.275L0.704,14.841L0.752,13.181L0.944,10.552L1.324,10.449L1.604,10.462L2.679,10.936L3.126,10.983L3.434,11.406L3.794,11.58L4.054,11.132L4.156,10.364L5.007,9.367L5.605,8.998L6.013,8.822L6.424,9.225L6.738,9.677L6.812,8.688L7.066,6.794L6.256,6.497L5.595,6.754L4.941,7.956L4.358,9.461L3.41,9.599L2.655,10.024L1.973,9.583L1.534,9.194L1.524,8.626L1.624,8.283L2.425,7.052L3.5,5.867L4.584,5.878L5.373,5.498L5.845,5.453L7.318,5.534L8.073,5.273L8.751,4.728L10.214,2.41L11.039,1.439L12.704,1.097L14.243,-0.028L14.673,-0.043L13.949,0.796L13.833,1.121L13.745,1.616L14.263,2.691L14.153,3.345L14.191,4.627L13.701,5.293L13.15,6.705L12.912,6.912L12.86,8.554L12.914,8.944L12.834,10.429L13.4,11.035L13.997,11.351L15.992,11.34L16.2,11.606L16.444,12.061L16.266,12.835L16.052,13.417L15.474,13.908L14.733,14.273L14.271,14.289L13.643,13.595L13.346,13.82L13.038,14.175L12.52,16.066L12.274,17.339L12.142,17.442L11.851,17.254L11.347,17.239L10.709,17.54L11.037,17.809L11.383,18.276L11.245,18.51L10.683,18.762L10.186,19.272L9.978,19.657L9.352,20.113L8.957,20.69L9.15,21.404L9.232,22.03L9.404,22.72L9.248,23.27L8.471,24.058L8.185,24.739L8.851,24.73L9.26,24.886L9.5,25.088L9.748,25.373L9.596,25.725L9.784,26.633ZM17.145,4.532L16.917,4.752L16.146,4.441L16.486,4.006L17.333,3.804L17.831,3.871L17.283,4.303L17.145,4.532ZM25.653,18.062L25.667,18.966L25.522,19.229L25.308,19.403L24.748,19.587L24.262,19.843L23.829,20.291L23.669,20.932L24.007,21.4L24.622,21.656L24.78,22.546L24.272,22.983L22.969,23.419L22.833,24.47L22.875,25.296L22.851,25.896L22.747,26.723L21.694,27.099L21.013,25.839L21.007,25.333L20.803,24.741L20.765,24.236L20.523,23.428L19.525,23.209L19.138,23.18L18.596,23.33L18.462,23.272L17.813,22.165L17.921,20.937L17.575,20.316L17.527,20.035L17.535,19.723L17.249,19.465L16.905,19.329L16.737,18.633L17.133,18.465L18.114,18.546L18.402,18.499L18.664,18.354L19.458,17.206L19.434,16.952L19.518,16.624L20.375,16.502L20.757,16.947L20.679,17.658L20.727,18.566L21.246,18.813L21.448,18.849L21.666,18.18L21.818,17.853L22.024,17.669L22.094,17.056L21.972,16.68L21.712,16.398L22.683,15.636L23.689,15.03L24.274,14.997L24.862,15.146L25.41,15.349L25.705,15.525L25.871,15.808L25.504,16.482L25.402,16.849L25.653,18.062ZM14.651,18.08L14.555,18.241L14.199,18.072L14.161,17.488L14.295,16.961L14.137,16.489L14.311,16.186L14.811,16.892L14.953,17.225L14.759,17.62L14.651,18.08ZM26.197,19.761L25.669,20.144L25.554,20.124L25.382,19.599L25.661,19.28L25.825,19.009L25.943,19.017L26.103,19.311L26.197,19.761ZM14.863,19.643L15.096,20.111L15.384,21.11L15.84,22.225L15.65,22.689L15.78,23.285L15.65,23.904L14.745,24.623L13.729,24.656L12.674,24.309L11.183,23.639L11.063,23.263L10.855,23.054L10.456,21.909L10.464,20.491L11.213,20.311L12.85,19.632L13.228,19.739L13.623,20.086L14.079,20.106L14.739,19.614L14.863,19.643ZM39.782,24.895L39.574,25.046L38.647,24.797L37.518,24.182L37.683,22.973L37.973,22.448L40.034,23.804L40.06,24.314L39.782,24.895ZM15.362,27.292L15.112,27.341L14.775,26.627L14.731,26.402L15.128,25.945L15.384,25.425L16.05,24.626L16.432,23.688L16.577,23.702L16.408,24.539L15.534,26.861L15.362,27.292ZM11.587,26.095L11.003,26.217L10.705,26.003L10.158,25.921L9.962,24.558L10.018,24.476L10.294,24.572L11.239,25.209L11.569,25.905L11.587,26.095ZM25.544,25.393L25.33,25.525L24.468,25.429L23.497,26.043L23.129,25.848L23.269,25.456L23.371,25.313L23.697,25.146L23.915,24.902L24.001,24.521L24.202,24.726L24.804,24.812L25.098,24.933L25.344,25.113L25.544,25.393ZM13.961,26.437L13.585,26.529L13.156,26.337L12.454,25.612L12.366,25.42L12.734,25.542L13.192,25.921L13.566,26.003L14.077,26.322L13.961,26.437ZM18.88,26.048L19.873,26.596L20.545,26.564L21.003,26.791L21.112,27.141L21.152,27.918L20.673,28.145L20.143,28.069L19.422,28.365L17.055,27.096L17.089,26.034L17.183,25.616L18.304,25.516L18.88,26.048Z" fill="#CCAA5A" stroke="#DCDCDC" stroke-width="0.5" stroke-miterlimit="3.999327"/>
<path d="M65.117,29.851L65.341,29.956L66.912,30.071L68.504,30.185L71.065,30.31L73.733,30.437L76.503,30.574L79.499,30.717L82.659,30.802L82.853,30.744L83.175,30.405L83.568,30.45L84.034,30.661L84.25,30.817L84.342,30.997L84.4,31.204L84.654,31.244L85.119,31.401L85.747,31.759L86.239,32.106L86.708,32.6L86.864,33.159L86.872,33.793L86.842,34.199L86.882,34.364L87.524,37.293L88.591,40.094L88.983,41.441L89.139,42.157L89.265,43.192L89.303,43.918L89.298,44.324L89.219,44.884L88.903,45.214L86.854,46.158L86.468,46.452L85.865,47.186L85.307,47.939L85.179,48.197L85.145,48.366L85.269,48.613L85.999,49.014L86.734,49.337L86.974,49.579L87.518,49.887L87.716,50.165L87.824,50.405L87.815,50.962L87.572,51.73L87.674,52.309L87.424,52.696L87.22,53.124L87.19,53.872L87.558,54.697L87.86,55.259L87.975,55.701L87.854,56.046L87.89,56.391L88.159,56.757L89.007,57.883L89.424,58.963L89.692,59.384L90.31,59.929L90.366,60.152L90.118,60.358L89.918,60.385L89.756,60.439L89.652,60.63L89.814,60.835L90.032,61.135L90.304,61.982L90.278,62.676L90.068,62.852L89.8,63.262L89.62,63.638L88.155,63.898L87.804,64.299L87.002,65.071L86.456,65.515L85.647,66.316L84.368,67.689L83.896,68.262L83.55,68.736L82.515,69.993L82.197,70.519L82.259,70.951L82.593,71.966L82.663,72.424L82.603,72.845L82.493,73.221L82.513,73.388L82.819,73.66L83.305,74.087L83.333,74.23L83.265,74.415L83.097,74.555L82.487,74.406L81.808,74.117L81.576,74.154L81.208,74.085L79.691,73.527L78.668,73.09L78.566,72.805L78.374,72.393L77.938,72.046L76.939,71.746L76.533,71.512L74.91,71.381L74.207,71.376L73.709,71.472L73.389,71.463L72.952,72.075L72.65,72.253L72.208,72.271L71.82,72.162L71.425,71.841L70.793,71.67L70.335,71.752L69.997,71.683L69.708,71.665L69.606,71.73L69.372,71.721L69.034,71.875L68.662,72.091L68.255,72.258L67.939,72.614L67.659,73.31L66.866,72.997L66.602,73.133L66.226,73.224L65.97,73.13L66.03,72.89L66.146,72.62L66.14,72.242L66.068,71.823L65.822,71.686L65.453,71.637L65.263,71.554L65.243,71.416L65.053,71.238L64.725,70.788L64.417,70.225L64.203,70.06L63.894,70.327L63.424,70.63L63.13,70.735L62.565,71.607L61.549,71.636L61.487,71.229L61.379,70.837L60.786,70.741L60.768,70.51L60.644,69.933L59.453,68.802L59.309,68.329L59.355,68.146L59.273,67.845L59.013,67.663L58.072,67.447L57.83,67.571L57.612,67.443L57.268,67.171L56.674,66.95L56.609,66.835L56.395,66.639L56.277,66.614L56.199,66.732L56.027,66.899L55.415,67.111L55.171,67.024L54.95,66.841L54.696,66.443L54.328,66.095L54.026,65.971L53.852,65.788L53.814,65.646L54.486,65.359L54.634,65.063L54.548,64.524L54.448,64.457L54.18,64.639L53.618,64.798L53.103,64.873L52.837,64.873L51.36,63.89L50.401,63.589L49.835,63.502L49.775,63.602L50.029,64.154L50.473,64.835L50.451,65.014L49.921,65.292L49.621,65.414L49.267,65.648L48.968,65.975L48.708,66.122L48.484,66.084L48.246,65.928L47.634,64.924L46.865,64.154L46.773,63.981L46.533,63.941L46.193,63.763L46.077,63.527L46.249,63.28L46.483,63.055L46.899,62.916L47.025,62.783L47.099,62.585L47.253,62.329L47.213,62.238L46.919,61.948L46.483,61.674L45.272,61.879L44.94,62.026L44.752,61.835L44.61,61.558L44.305,61.503L43.885,61.249L43.387,60.998L42.902,60.926L41.892,60.564L41.503,60.544L41.279,60.421L41.043,60.147L40.843,59.847L40.739,59.237L39.996,58.961L39.254,58.787L39.202,58.876L39.234,59.49L39.194,59.818L38.705,60.02L38.221,60.04L38.247,59.938L38.826,58.832L39.086,58.133L39.384,56.857L39.026,55.846L38.928,55.37L38.762,55.143L37.745,54.648L37.667,54.477L37.823,53.805L37.747,53.522L37.501,53.222L37.18,52.627L37.056,52.12L37.465,51.525L37.567,51.086L37.745,50.485L37.877,50.154L37.903,50.063L37.633,49.829L37.565,49.499L37.637,49.023L37.493,48.669L37.134,48.44L36.9,48.135L36.792,47.758L36.876,47.162L37.156,46.351L36.564,45.37L35.103,44.221L34.403,43.417L34.459,42.956L34.767,42.538L35.325,42.164L35.748,41.498L35.986,40.704L35.992,40.554L36.006,39.987L35.357,37.66L35.251,37.075L35.173,36.367L35.133,36.175L36.416,36.67L36.954,36.95L36.886,36.636L36.778,36.365L36.85,35.969L36.814,35.37L35.649,35.063L34.879,34.96L34.793,34.542L34.865,34.272L35.079,34.432L35.834,34.493L37.695,33.685L40.907,32.631L44.339,31.641L45.14,31.532L45.944,31.323L46.241,30.951L46.539,30.702L47.005,30.045L48.038,29.021L49.865,28.647L50.548,28.161L51.978,27.478L55.235,26.71L56.599,26.539L57.932,26.52L59.119,27.126L60.376,27.874L60.602,28.322L59.922,28.043L58.931,27.373L58.563,27.344L59.411,29.379L59.874,30.098L60.808,30.632L61.593,30.813L64.012,30.488L64.869,30.063L65.117,29.851Z" fill="#4B91EC" stroke="#DCDCDC" stroke-width="0.5" stroke-miterlimit="3.999327"/>
</svg>
