<svg width="142" height="118" viewBox="0 0 142 118" fill="none" xmlns="http://www.w3.org/2000/svg" xmlns:xlink="http://www.w3.org/1999/xlink">
<path d="M125.232,36.968L124.945,37.01L124.537,36.857L124.377,36.625L124.309,36.592L123.985,36.745L123.368,36.937L122.32,37.44L122.344,37.569L123.026,38.079L123.186,38.248L123.27,38.301L122.652,38.546L121.325,39.098L120.452,39.548L120.244,39.564L119.716,39.375L118.937,39.15L118.729,39.154L116.93,39.192L115.277,39.276L114.59,39.384L113.312,39.488L112.509,39.524L111.995,39.699L111.434,39.927L110.85,40.076L110.416,40.125L109.895,40.339L109.551,40.764L108.57,41.392L108.018,41.696L107.74,42.039L107.424,42.071L106.885,42.01L106.467,42.38L106.005,42.91L105.16,43.678L104.71,43.989L104.442,44.49L104.64,44.749L105.328,45.138L105.636,45.505L105.804,45.795L106.117,46.539L106.317,47.271L106.613,47.587L106.699,48.123L106.775,48.451L106.613,48.685L106.465,48.945L106.465,49.192L106.643,49.446L106.799,49.671L106.885,49.851L106.779,50.051L106.465,50.356L106.305,50.668L105.957,51.189L105.414,51.545L105.054,51.803L104.672,52.347L104.041,52.952L103.775,53.457L103.497,53.734L103.211,53.883L103.285,54.156L103.533,54.495L103.943,54.875L103.925,55.465L103.905,55.889L103.919,56.403L103.695,56.835L102.556,57.249L101.464,57.431L100.127,57.442L99.622,57.376L99.218,57.286L97.767,56.821L97.177,57.095L97.055,57.765L98.115,58.851L98.548,59.455L99.03,60.465L99.39,60.984L99.262,61.47L98.302,62.022L97.349,62.54L96.134,62.647L95.37,62.832L95.001,63.099L94.729,64.23L94.455,64.644L94.461,65.136L94.203,65.693L93.814,66.051L93.54,66.636L93.626,67.741L93.754,69.611L93.236,70.199L92.652,70.795L92.037,71.22L91.451,71.416L90.965,71.343L90.582,70.977L90.354,70.668L89.93,70.41L89.498,70.463L89.065,70.699L88.371,70.621L87.78,70.385L87.48,70.41L87.308,70.648L86.674,71.156L85.119,71.928L84.484,71.984L84.212,72.177L84.32,72.492L84.598,72.75L85.083,72.932L85.107,73.142L84.68,73.326L84.314,73.535L83.508,73.791L82.579,73.89L81.62,73.742L81.126,73.402L80.542,73.369L80.011,73.618L79.461,74.028L78.862,74.907L78.702,75.061L78.54,75.201L78.148,75.39L77.586,75.699L77.305,76.345L76.967,77.494L77.047,78.112L77.073,79.181L76.941,79.931L76.697,80.423L76.745,80.809L77.117,81.249L76.967,81.534L76.655,81.85L76.353,82.026L75.144,82.358L73.487,82.81L72.392,83.101L70.763,83.533L70.287,83.638L69.296,83.676L68.782,83.611L68.087,83.593L67.064,83.609L66.35,83.727L65.635,83.943L65.107,84.215L64.803,84.484L64.695,84.613L63.978,84.391L61.717,83.996L55.595,84.519L55.018,84.419L52.929,83.807L50.237,83.019L48.572,82.531L46.435,81.891L47.898,80.312L49.173,78.932L50.453,77.545L51.712,76.174L51.862,75.693L51.882,74.751L51.55,73.489L51.016,72.914L49.255,72.681L47.934,72.505L46.493,72.315L46.309,72.244L46.146,71.258L46.215,70.819L46.122,69.967L46.136,69.31L46.343,68.23L46.355,67.741L45.69,65.633L45.318,64.462L44.938,63.251L44.856,62.865L44.848,62.387L45.732,61.262L46.006,61.016L46.523,60.455L46.847,60.156L46.791,59.951L46.227,59.833L45.376,59.822L44.922,59.651L44.569,59.344L44.429,58.898L44.66,58.104L44.429,56.559L44.902,55.793L45.31,55.258L46.693,55.181L46.214,54.575L45.982,54.223L45.834,54.121L45.778,53.96L45.852,53.796L46.205,53.734L46.445,53.531L46.835,53.246L47.039,53.123L47.075,52.776L47.261,52.533L47.541,52.226L47.762,51.877L47.706,51.469L47.91,50.978L48.004,50.67L48.152,50.403L48.022,50.014L47.91,49.686L47.874,49.295L48.096,49.192L48.376,49.049L48.43,48.74L48.578,48.35L48.69,48.039L48.876,47.794L48.896,47.545L48.784,47.133L49.245,47.071L49.431,47.298L49.679,47.593L50.357,48.141L50.796,48.301L51.35,48.38L52.032,48.306L52.575,48.203L52.831,48.23L53.425,48.627L54.118,49.185L54.34,49.433L54.444,49.813L54.648,49.925L55.091,49.55L55.519,49.426L55.913,49.497L56.347,49.539L56.782,49.401L56.976,49.301L57.734,48.814L58.421,48.444L58.849,48.217L59.003,47.454L59.201,47.021L59.483,46.768L59.379,46.454L59.261,46.215L59.141,45.889L59.261,45.717L59.535,45.641L60.222,45.641L61.431,45.298L62.439,44.955L63.37,44.675L63.794,44.63L64.195,44.677L64.379,44.595L64.429,44.328L64.657,44.047L65.175,43.818L66.148,43.333L67.008,42.612L67.313,42.064L67.521,41.264L67.923,40.025L68.367,38.666L68.531,38.065L68.718,37.602L69.478,37.211L70.253,36.928L71.455,36.872L72.864,36.843L73.161,36.097L73.347,35.461L73.581,35.132L73.923,34.866L74.043,34.813L74.802,35.203L75.968,35.801L77.325,36.098L78.006,36.247L78.29,36.224L80.003,36.078L81.356,36.311L82.065,36.946L82.763,37.108L83.446,36.801L83.87,36.745L84.034,36.943L84.374,37.026L84.894,36.995L85.193,37.171L85.225,37.347L85.265,37.551L85.649,38.034L86.343,38.62L86.958,38.762L87.768,38.306L88.041,38.359L88.175,38.212L88.257,37.879L88.747,37.567L89.642,37.275L90.15,37.013L90.332,36.797L90.634,36.736L90.963,36.801L91.199,36.719L91.281,36.514L91.375,36.425L91.543,36.353L91.693,36.316L91.965,36.373L92.466,36.747L93.198,37.436L93.674,37.752L93.891,37.7L94.171,37.487L94.513,37.121L94.597,36.59L94.427,35.899L94.543,35.339L94.949,34.915L95.698,34.653L96.792,34.553L97.463,34.613L97.711,34.833L98.047,34.953L98.468,34.976L98.856,34.728L99.206,34.203L99.226,33.555L98.916,32.78L99,32.533L99.134,32.426L99.554,32.144L100.139,31.561L100.705,30.81L101.251,29.887L101.924,29.317L102.726,29.098L103.697,29.348L104.842,30.067L105.272,30.95L104.992,31.997L104.968,32.571L105.2,32.678L105.592,32.649L106.141,32.485L106.501,32.476L106.671,32.625L106.661,32.919L106.469,33.361L106.239,34.597L106.097,35.664L105.955,36.712L105.833,37.631L106.051,38.346L106.383,39.424L106.757,40.136L107.139,40.363L107.522,40.445L107.904,40.381L108.69,39.924L109.875,39.074L111.026,38.551L112.701,38.257L113.262,37.344L114.038,36.739L115.809,35.841L116.77,35.496L117.324,35.437L118.015,35.599L118.173,35.657L118.309,35.701L118.667,35.775L118.741,36.049L118.647,36.345L118.265,36.589L118.143,36.777L118.289,36.919L118.829,36.968L119.946,36.639L120.669,36.429L121.171,36.345L121.373,36.071L121.689,35.795L122.19,35.775L122.728,35.922L123.174,36.008L123.931,35.93L124.331,36.169L124.891,36.621L125.142,36.903L125.232,36.968Z" fill="#A1A28A" stroke="#DCDCDC" stroke-width="0.5" stroke-miterlimit="3.999327"/>
<path d="M124.951,38.575L125.221,38.744L125.556,38.644L126.146,38.524L126.658,38.613L127.787,38.992L127.957,39.181L128.223,40.102L128.425,40.185L129.06,39.969L129.586,40.078L130.175,40.376L130.555,40.663L130.807,40.971L131.077,41.472L131.181,41.872L131.309,42.349L131.275,43.693L131.083,43.913L130.919,44.198L130.959,44.446L131.145,44.642L131.51,44.777L131.848,44.86L132.03,45.073L132.28,45.824L132.448,45.941L132.864,45.937L133.615,45.773L134.267,45.516L134.544,45.461L134.612,46.175L134.996,46.447L135.532,46.765L135.754,46.87L136.381,47.171L137.566,47.555L138.716,47.829L139.567,48.032L139.979,48.045L140.273,48.054L141.122,47.999L141.546,47.905L140.97,48.232L140.267,48.635L139.435,49.107L138.704,49.524L138.004,49.922L137.335,50.303L137.233,50.599L137.067,51.033L136.453,51.363L135.842,51.601L135.7,51.741L135.654,51.928L135.358,52.302L134.786,52.618L134.313,52.587L134.013,52.493L132.42,53.037L131.68,53.025L131.105,53.377L130.677,53.7L129.822,54.052L129.24,54.054L128.38,53.845L127.323,53.446L126.896,53.215L126.508,53.228L125.572,53.174L124.657,52.976L123.566,52.741L123.026,52.642L121.919,52.435L121.197,52.711L120.546,52.958L120.016,53.126L119.578,53.893L119.393,54.163L119.181,54.548L119.081,54.82L119.169,55.145L119.81,55.374L120.078,55.69L120.118,55.968L119.886,56.253L119.692,56.478L119.694,56.676L119.798,56.875L119.952,57.024L120.864,57.117L121.405,57.119L121.615,57.199L121.641,57.469L121.441,57.832L120.674,58.125L120.24,58.433L120.1,58.842L120.106,59.167L120.256,59.383L120.624,59.631L120.969,59.915L121.075,60.145L121.031,60.461L120.894,60.893L120.516,61.396L120.2,61.754L120.178,61.881L120.256,62.073L120.51,62.353L120.942,62.765L121.479,63.097L121.825,63.19L121.935,63.272L122.043,63.656L122.085,64.061L121.947,64.366L122.223,64.617L122.944,64.604L123.532,64.711L123.78,64.604L123.954,64.684L123.844,65.588L123.924,66.122L124.081,66.273L124.659,66.491L125.77,66.463L126.428,66.716L127.153,67.004L127.539,67.324L127.713,67.562L127.665,67.945L127.267,68.393L126.622,68.607L126.244,68.7L124.381,69.539L123.8,69.893L123.348,70.318L123.182,70.637L123.094,70.948L123.498,72.073L123.566,72.422L123.234,73.633L123.136,74.081L123.262,74.395L123.658,74.512L123.744,74.775L123.782,74.976L123.094,75.419L122.367,75.811L122.137,75.81L121.441,76.545L120.284,78.014L119.668,78.511L119.624,78.753L119.576,79L119.81,79.414L119.858,79.764L119.598,80.114L119.163,80.519L118.315,80.87L117.246,81.231L116.766,81.449L116.405,82.393L116.071,83.339L115.921,83.689L115.345,84.777L114.338,86.374L114.082,86.723L112.523,87.491L110.934,88.326L110.652,88.642L110.327,89.401L110.021,90.232L109.735,90.666L108.724,91.639L108.392,92.385L108.286,92.872L107.427,93.144L106.451,93.404L105.032,93.488L104.443,93.624L102.704,94.294L102.272,94.323L101.932,94.212L101.677,93.983L101.439,93.602L101.325,93.015L100.989,92.75L100.537,92.523L100.062,92.514L99.582,92.763L99.168,93.035L98.884,93.261L98.609,93.524L98.075,94.406L97.213,95.672L96.252,96.59L95.896,96.864L95.674,97.073L95.373,97.378L95.199,97.672L94.961,98.633L94.823,99.482L94.887,99.673L95.031,99.835L95.557,100.08L96.314,100.49L97.299,100.722L98.129,100.762L98.441,100.937L98.624,101.173L98.676,101.371L98.633,102.071L98.539,102.823L98.233,103.629L98.237,104.09L98.359,104.542L99.28,105.686L99.62,105.804L100.311,105.83L100.633,105.806L100.991,105.69L101.245,105.77L101.435,105.909L101.483,106.142L101.453,107.28L101.736,107.796L102.286,108.497L102.72,109.297L103.13,110.254L103.523,111.002L103.675,111.392L103.419,111.581L103.273,111.777L103.235,112.039L103.289,112.315L103.255,112.509L103.441,112.749L103.659,112.828L103.653,112.995L103.309,113.211L103.004,113.204L102.768,113.309L102.312,113.763L102.1,113.854L101.814,113.896L101.497,113.851L101.045,113.667L100.915,113.378L100.965,113.075L100.863,112.894L100.539,112.928L99.418,113.239L98.349,113.622L98.163,113.883L97.915,114.154L97.425,114.266L96.702,114.301L96.204,114.259L95.744,113.967L95.325,113.702L94.675,113.689L93.506,113.729L92.858,113.725L92.477,113.627L92.101,113.702L91.631,113.593L91.421,113.738L91.223,113.753L91.066,113.502L90.96,113.475L90.836,113.511L90.726,113.596L90.662,113.743L90.64,115.414L89.868,115.403L89.319,115.399L88.715,115.49L88.164,115.617L87.892,115.77L87.504,116.007L87.412,116.341L87.226,116.585L86.958,116.225L86.787,116.058L86.587,116.182L86.303,116.167L85.791,115.757L85.563,116.171L84.718,116.265L84.612,115.953L84.592,115.662L84.126,115.873L83.793,115.55L83.643,115.116L83.515,114.996L83.369,114.858L83.017,114.709L82.705,114.248L82.675,113.758L82.587,113.175L81.932,111.011L81.534,110.811L79.302,110.426L79.188,110.047L79.341,109.027L79.28,108.382L78.556,107.531L78.354,106.935L77.765,106.425L77.179,106.276L76.587,106.343L76.27,106.545L76.096,106.886L77.359,106.806L77.643,106.932L77.982,107.155L77.621,107.146L77.201,107.04L76.675,107.048L74.707,107.298L73.563,107.66L72.03,107.552L70.096,107.908L68.497,107.928L67.837,108.62L67.471,108.495L67.192,108.326L64.993,107.783L64.841,107.556L64.473,107.393L64.07,107.683L63.78,107.73L62.575,107.489L61.653,107.672L61.312,107.985L61.288,108.469L60.136,108.375L59.485,108.222L58.617,108.391L56.651,108.168L56.135,108.222L55.418,108.546L55.118,108.796L54.692,108.894L54.316,108.546L54.037,108.391L53.777,108.493L53.425,108.78L52.406,108.914L51.484,108.876L50.493,108.607L50.611,108.517L50.765,108.048L50.903,106.372L51.078,105.766L51.026,105.436L51.062,105.336L51.452,105.042L51.546,104.918L51.694,104.058L51.858,103.103L52.04,102.759L52.192,102.667L53.421,102.237L53.631,101.952L54.264,102.019L54.322,101.95L54.38,101.619L54.674,101.262L55.082,100.967L55.388,100.864L56.493,100.679L57.14,100.421L57.334,100.394L59.055,100.459L59.417,100.361L59.473,100.27L59.575,99.294L59.889,99.141L59.936,99.059L59.831,98.382L59.89,97.93L60.244,97.661L60.222,97.509L59.971,97.188L59.633,96.982L59.469,96.933L58.058,97.128L57.474,97.064L57.202,96.946L57.144,96.859L57.2,96.661L57.21,96.34L57.414,95.839L57.476,95.539L57.31,93.802L57.072,92.645L57.2,91.496L57.174,91.258L57.126,91.204L56.948,91.204L56.089,91.305L55.358,90.565L54.902,90.272L53.655,89.904L53.107,89.831L52.306,89.511L51.564,88.813L50.809,88.095L50.503,87.636L50.165,86.854L49.21,85.352L49.218,84.964L49.1,84.726L48.166,83.736L47.505,83.032L46.436,81.892L48.572,82.531L50.237,83.019L52.929,83.807L55.018,84.419L55.595,84.519L61.717,83.996L63.978,84.392L64.695,84.613L64.803,84.484L65.107,84.216L65.635,83.943L66.35,83.727L67.064,83.609L68.087,83.593L68.783,83.611L69.296,83.676L70.288,83.638L70.763,83.533L72.392,83.101L73.487,82.81L75.144,82.358L76.353,82.026L76.655,81.85L76.967,81.534L77.117,81.249L76.745,80.81L76.697,80.423L76.941,79.931L77.073,79.181L77.047,78.112L76.967,77.495L77.305,76.345L77.587,75.699L78.148,75.39L78.54,75.201L78.702,75.062L78.862,74.907L79.461,74.029L80.011,73.618L80.543,73.37L81.126,73.402L81.62,73.742L82.579,73.891L83.509,73.791L84.314,73.535L84.68,73.326L85.108,73.143L85.084,72.932L84.598,72.751L84.32,72.493L84.212,72.177L84.484,71.984L85.12,71.928L86.675,71.156L87.308,70.648L87.48,70.41L87.78,70.385L88.371,70.621L89.065,70.699L89.499,70.463L89.93,70.41L90.354,70.668L90.582,70.977L90.966,71.343L91.451,71.416L92.037,71.22L92.653,70.795L93.236,70.2L93.754,69.611L93.626,67.741L93.54,66.636L93.814,66.051L94.204,65.694L94.461,65.136L94.455,64.644L94.729,64.23L95.001,63.099L95.371,62.832L96.134,62.647L97.349,62.54L98.303,62.023L99.262,61.471L99.39,60.984L99.03,60.465L98.549,59.455L98.115,58.851L97.056,57.765L97.177,57.095L97.767,56.821L99.218,57.286L99.622,57.377L100.128,57.442L101.465,57.431L102.556,57.249L103.695,56.836L103.919,56.403L103.905,55.89L103.925,55.465L103.943,54.875L103.533,54.495L103.285,54.156L103.211,53.883L103.497,53.735L103.775,53.457L104.041,52.952L104.672,52.348L105.054,51.803L105.414,51.545L105.958,51.189L106.305,50.668L106.465,50.356L106.779,50.051L106.885,49.851L106.799,49.671L106.643,49.446L106.465,49.192L106.465,48.945L106.613,48.686L106.775,48.451L106.699,48.123L106.613,47.587L106.317,47.271L106.118,46.54L105.804,45.795L105.636,45.505L105.328,45.138L104.64,44.75L104.443,44.49L104.71,43.989L105.16,43.678L106.006,42.91L106.467,42.38L106.885,42.01L107.425,42.072L107.74,42.039L108.018,41.696L108.57,41.393L109.551,40.764L109.895,40.34L110.417,40.125L110.85,40.076L111.434,39.927L111.996,39.699L112.509,39.524L113.313,39.488L114.59,39.385L115.277,39.276L116.93,39.192L118.729,39.154L118.937,39.15L119.716,39.376L120.244,39.564L120.452,39.548L121.325,39.098L122.652,38.546L123.27,38.301L123.602,38.21L124.115,38.215L124.529,38.361L124.951,38.575Z" fill="#CCAA5A" stroke="#DCDCDC" stroke-width="0.5" stroke-miterlimit="3.999327"/>
<path d="M78.29,36.223L78.006,36.247L77.324,36.098L75.967,35.8L74.802,35.203L74.041,34.812L73.921,34.865L73.579,35.132L73.345,35.46L73.159,36.096L72.862,36.844L71.452,36.873L70.251,36.929L69.476,37.212L68.716,37.603L68.526,38.066L68.362,38.667L67.919,40.026L67.517,41.265L67.309,42.065L67.003,42.614L66.144,43.334L65.171,43.819L64.653,44.046L64.425,44.329L64.375,44.596L64.191,44.678L63.79,44.631L63.366,44.676L62.434,44.956L61.427,45.299L60.22,45.64L59.53,45.64L59.257,45.716L59.135,45.889L59.257,46.214L59.375,46.455L59.481,46.768L59.197,47.02L58.999,47.454L58.845,48.216L58.417,48.443L57.73,48.814L56.972,49.3L56.776,49.4L56.341,49.538L55.907,49.496L55.513,49.425L55.085,49.551L54.642,49.927L54.436,49.812L54.332,49.433L54.11,49.186L53.417,48.628L52.823,48.231L52.567,48.204L52.023,48.307L51.342,48.382L50.788,48.302L50.349,48.142L49.671,47.594L49.423,47.298L49.237,47.071L48.776,47.132L48.646,46.886L48.628,46.595L48.756,46.245L48.718,45.582L48.458,45.106L48.162,44.899L48.2,44.754L48.33,44.422L48.496,44.131L48.494,43.558L48.286,42.935L48.204,42.033L48.256,41.152L47.974,40.707L45.664,40.705L43.609,40.74L43.493,40.638L42.694,39.525L42.046,38.679L41.407,38.18L39.942,37.565L39.24,37.307L38.638,36.837L38.147,36.319L38.021,35.611L37.921,35.379L37.779,35.19L37.625,35.106L37.437,35.125L35.734,34.3L35.051,34.082L34.407,34.257L34.124,34.288L33.564,34.053L32.92,34.371L32.647,34.391L32.263,34.315L31.945,34.197L31.088,33.443L30.368,33.14L29.85,32.946L28.853,32.659L27.792,32.51L27.246,32.387L26.854,32.221L26.753,32.114L26.759,31.838L26.729,31.475L26.599,31.21L26.329,30.893L25.955,30.655L25.311,30.696L24.346,30.676L23.607,30.439L23.019,30.397L22.311,30.442L21.732,30.442L21.318,30.617L21.078,30.82L20.926,31.441L20.786,31.533L20.545,31.579L20.223,31.546L19.543,31.552L18.37,31.441L16.897,31.408L15.788,31.722L14.913,32.172L14.077,32.679L13.094,33.478L12.804,33.834L12.224,35.248L11.967,35.451L11.631,35.613L11.291,35.642L10.615,35.851L9.724,36.196L9.118,36.33L7.561,36.259L7.47,35.811L7.19,34.173L7.054,32.514L7.062,31.748L7.226,30.206L7.212,29.427L7.146,28.721L7.21,28.028L7.336,27.247L7.4,26.452L7.306,25.896L7.006,25.448L6.496,24.892L6.416,24.562L6.386,24.195L5.899,24.153L5.459,23.774L5.097,23.567L4.318,23.336L3.93,23.325L3.572,23.494L3.31,23.834L3.126,23.298L3.133,22.737L3.754,21.577L4.144,21.917L4.617,22.053L5.221,22.073L5.815,21.984L5.699,21.586L5.423,21.359L5.079,21.181L4.957,20.655L4.999,20.108L5.161,19.591L4.975,19.382L4.695,19.253L4.046,19.268L3.204,19.131L2.357,19.072L2.157,19.682L2.625,20.48L2.229,20.088L1.853,19.569L1.33,18.632L0.992,17.532L0.932,16.341L1.218,15.355L1.585,14.426L1.805,13.233L2.109,12.06L2.411,12.586L2.759,13.059L3.238,13.492L3.502,13.596L4.294,13.776L4.803,13.708L5.345,13.451L5.879,13.534L6.32,14.017L6.712,14.558L7.308,14.672L8.535,14.282L9.118,14.193L9.626,14.373L9.888,14.406L10.154,14.375L9.924,13.895L9.83,13.429L10.138,13.182L11.105,13.445L11.723,13.271L11.881,13.173L12.018,13.051L12.092,12.648L12.062,12.232L11.983,11.842L11.803,11.499L11.357,11.018L9.632,9.869L9.051,9.409L8.567,8.814L8.259,7.973L8.009,7.094L7.777,6.441L7.176,4.919L6.942,4.738L6.648,4.658L5.935,4.611L5.211,4.722L4.028,4.985L3.35,4.903L3.037,5.065L2.261,5.707L1.897,6.256L1.39,7.508L1.773,7.911L1.765,8.177L1.474,10.017L1.651,10.909L1.588,10.974L1.45,10.767L1.01,9.86L0.236,8.748L-0.411,7.044L0.726,5.925L1.699,5.13L2.495,4.651L2.739,4.535L3.828,4.137L5.233,3.778L6.27,3.512L7.621,3.286L8.065,3.244L8.715,3.247L9.242,3.46L9.56,3.627L10.687,4.311L11.837,5.008L12.824,5.78L13.104,6.094L13.26,6.47L13.378,6.839L14.215,8.004L14.555,8.536L15.044,9.228L15.438,9.565L15.822,9.981L16.08,10.322L16.374,10.484L16.701,10.548L17.449,10.439L18.348,10.223L18.886,10.132L19.126,10.145L20.609,10.221L21.944,10.29L23.591,10.375L24.08,10.455L24.668,10.529L24.96,10.54L25.22,10.244L25.391,10.083L25.525,9.954L25.497,9.809L25.29,9.685L24.962,9.275L24.774,7.792L24.656,6.517L25.046,6.12L25.495,5.831L26.141,4.961L26.489,4.693L26.998,4.469L28.705,4.411L29.425,4.24L29.657,3.959L30.034,3.244L30.16,2.661L30.372,2.394L30.626,2.196L30.888,2.203L31.393,2.374L31.777,2.47L32.051,2.599L32.301,2.806L32.543,3.164L32.581,3.4L32.693,3.536L32.886,3.538L33.03,3.54L33.128,3.489L33.19,3.369L33.142,3.209L32.812,2.752L32.087,1.922L31.613,1.583L31.377,1.399L31.319,1.225L31.627,0.962L31.925,0.811L32.449,0.923L33.146,0.985L33.454,0.853L33.772,0.185L34.563,0.893L35.387,1.684L35.689,1.831L36.278,1.915L36.768,1.944L36.974,2.029L37.194,2.234L37.629,3.098L38.065,3.325L38.606,3.489L40.355,3.474L40.893,3.518L41.331,3.923L41.604,4.09L41.722,4.233L41.692,4.411L41.584,4.638L41.571,5.074L41.543,5.411L41.403,5.571L41.361,5.72L41.477,5.851L42.286,6.17L42.56,6.514L42.766,6.666L42.814,6.88L42.678,7.022L42.298,6.951L42.112,7.176L42.112,7.579L42.384,7.957L42.464,8.302L42.284,8.634L42.074,9.102L42.068,9.433L42.192,9.622L42.814,9.963L44.243,10.824L44.572,10.86L45.926,10.66L46.555,10.64L46.927,10.775L47.974,10.896L48.306,11.034L48.662,11.043L49.145,11.003L49.473,10.618L49.641,10.531L49.789,10.468L50.087,10.459L50.914,10.704L51.788,11.219L52.363,11.69L52.649,12.114L53.009,13.033L53.445,14.444L53.968,15.393L54.584,15.885L55.016,16.789L55.391,18.756L55.623,19.157L55.861,19.366L56.564,19.932L58.001,20.869L58.849,21.421L60.16,22.3L61.363,23.104L62.568,24.342L62.808,24.524L63.868,25.192L65.047,25.874L65.872,25.72L67.115,26.769L67.621,27.158L67.835,27.29L68.736,27.704L70.171,28.569L71.982,29.803L73.181,30.517L73.505,30.6L73.829,30.597L74.175,30.444L74.55,30.324L75.19,30.482L75.883,30.767L76.325,30.983L76.833,31.296L77.235,31.593L77.538,31.729L78.576,31.989L78.754,32.143L78.867,32.316L78.885,32.496L78.302,33.436L78.224,34.633L78.22,35.531L78.29,36.223ZM3.055,26.846L3.003,27.151L2.699,26.232L2.547,25.217L2.741,24.93L2.959,24.947L2.751,25.313L3.055,26.846Z" fill="#4B91EC" stroke="#DCDCDC" stroke-width="0.5" stroke-miterlimit="3.999327"/>
</svg>
