<svg width="40" height="32" viewBox="0 0 40 32" fill="none" xmlns="http://www.w3.org/2000/svg" xmlns:xlink="http://www.w3.org/1999/xlink">
<path d="M15.5,2C15.898,2 16.279,2.158 16.561,2.439C16.842,2.721 17,3.102 17,3.5L17,28.5C17,28.898 16.842,29.279 16.561,29.561C16.279,29.842 15.898,30 15.5,30C15.102,30 14.721,29.842 14.439,29.561C14.158,29.279 14,28.898 14,28.5L14,3.5C14,3.102 14.158,2.721 14.439,2.439C14.721,2.158 15.102,2 15.5,2Z" fill="#FFFFFF"/>
<path d="M23.5,2C23.898,2 24.279,2.158 24.561,2.439C24.842,2.721 25,3.102 25,3.5L25,28.5C25,28.898 24.842,29.279 24.561,29.561C24.279,29.842 23.898,30 23.5,30C23.102,30 22.721,29.842 22.439,29.561C22.158,29.279 22,28.898 22,28.5L22,3.5C22,3.102 22.158,2.721 22.439,2.439C22.721,2.158 23.102,2 23.5,2Z" fill="#FFFFFF"/>
</svg>
