<svg width="42" height="50" viewBox="0 0 42 50" fill="none" xmlns="http://www.w3.org/2000/svg" xmlns:xlink="http://www.w3.org/1999/xlink">
<path d="M14.663,0.257L14.443,0.31L14.089,0.266L14.017,0.183L14.129,0.165L14.361,0.11L14.645,0.138L14.695,0.192L14.663,0.257ZM31.054,19.302L30.808,19.404L30.808,19.339L30.808,19.322L30.98,19.181L31.118,19.181L31.054,19.302ZM31.204,21.167L30.808,21.363L30.808,21.093L31.124,20.842L31.363,20.789L31.215,21.042L31.204,21.167ZM36.662,25.243L36.52,25.424L36.396,25.359L36.554,25.054L36.578,24.923L36.334,24.764L36.318,24.651L36.39,24.582L36.682,24.762L36.86,24.901L36.896,24.978L36.842,25.114L36.662,25.243ZM40.617,28.856L40.305,28.912L40.022,28.685L40.201,28.445L40.453,28.502L40.597,28.734L40.617,28.856ZM36.484,28.983L36.314,29.063L36.196,29.045L36.058,28.959L35.974,28.809L36.15,28.681L36.422,28.825L36.484,28.983ZM37.753,30.354L37.687,30.452L37.387,30.292L37.271,30.183L37.591,30.099L37.747,30.127L37.753,30.354ZM31.931,34.128L31.945,34.286L31.861,34.277L31.761,34.21L31.711,34.242L31.675,34.291L31.657,34.402L31.643,34.464L31.565,34.442L31.551,34.333L31.577,34.257L31.615,34.144L31.755,34.043L31.931,34.128ZM39.026,35.337L38.964,35.386L38.81,35.332L38.684,35.257L38.668,35.181L38.72,35.083L38.842,35.032L38.904,35.052L38.868,35.085L38.794,35.119L38.806,35.216L38.902,35.274L38.994,35.29L39.026,35.337ZM38.035,43.429L38.047,43.443L38.015,43.442L37.971,43.424L37.935,43.387L37.927,43.347L37.945,43.307L37.963,43.309L37.993,43.346L38.021,43.385L38.035,43.429ZM30.804,19.404L29.956,20.107L29.653,20.47L29.395,20.871L28.673,21.301L28.365,21.879L28.387,22.461L29.111,21.851L29.916,21.354L30.164,21.252L30.418,21.258L30.396,21.428L30.28,21.597L30.19,22.038L30.402,22.449L29.801,22.409L29.205,22.443L28.499,22.672L27.806,22.774L27.546,22.776L27.298,22.699L27.136,22.581L27.01,22.309L26.882,22.269L26.333,22.282L25.509,22.815L25.236,23.273L24.92,23.293L24.544,23.199L24.09,23.549L23.549,23.674L23.317,23.376L23.165,23.013L22.971,22.746L22.375,22.679L22.467,22.353L22.625,22.218L22.769,22.024L22.857,21.802L23.143,21.942L23.435,22.033L23.761,21.868L24.1,21.853L24.44,21.37L24.974,21.067L25.707,20.827L26.455,20.657L26.84,20.622L27.21,20.524L27.86,20.07L28.289,19.838L28.757,19.698L29.205,19.616L29.619,19.689L29.952,19.651L30.804,19.328L30.804,19.404ZM30.808,21.363L30.736,21.37L30.722,21.269L30.808,21.093L30.808,21.363ZM31.589,22.147L31.405,22.213L30.808,22.663L30.422,23.14L30.23,23.605L30.392,23.798L30.808,23.6L30.948,23.398L31.549,23.004L31.805,22.554L31.589,22.147ZM15.294,24.577L15.004,24.666L15.158,24.244L15.32,24.112L15.424,24.085L15.59,24.056L15.526,24.353L15.294,24.577ZM27.568,25.742L27.38,25.886L27.292,25.156L27.486,25.161L27.626,25.237L27.706,25.423L27.568,25.742ZM21.162,25.769L21.162,26.004L21.326,26.105L21.49,26.122L21.894,26.572L22.523,26.959L22.907,27.254L22.929,27.507L22.811,27.774L22.975,28.253L23.053,28.749L23.333,29.537L22.939,29.687L22.318,29.705L22.174,29.847L21.964,29.769L21.448,29.829L20.956,30.089L20.489,30.441L19.947,30.441L19.338,30.513L18.73,30.464L18.302,30.275L17.549,30.07L16.543,29.896L16.128,29.749L15.78,29.52L15.456,28.941L15.408,28.654L15.458,28.38L15.752,28.288L15.998,28.15L16.032,27.968L16.142,27.841L16.282,27.796L16.352,27.708L16.252,27.414L16.224,27.147L16.807,26.657L17.441,26.24L18.564,25.855L19.25,25.891L20.301,25.595L20.639,25.455L20.972,25.541L21.162,25.769ZM24.232,27.665L23.942,27.759L23.782,27.434L24.002,27.107L24.25,27.078L24.372,27.411L24.232,27.665ZM27.158,29.653L27.108,29.696L26.623,29.272L26.639,29.103L26.725,28.952L26.92,28.81L27.096,29.052L27.234,29.455L27.158,29.653ZM22.328,34.31L22.325,34.54L21.604,34.693L21.362,34.504L21.206,34.469L20.777,34.807L20.651,34.945L20.609,35.049L20.497,35.101L19.705,35.263L19.358,35.101L19.591,34.992L19.881,34.773L20.173,34.805L20.465,34.6L20.757,34.288L21.17,34.221L21.462,34.101L21.944,34.188L22.328,34.31ZM0.684,49.008L0.642,49.068L0.48,49.048L0.448,48.926L0.542,48.858L0.674,48.903L0.684,49.008Z" fill="#4B91EC" stroke="#DCDCDC" stroke-width="0.5" stroke-miterlimit="3.999327"/>
</svg>
