<svg width="0" height="2" viewBox="0 0 0 2" fill="none" xmlns="http://www.w3.org/2000/svg" xmlns:xlink="http://www.w3.org/1999/xlink">
<path d="M-0.769,-0.268L-0.787,-0.182L-0.777,-0.121L-0.791,0.05L-0.829,0.047L-0.893,-0.041L-0.887,-0.159L-0.825,-0.19L-0.867,-0.262L-0.769,-0.268Z" fill="#4B91EC" stroke="#DCDCDC" stroke-width="0.5" stroke-miterlimit="3.999327"/>
</svg>
