<svg width="18" height="4" viewBox="0 0 18 4" fill="none" xmlns="http://www.w3.org/2000/svg" xmlns:xlink="http://www.w3.org/1999/xlink">
<path d="M1.122,3.743L1.09,3.304L0.778,2.301L1.196,1.864L1.65,1.604L1.956,1.811L2.047,2.22L2.283,2.499L3.087,2.674L3.88,2.548L4.366,2.606L4.352,2.38L4.516,2.078L5.481,1.949L6.5,1.864L7.55,1.682L8.371,1.69L8.615,1.641L8.557,1.562L7.82,1.475L6.247,1.682L4.646,1.744L3.433,2.291L2.935,2.24L2.431,1.693L2.251,1.02L3.672,0.971L5.395,0.992L7.272,1.014L8.155,1.025L8.619,0.292L9.502,-0.032L10.406,-0.151L10.877,-0.121L11.373,-0.012L12.327,0.593L12.92,0.733L13.422,0.869L13.78,1.163L14.349,1.455L14.797,1.533L15.063,1.49L15.506,1.377L15.798,1.287L16.75,1.248L17.449,1.586L17.595,1.955L17.479,2.332L16.54,2.534L15.239,2.85L14.163,2.677L12.854,2.247L12.089,1.938L11.771,1.813L11.293,1.617L10.876,1.406L10.474,1.268L10.166,1.181L9.938,1.292L9.824,1.553L9.642,1.844L9.409,2.016L8.311,2.118L7.326,2.225L6.798,2.316L6.445,2.385L6.335,3.262L5.219,3.253L4.124,3.242L2.987,3.258L1.766,3.275L1.452,3.454L1.122,3.743Z" fill="#CCAA5A" stroke="#DCDCDC" stroke-width="0.5" stroke-miterlimit="3.999327"/>
</svg>
