<svg width="2" height="2" viewBox="0 0 2 2" fill="none" xmlns="http://www.w3.org/2000/svg" xmlns:xlink="http://www.w3.org/1999/xlink">
<path d="M0.99,0.194L0.956,0.201L0.898,0.19L0.8,0.105L0.878,0.074L1.008,0.143L0.99,0.194Z" fill="#CCAA5A" stroke="#DCDCDC" stroke-width="0.5" stroke-miterlimit="3.999327"/>
</svg>
