<svg width="4" height="4" viewBox="0 0 4 4" fill="none" xmlns="http://www.w3.org/2000/svg" xmlns:xlink="http://www.w3.org/1999/xlink">
<path d="M1.843,1.829L1.699,1.913L1.443,1.586L1.032,1.497L0.676,1.305L0.668,1.263L0.674,1.167L0.744,1.054L0.926,0.969L1.379,1.232L1.591,1.562L1.789,1.713L1.843,1.829ZM2.397,2.458L2.115,2.57L1.875,2.418L1.929,2.049L2.157,2.038L2.385,2.201L2.397,2.458Z" fill="#F7B329" stroke="#DCDCDC" stroke-width="0.5" stroke-miterlimit="3.999327"/>
</svg>
