<svg width="2" height="8" viewBox="0 0 2 8" fill="none" xmlns="http://www.w3.org/2000/svg" xmlns:xlink="http://www.w3.org/1999/xlink">
<path d="M1.498,1.355L1.4,1.402L1.308,1.384L1.276,1.324L1.322,1.237L1.398,1.122L1.45,0.999L1.526,0.934L1.584,0.955L1.578,1.024L1.55,1.119L1.532,1.242L1.498,1.355ZM0.96,6.088L0.84,6.097L0.766,6.01L0.782,5.885L0.876,5.796L1.022,5.79L1.106,5.868L1.064,5.99L0.96,6.088Z" fill="#F7B329" stroke="#DCDCDC" stroke-width="0.5" stroke-miterlimit="3.999327"/>
</svg>
