<svg width="2" height="2" viewBox="0 0 2 2" fill="none" xmlns="http://www.w3.org/2000/svg" xmlns:xlink="http://www.w3.org/1999/xlink">
<path d="M0.001,0.893L-0.561,1.187L-0.811,0.838L-0.589,0.396L-0.325,0.281L-0.169,0.267L0.059,0.677L0.001,0.893Z" fill="#A1A28A" stroke="#DCDCDC" stroke-width="0.5" stroke-miterlimit="3.999327"/>
</svg>
