<svg width="102" height="130" viewBox="0 0 102 130" fill="none" xmlns="http://www.w3.org/2000/svg" xmlns:xlink="http://www.w3.org/1999/xlink">
<path d="M100.25,61.423L100.048,61.607L99.704,61.598L99.102,62.315L99.14,61.779L98.96,61.57L98.445,61.62L98.347,61.738L98.693,61.879L98.768,61.957L98.439,62.268L98.783,62.934L99.082,62.91L99.374,63.431L99.372,63.595L98.705,63.796L98.353,64.078L98.039,64.067L97.891,64.012L97.715,63.509L97.701,63.299L98.087,62.93L98.305,62.555L98.129,62.21L97.683,61.986L96.712,62.088L96.488,62.013L96.974,61.549L97.501,61.6L98.069,61.265L100.25,61.423ZM100.256,65.53L100.008,65.592L100.044,65.187L99.96,64.926L100.379,64.84L100.559,65.151L100.256,65.53ZM41.057,3.512L41.141,3.795L41.451,3.593L41.683,3.276L42.057,2.952L42.007,3.473L42.199,3.588L43.438,3.951L43.694,4.254L43.957,4.341L44.105,4.171L44.281,4.078L44.729,4.269L45.74,4.799L45.824,4.982L45.772,5.254L45.822,5.543L45.96,5.774L46.296,5.826L46.744,5.485L46.953,5.443L47.249,5.928L47.361,6.202L47.315,6.193L47.509,6.465L47.765,6.734L48.207,7.531L48.141,7.811L48.011,8.063L48.416,8.802L48.151,8.853L47.353,8.728L47.379,8.876L47.845,9.419L48.236,10.187L48.55,10.65L49.657,12.09L49.492,12.602L49.518,12.941L49.376,13.234L49.753,14L49.518,14.238L49.362,15.024L49.19,15.162L49.212,15.449L49.66,15.525L49.929,15.647L50.161,15.881L50.305,15.599L50.501,15.523L51.035,15.899L52.146,16.275L52.452,16.415L52.602,16.718L52.715,17.451L52.931,17.774L53.357,17.836L53.815,17.738L53.959,17.471L53.867,16.752L53.537,15.605L53.535,15.233L53.581,14.859L53.505,14.488L53.339,14.14L53.161,13.873L52.933,13.648L53.013,13.297L53.355,13.139L53.563,13.435L53.733,13.793L54.594,14.853L55.104,14.779L55.15,15.218L55.496,15.665L55.687,16.189L55.939,17.76L56.325,19.243L57.025,19.89L57.107,20.2L56.681,20.04L56.551,20.133L56.595,20.289L56.989,20.574L57.452,20.714L57.744,20.694L58.018,20.797L59.831,21.767L60.702,22.144L62.901,22.763L63.528,22.812L63.876,22.796L64.534,22.582L65.123,22.197L65.633,21.621L66.072,20.966L66.55,20.648L67.092,20.398L67.366,20.165L67.653,20L69.126,20.076L69.624,20.407L70.27,20.672L70.607,20.879L70.494,21.3L70.108,21.921L69.812,22.602L69.548,24.152L69.37,25.725L69.102,26.42L68.615,26.956L68.075,27.348L67.466,27.533L67.218,28.432L67.096,29.486L67.132,29.751L67.328,29.962L67.408,30.276L67.088,30.912L66.902,30.819L66.638,30.289L66.4,30.067L65.669,29.902L64.923,29.826L64.278,29.873L63.654,30.1L62.713,30.559L62.421,30.792L62.165,31.088L61.733,31.749L61.63,32.558L61.649,32.983L61.803,33.312L62.605,33.76L61.809,35.329L61.104,36.966L60.704,37.435L60.244,37.869L59.811,38.858L59.053,39.711L58.542,40.365L58.142,41.044L57.792,41.767L57.047,42.789L56.717,43.466L56.285,44.031L55.482,44.751L54.626,45.37L53.279,46.227L52.903,46.511L52.508,46.719L52.016,46.474L51.918,46.207L51.8,45.621L51.692,45.407L51.067,45.229L50.237,45.512L50.099,45.452L50.063,45.318L50.063,44.466L50.203,44.227L50.009,44.094L49.817,44.147L49.752,44.365L49.873,44.553L49.402,44.788L48.91,44.793L48.762,44.701L48.72,44.544L48.84,44.287L48.998,44.06L49.911,42.988L50.861,41.571L51.678,40.056L51.89,39.279L52.19,37.841L51.944,37.242L51.64,36.681L50.819,35.603L49.722,34.995L49.012,34.909L48.34,34.682L47.709,34.169L47.133,33.564L45.992,33.068L44.789,32.68L44.103,32.132L43.939,31.807L43.831,31.429L43.847,31.079L43.933,30.723L44.069,30.45L44.283,30.252L45.556,29.546L46.905,29.154L47.153,29.161L47.391,29.098L47.729,28.858L48.332,28.31L48.508,27.941L48.628,26.772L48.822,25.625L49.172,24.312L49.7,23.501L49.871,23.003L49.657,22.184L49.855,21.885L50.095,21.703L50.367,21.598L49.907,20.832L49.366,19.675L49.252,19.318L49.334,18.964L49.466,18.617L49.128,18.53L48.932,18.197L48.446,17.081L48.578,16.903L48.86,17.023L49.278,17.827L49.346,17.413L49.666,17.157L50.005,17.025L50.369,16.995L49.546,16.099L49.27,16.135L48.906,16.278L48.532,16.366L48.167,16.288L47.825,16.09L47.649,15.712L47.435,14.988L47.301,14.721L46.218,13.245L46.536,13.197L47.411,13.936L47.581,13.7L47.707,13.361L47.665,12.983L47.457,12.696L47.147,12.511L47.141,12.175L47.377,11.868L47.363,11.654L46.861,11.217L46.662,11.169L46.572,11.373L46.715,11.676L46.582,11.711L45.364,10.915L44.989,10.276L44.681,9.575L44.649,9.86L44.695,10.262L45.177,11.066L45.958,11.967L46.092,12.206L45.976,12.517L45.704,12.606L45.464,12.409L45.107,11.638L44.849,11.253L41.861,7.288L42.243,6.767L42.834,6.327L42.97,6.133L43.06,5.895L42.81,5.855L42.586,5.964L42.33,6.166L42.097,6.395L41.801,6.905L41.661,7.023L41.311,6.669L41.177,6.451L41.183,6.189L41.089,6.024L40.829,5.972L40.448,5.452L40.206,5.187L40.61,4.681L40.62,4.014L40.208,3.317L39.716,2.676L38.769,1.643L37.899,0.552L38.841,0.414L39.796,0.391L39.346,1.044L39.55,1.422L39.854,1.741L40.51,2.722L40.566,3.005L40.897,3.292L41.057,3.512ZM53.809,11.901L53.853,12.244L53.423,12.123L53.255,11.863L52.773,11.594L52.704,11.514L52.649,10.993L52.903,10.741L52.945,10.634L53.057,10.592L53.255,10.866L53.637,11.257L53.809,11.901ZM40.192,44.472L40.837,44.504L41.439,44.011L42.055,43.609L42.7,43.277L43.684,42.516L43.941,42.404L44.579,42.259L44.857,42.079L45.167,42.037L44.887,42.487L44.535,42.638L44.479,42.8L44.677,43.061L44.371,43.426L44.383,43.882L44.019,44.421L44.575,44.199L44.781,43.849L44.675,43.651L44.915,43.259L45.288,43.072L45.141,42.776L45.151,42.542L45.608,42.629L45.834,42.62L46.014,42.527L46.344,42.491L46.41,42.752L46.853,42.72L46.692,43.05L46.354,43.433L46.274,43.666L45.732,44.052L45.37,44.218L45.928,44.259L46.744,43.742L47.227,43.286L47.213,43.856L46.819,44.368L46.484,44.691L46.104,44.793L45.726,45.056L45.542,45.487L45.564,45.773L45.672,46L46.058,46.384L45.624,47.124L46.108,47.032L46.372,47.171L46.744,47.598L46.52,48.092L46.364,48.344L45.42,49.388L45.009,49.918L44.527,50.258L44.533,50.815L44.257,51.222L42.85,52.618L42.604,52.921L41.495,55.153L40.787,56.093L40.382,56.414L39.952,56.674L38.923,57.119L38.467,57.631L37.965,58.056L37.436,58.152L37.452,58.341L37.792,58.446L38.057,58.726L37.86,59.04L37.482,59.236L37.09,59.292L36.89,59.493L37.825,59.35L38.089,59.513L38.137,59.86L38.237,60.173L38.463,60.586L39.251,60.851L39.958,60.975L40.096,61.167L40.202,61.83L40.074,62.155L39.916,62.369L39.678,62.445L39.103,62.487L38.525,62.337L38.143,61.935L37.05,62.064L36.758,62.15L36.608,62.077L37.214,61.656L36.898,61.416L36.634,61.327L36.348,61.467L36.157,61.688L36.101,62.052L35.903,62.262L35.603,62.322L35.177,62.019L34.756,61.587L34.136,61.151L34.232,61.42L34.708,62.079L34.945,62.516L34.392,62.867L33.812,63.139L33.324,63.299L32.865,63.549L32.323,63.94L32.025,64.078L31.234,64.087L30.81,64.21L30.67,64.726L30.375,65.054L29.679,65.12L29.931,65.223L30.085,65.389L29.625,66.946L29.525,67.594L29.439,68.705L29.149,69.74L28.324,69.735L28.456,69.918L29.081,70.211L28.964,70.652L28.276,71.46L27.988,71.926L27.708,73.063L27.289,74.114L26.647,75.312L26.641,75.528L26.867,75.835L27.141,76.1L27.157,76.474L27.073,76.672L26.767,76.723L26.499,76.852L25.068,77.182L24.6,77.553L24.215,78.217L23.763,78.791L22.26,80.065L21.377,81.136L21.199,81.443L20.961,81.667L19.028,82.175L17.661,82.251L16.917,82.12L16.2,81.863L15.802,81.776L15.043,81.933L14.711,82.106L14.115,81.935L13.644,82.064L13.504,81.939L13.328,81.625L13.426,81.207L13.296,80.899L12.996,80.69L12.794,80.447L12.564,80.274L11.937,80.207L10.946,80.316L10.618,80.305L9.944,79.283L9.722,79.032L8.921,78.707L8.647,78.753L8.217,79.297L7.964,79.39L6.456,79.448L4.946,79.272L4.39,79.069L4.28,78.598L5.427,77.308L5.087,77.48L4.38,78.005L3.928,77.925L4.362,77.353L4.4,77.097L4.31,76.814L3.72,77.295L3.049,77.358L2.963,76.912L3.023,76.394L3.159,76.247L4.972,75.977L5.625,75.801L5.911,75.523L4.826,75.428L4.758,75.04L4.914,74.729L5.841,74.214L5.157,74.345L4.4,74.299L4.45,73.754L4.648,73.33L5.441,73.317L5.193,73.025L5.155,72.618L5.375,72.591L6.181,73.139L6.762,73.339L6.517,72.927L6.55,72.667L6.704,72.551L7.18,72.469L7.048,72.396L6.602,72.291L6.071,71.979L6.015,71.648L6.035,71.267L6.606,70.742L6.944,71.055L7.344,70.969L7.038,70.724L6.852,70.358L6.978,70.116L8.191,69.145L8.501,70.08L8.573,69.769L8.591,69.475L8.445,69.219L8.467,68.962L8.607,68.74L9.127,68.52L9.802,67.809L10.302,67.478L10.708,67.691L10.985,67.976L10.943,67.692L10.746,67.458L10.692,66.806L11.599,65.797L12.596,64.838L13.554,63.836L14.063,63.473L15.149,63.061L15.844,63.233L16.022,63.201L17.053,62.482L17.481,62.295L17.871,62.551L18.111,62.643L17.869,61.986L18.059,61.685L18.92,61.155L19.999,60.608L20.819,60.381L21.423,60.011L21.786,60.002L21.732,59.722L21.794,59.455L22.106,59.474L22.202,59.368L21.926,59.223L22.816,58.689L23.299,58.099L23.551,57.977L23.781,57.8L24.065,57.393L24.401,57.259L24.712,57.322L24.938,57.522L24.814,57.19L24.415,57.001L24.844,56.714L25.29,56.514L25.724,56.658L26.149,56.89L25.724,56.534L25.654,56.315L26.171,56.06L26.451,55.982L26.843,56.458L26.787,56.08L26.879,55.746L27.432,55.2L28.158,54.299L28.39,54.613L28.428,54.993L28.392,55.452L28.542,55.294L28.592,54.878L28.48,54.147L29.387,52.798L29.567,52.647L29.767,52.556L30.083,52.52L29.985,52.317L29.739,52.121L29.987,51.438L30.135,50.659L30.345,49.911L30.682,49.181L31.052,47.965L31.334,47.711L32.095,47.623L32.429,47.453L32.985,47.015L33.642,46.224L33.994,45.587L34.456,43.943L34.716,42.231L35.463,40.966L36.56,40.053L37.526,39.359L37.921,39.214L38.589,39.17L39.225,39.361L38.041,39.528L37.919,39.94L37.881,40.358L38.017,40.732L38.229,41.066L38.803,41.38L39.474,41.567L39.774,42.275L39.828,43.116L39.92,43.838L40.192,44.472ZM44.675,41.674L43.923,42.064L43.955,41.794L44.101,41.204L44.443,40.906L44.611,40.886L44.955,40.663L44.917,41.157L44.675,41.674ZM5.773,71.665L6.015,72.531L5.501,72.366L5.287,72.102L5.679,71.668L5.773,71.665ZM4.466,75.111L4.436,75.468L4.37,75.648L4.174,75.65L3.882,75.61L3.596,75.445L3.413,75.492L3.261,75.432L3.459,75.029L4.124,74.815L4.38,74.987L4.466,75.111ZM12.311,83.972L12.315,84.268L11.729,84.163L11.741,84.495L12.203,84.671L12.373,84.911L12.852,84.842L12.96,85.2L12.848,85.521L12.528,85.755L11.581,85.873L10.966,86.34L10.434,86.269L10.29,86.311L9.68,86.812L8.999,86.966L8.813,86.928L8.907,86.481L9.415,86.058L9.425,85.652L9.554,85.327L10.04,85.098L10.048,84.677L10.376,84.301L10.176,83.493L10.282,82.769L11.245,82.729L12.311,83.972ZM1.52,114.076L1.642,114.753L1.334,114.755L0.692,114.566L0.491,114.277L0.355,114.206L0.121,114.542L-0.255,114.559L-0.339,114.446L-0.191,114.088L0.694,113.413L0.86,112.565L0.848,112.293L1.544,112.229L1.708,112.333L1.782,112.449L1.738,112.598L1.456,112.877L1.446,113.201L1.518,113.538L1.288,113.702L1.408,113.992L1.52,114.076ZM18.107,128.288L18.416,128.712L17.821,128.898L17.531,128.743L17.327,128.549L17.225,128.275L17.547,128.304L17.825,128.19L18.107,128.288Z" fill="#A1A28A" stroke="#DCDCDC" stroke-width="0.5" stroke-miterlimit="3.999327"/>
</svg>
