<svg width="48" height="48" viewBox="0 0 48 48" fill="none" xmlns="http://www.w3.org/2000/svg" xmlns:xlink="http://www.w3.org/1999/xlink">
<path d="M20.379,11.612C20.561,11.271 20.834,10.987 21.167,10.791C21.5,10.594 21.881,10.494 22.267,10.5L26.467,10.564C26.853,10.571 27.229,10.683 27.555,10.889C27.881,11.095 28.144,11.387 28.315,11.732L29.995,15.108L32.963,14.856C33.344,14.824 33.726,14.896 34.068,15.064C34.411,15.233 34.701,15.491 34.907,15.812L37.027,19.1C37.255,19.454 37.371,19.869 37.361,20.29C37.35,20.71 37.213,21.118 36.967,21.46L35.407,23.644L37.067,25.836C37.583,26.516 37.635,27.444 37.195,28.18L35.195,31.532C34.998,31.863 34.714,32.132 34.374,32.312C34.034,32.492 33.651,32.575 33.267,32.552L30.127,32.36L28.195,36.316C28.022,36.669 27.754,36.967 27.42,37.175C27.086,37.383 26.701,37.493 26.307,37.492L21.979,37.492C21.587,37.492 21.202,37.382 20.869,37.174C20.536,36.966 20.268,36.669 20.095,36.316L18.279,32.6L14.919,32.904C14.532,32.939 14.142,32.866 13.794,32.692C13.446,32.518 13.153,32.251 12.947,31.92L10.824,28.5C10.598,28.137 10.489,27.714 10.51,27.288C10.532,26.861 10.683,26.451 10.944,26.112L12.863,23.612L11.32,21.456C11.075,21.114 10.938,20.706 10.929,20.285C10.919,19.864 11.035,19.45 11.264,19.096L13.383,15.808C13.59,15.488 13.879,15.23 14.221,15.061C14.563,14.893 14.944,14.821 15.323,14.852L18.511,15.124L20.379,11.612ZM22.771,13.508L20.883,17.06C20.691,17.424 20.395,17.722 20.034,17.919C19.673,18.116 19.261,18.203 18.851,18.168L15.611,17.892L14.115,20.212L15.691,22.412C15.954,22.778 16.091,23.219 16.084,23.669C16.077,24.119 15.925,24.555 15.651,24.912L13.699,27.448L15.203,29.872L18.627,29.56C19.052,29.521 19.478,29.612 19.849,29.82C20.221,30.029 20.52,30.346 20.707,30.728L22.543,34.492L25.743,34.492L27.695,30.504C27.878,30.132 28.166,29.822 28.524,29.614C28.882,29.405 29.294,29.307 29.707,29.332L32.899,29.524L34.307,27.164L32.611,24.924C32.342,24.567 32.193,24.133 32.187,23.686C32.182,23.238 32.319,22.8 32.579,22.436L34.175,20.212L32.679,17.892L29.639,18.148C29.219,18.184 28.798,18.093 28.431,17.886C28.063,17.679 27.767,17.366 27.579,16.988L25.871,13.556L22.771,13.508Z" clip-rule="evenodd" fill-rule="evenodd" fill="#7D8198"/>
<path d="M41.124,29.6C39.911,33.346 37.503,36.591 34.269,38.837C31.035,41.083 27.154,42.207 23.22,42.036C19.286,41.865 15.517,40.41 12.49,37.892C9.463,35.374 7.345,31.933 6.46,28.096L9.864,27.424L3.384,20.72L-0.008,29.388L3.58,28.684C4.582,33.188 7.038,37.237 10.571,40.205C14.104,43.173 18.515,44.895 23.125,45.105C27.734,45.315 32.284,44.001 36.071,41.366C39.859,38.731 42.674,34.922 44.08,30.528L41.124,29.6ZM44.468,19.44C43.466,14.936 41.009,10.888 37.476,7.92C33.943,4.953 29.531,3.231 24.922,3.022C20.313,2.812 15.763,4.127 11.976,6.762C8.189,9.397 5.374,13.206 3.968,17.6L6.82,18.528C8.033,14.782 10.441,11.537 13.675,9.291C16.908,7.044 20.789,5.92 24.723,6.09C28.657,6.261 32.426,7.716 35.453,10.233C38.481,12.751 40.599,16.191 41.484,20.028L38.08,20.704L44.56,27.392L47.992,18.736L44.468,19.44Z" fill="#7D8198"/>
<path d="M24,22.5C23.602,22.5 23.221,22.658 22.939,22.939C22.658,23.221 22.5,23.602 22.5,24C22.5,24.398 22.658,24.779 22.939,25.061C23.221,25.342 23.602,25.5 24,25.5C24.398,25.5 24.779,25.342 25.061,25.061C25.342,24.779 25.5,24.398 25.5,24C25.5,23.602 25.342,23.221 25.061,22.939C24.779,22.658 24.398,22.5 24,22.5ZM19.5,24C19.5,22.807 19.974,21.662 20.818,20.818C21.662,19.974 22.807,19.5 24,19.5C25.193,19.5 26.338,19.974 27.182,20.818C28.026,21.662 28.5,22.807 28.5,24C28.5,25.193 28.026,26.338 27.182,27.182C26.338,28.026 25.193,28.5 24,28.5C22.807,28.5 21.662,28.026 20.818,27.182C19.974,26.338 19.5,25.193 19.5,24Z" clip-rule="evenodd" fill-rule="evenodd" fill="#7D8198"/>
</svg>
