<svg width="54" height="84" viewBox="0 0 54 84" fill="none" xmlns="http://www.w3.org/2000/svg" xmlns:xlink="http://www.w3.org/1999/xlink">
<path d="M26.791,0.854L26.519,1.295L26.301,1.291L26.333,1.044L26.623,0.532L26.731,0.543L26.791,0.854ZM27.251,3.105L27.147,3.17L26.993,3.139L27.145,2.629L27.427,2.489L27.65,2.544L27.251,3.105ZM24.786,8.511L24.844,8.998L24.512,8.987L24.013,8.691L23.967,8.541L23.975,8.415L24.063,8.308L24.786,8.511ZM23.279,10.009L23.247,10.371L22.963,10.18L22.902,9.909L22.93,9.708L23.059,9.468L23.237,9.686L23.279,10.009ZM27.035,11.015L26.679,11.4L26.493,11.293L26.693,10.919L26.687,10.788L26.851,10.496L27.155,10.394L27.405,10.683L27.035,11.015ZM22.434,12.509L23.293,12.787L25.192,13.786L25.886,14.033L26.609,14.218L27.179,14.272L27.69,14.043L27.904,13.811L28.296,13.197L28.714,13.121L28.961,13.344L29.155,13.644L29.241,14.083L29.121,14.543L28.724,14.955L28.48,15.449L28.32,17.086L28.328,17.576L28.456,18.048L28.802,18.796L28.981,19.007L29.505,19.274L29.647,19.475L29.677,19.839L29.759,20.158L30.099,20.28L30.387,20.44L30.279,20.794L30.099,21.153L29.863,22.039L28.74,24.087L28.676,24.528L28.232,25.407L27.331,25.548L26.289,25.973L25.71,26.304L25.204,26.732L25.012,27.293L25.176,27.549L25.282,27.823L25.27,28.119L25.114,28.364L24.612,28.962L24.401,29.45L24.177,29.67L24.067,29.935L24.105,30.238L24.307,30.503L24.918,31.641L25.574,32.74L25.714,32.867L25.768,33.014L25.382,33.304L25.39,33.831L25.506,34.354L26.085,35.646L26.167,35.991L26.359,36.275L26.655,36.54L26.981,36.763L27.924,37.144L28.288,37.22L28.666,37.233L28.76,36.975L29.089,36.888L29.017,36.636L28.614,36.285L28.598,36.097L28.81,35.955L29.061,35.873L29.629,35.492L30.231,35.187L30.996,35.212L31.746,35.383L32.279,35.561L32.719,35.888L33.171,36.454L33.486,37.081L33.484,37.378L33.408,37.678L33.424,37.974L33.66,38.175L34.386,38.19L34.756,37.725L34.802,37.202L34.542,37.001L34.662,36.743L34.884,36.551L35.205,36.723L35.511,37.048L36.636,37.402L36.924,37.409L37.158,37.476L37.662,37.722L37.897,37.918L37.608,38.324L36.49,38.415L36.167,38.72L36.496,39.332L37.032,39.835L37.376,40.241L37.68,40.679L37.666,41.084L37.488,41.505L37.979,41.472L38.441,41.561L39.081,41.914L39.28,41.95L39.492,41.894L39.462,43.165L39.027,44.328L38.477,44.183L38.007,43.691L38.103,43.092L38.403,42.513L38.231,42.391L37.929,42.438L37.584,42.569L37.21,42.614L36.596,42.538L35.337,41.908L34.825,41.85L34.71,41.565L34.738,40.96L34.236,40.241L34.156,39.984L33.996,39.782L32.499,39L32.315,38.867L31.856,38.243L30.812,37.353L30.52,37.262L30.203,37.237L30.099,37.462L30.243,37.809L30.301,38.106L30.279,38.419L30.321,38.66L30.814,39.154L30.888,39.386L31.218,40.02L31.258,40.761L30.836,41.068L30.363,40.726L30.347,40.447L30.265,40.187L29.755,39.513L29.583,39.368L28.624,38.704L27.88,37.974L26.227,37.195L26.029,37.153L25.742,37.211L25.472,37.308L24.672,37.693L24.391,37.959L24.365,38.371L23.791,38.698L23.002,38.744L22.396,38.539L21.894,38.128L21.48,38.108L20.967,37.467L20.341,37.386L19.824,37.887L19.714,36.892L19.71,35.886L19.854,35.592L20.111,35.347L21.421,34.29L21.586,33.951L21.53,33.497L21.233,33.126L20.763,32.901L20.221,32.807L19.832,32.6L19.526,32.259L19.318,32.863L19.52,33.76L19.554,34.343L19.368,34.563L19.032,34.568L18.712,34.499L18.474,34.29L18.301,33.687L17.843,33.29L17.657,32.72L17.449,32.638L17.023,32.682L16.71,32.417L16.502,31.75L16.458,31.035L16.28,30.432L16.024,29.849L15.874,29.374L15.644,27.235L15.588,27.039L15.465,26.877L15.175,26.634L14.957,26.336L14.915,26.091L14.975,25.036L15.075,24.782L15.301,24.661L15.61,24.868L15.858,25.124L16.166,25.247L16.438,25.409L16.945,26.033L17.145,26.131L17.771,26.111L18.141,26.033L18.319,25.806L18.433,25.536L18.434,25.216L18.073,24.272L17.963,23.591L17.957,22.978L18.051,22.362L18.544,21.338L18.606,20.627L18.56,19.673L18.646,19.105L18.632,18.778L18.339,18.265L18.261,17.716L19.084,14.926L19.342,14.385L19.53,13.826L19.616,13.083L20.231,12.88L20.817,12.573L21.119,12.596L21.441,12.671L22.148,12.518L22.434,12.509ZM27.664,31.612L27.766,31.796L27.652,31.787L27.572,31.821L27.309,32.199L27.596,32.898L27.418,33.406L27.099,33.439L26.973,33.384L27.039,33.132L27.107,33.018L27.043,32.685L26.853,32.476L26.701,32.072L26.467,31.828L26.577,31.438L27.317,31.394L27.664,31.612ZM28.458,36.614L28.44,36.827L27.231,36.053L27.175,35.921L27.173,35.797L27.247,35.674L28.458,36.614ZM40.676,38.785L40.528,39.123L40.344,39.003L40.084,39.023L39.676,39.31L39.013,38.925L38.911,38.624L39.384,37.961L39.381,36.975L39.554,36.732L39.736,36.558L39.952,36.463L40.42,37.144L40.58,37.228L41.031,37.54L40.913,38.17L40.955,38.539L40.676,38.785ZM17.777,38.168L17.785,38.52L16.84,38.001L16.812,37.821L16.836,37.687L16.934,37.607L17.441,37.801L17.777,38.168ZM26.997,39.265L27.345,39.279L27.452,39.23L28.118,39.666L28.078,39.888L28.162,40.178L27.782,40.679L27.714,40.848L27.504,41.011L26.783,40.612L26.519,40.369L26.441,39.871L26.729,39.132L26.997,39.265ZM20.207,39.581L20.493,39.624L21.391,39.468L21.758,39.546L22.004,39.846L22.31,39.938L22.552,40.091L23.003,39.826L23.461,40.129L23.867,40.695L24.345,41.097L24.798,41.394L24.886,41.614L24.612,41.975L24.528,42.431L24.556,42.923L24.898,43.956L24.778,44.236L24.435,44.631L24.177,45.071L24.211,45.249L24.109,45.394L24.077,45.704L23.867,45.639L23.673,45.688L23.485,45.828L23.193,46.127L22.736,46.037L22.522,45.948L22.47,45.688L22.334,45.505L22.138,45.396L21.656,44.947L21.431,44.61L21.427,44.25L21.301,43.914L21.051,43.615L20.721,43.384L20.611,43.163L20.569,42.901L20.539,42.231L20.073,41.396L19.91,41.196L19.472,40.99L19.106,40.723L18.952,40.458L18.81,40.029L18.712,39.967L18.429,39.987L18.153,39.931L18.233,39.617L18.506,39.388L18.882,39.359L19.922,39.488L20.207,39.581ZM34.664,42.836L35.141,43.629L34.62,43.088L34.014,42.72L33.386,42.11L32.933,41.895L32.795,41.772L32.843,41.52L33.177,41.472L33.325,41.487L34.238,42.567L34.664,42.836ZM37.434,44.909L37.454,45.363L37.244,45.196L36.566,44.305L36.379,43.98L36.57,43.764L37.06,44.096L37.434,44.909ZM28.002,45.423L27.55,46.714L27.251,46.269L27.373,45.989L27.113,45.757L27.045,45.545L27.145,45.265L27.417,45.005L27.484,44.159L28.058,43.889L28.288,43.878L28.206,44.085L28.214,44.475L28.002,45.423ZM29.217,44.521L29.043,44.679L28.937,44.653L28.865,44.374L29.033,44.187L29.087,44.205L29.217,44.521ZM37.102,45.773L38.177,46.385L38.919,47.433L39.005,48.235L38.949,48.54L38.595,48.197L37.837,47.707L37.312,47.598L37.15,47.509L37.21,47.244L36.866,46.999L36.826,46.899L36.514,46.79L36.059,46.24L35.737,46.137L35.431,46.253L34.724,47.07L33.966,47.643L33.956,47.424L34.262,46.707L34.458,45.559L34.582,45.211L34.428,44.695L34.408,44.236L34.973,44.448L35.681,44.662L36.221,44.955L36.308,45.151L37.102,45.773ZM45.646,44.526L46.042,44.949L46.14,45.254L46.098,45.594L46.278,45.744L46.596,45.784L47.001,45.955L47.305,46.269L47.123,46.556L47.179,46.975L46.861,47.504L46.903,48.44L47.087,48.74L47.105,49.041L47.059,49.357L47.137,49.617L47.627,50.474L47.717,50.759L47.567,50.984L47.519,51.198L47.821,51.22L48.251,51.576L48.504,52.046L48.428,52.17L48.085,51.801L47.825,51.743L46.723,51.843L46.048,51.69L45.61,51.676L45.173,51.046L44.793,50.94L44.493,50.663L43.993,49.949L43.836,49.541L44.183,49.127L44.293,48.796L44.273,48.473L43.941,48.526L43.652,48.419L43.298,48.021L43.156,47.792L42.898,47.602L42.488,47.148L41.899,46.97L41.659,46.846L41.193,46.465L40.851,45.993L40.52,45.165L40.346,44.306L41.867,44.53L43.406,44.486L45.145,44.29L45.646,44.526ZM31.146,45.661L30.858,45.783L30.275,45.274L29.935,45.036L29.847,44.904L30.121,44.713L30.86,44.715L31.252,45.064L31.306,45.281L31.146,45.661ZM16.818,46.393L17.123,46.471L17.341,46.394L17.535,46.12L17.717,46.525L18.173,46.857L18.021,47.195L17.623,47.233L17.233,47.157L16.82,47.291L16.318,47.215L16.018,46.899L15.676,46.331L15.507,46.226L15.528,45.993L15.654,45.846L15.588,45.808L15.62,45.704L15.682,45.634L15.792,45.605L16.06,45.857L16.696,46.233L16.818,46.393ZM16.474,48.796L16.054,48.972L15.946,48.862L15.872,48.606L15.878,48.43L15.477,47.5L15.784,47.358L16.012,47.467L16.242,47.614L16.456,47.691L16.652,47.985L16.606,48.188L16.666,48.384L16.474,48.796ZM30.257,49.252L30.91,49.515L31.546,49.288L32.173,49.352L32.695,49.695L32.525,49.913L32.489,50.151L33.656,49.633L33.968,49.664L33.958,50.145L33.888,50.554L33.752,50.95L33.504,51.412L33.173,51.828L32.737,52.13L32.219,52.313L31.973,52.48L31.899,52.732L31.909,53.048L31.79,53.337L31.248,53.455L30.4,54.016L28.58,54.372L28.08,54.617L27.762,54.933L27.407,55.22L27.213,55.29L27.125,55.154L27.099,55.038L27.359,54.292L27.317,53.981L27.191,53.68L27.271,53.09L27.586,52.536L27.754,51.926L27.804,50.75L28.05,49.11L28.036,48.914L27.844,48.693L27.137,48.513L26.857,48.344L26.997,48.016L27.265,47.792L27.632,47.801L27.956,48.01L29.099,48.44L29.707,48.802L30.257,49.252ZM43.486,49.357L43.382,49.622L43.218,49.548L43.076,49.428L42.866,49.027L42.794,48.733L43.118,48.898L43.304,49.19L43.486,49.357ZM42.105,49.887L41.403,49.92L41.097,49.684L40.716,48.991L41.147,48.84L41.559,48.88L41.861,49.125L42.183,49.59L42.105,49.887ZM41.915,50.657L42.304,50.839L42.754,50.766L43.298,50.356L43.909,50.505L44.267,51.109L44.451,51.336L44.551,51.73L44.525,52.676L44.377,53.533L44.493,53.709L44.775,53.863L45.019,54.052L45.224,54.296L45.356,54.566L45.408,55.223L45.762,55.777L45.808,55.993L45.724,56.22L45.135,56.176L45.089,56.367L45.103,56.603L44.895,56.454L44.549,55.913L44.233,55.686L44.331,56.563L44.435,56.983L44.453,57.406L43.907,57.082L43.256,56.883L43.076,56.71L43.136,56.162L43.124,55.89L42.832,55.312L43.174,54.063L43.166,53.807L43.108,53.551L42.838,53.045L42.41,52.62L42.149,52.62L41.515,52.918L41.193,52.82L41.003,51.649L40.748,50.512L40.55,50.221L40.424,49.916L40.55,49.664L40.793,49.768L41.141,50.067L41.561,50.24L41.771,50.39L41.915,50.657ZM15.478,49.715L15.6,49.987L15.442,50.398L15.309,50.487L15.129,50.316L14.745,50.196L14.719,49.975L14.921,49.98L15.289,49.764L15.478,49.715ZM1.174,65.579L0.654,65.949L0.71,65.492L0.862,65.062L1.39,64.178L1.772,63.905L2.399,63.21L2.755,62.872L3.606,62.206L4.39,61.476L4.654,61.422L4.944,61.411L5.171,61.327L5.683,60.933L6.968,59.619L8.032,58.638L9.121,57.398L9.64,57.037L9.778,56.904L10.782,55.761L11.095,55.594L11.451,55.474L11.691,55.32L11.903,55.125L12.257,54.628L12.401,54.045L12.311,53.716L12.111,53.232L12.361,52.569L12.558,52.264L13.258,50.917L13.46,50.645L13.752,50.815L13.792,51.057L13.648,51.625L13.636,51.91L13.802,52.199L13.602,52.676L14.103,53.943L14.487,54.744L14.501,55.009L13.985,55.488L13.68,55.634L13.018,55.763L12.72,55.902L12.247,56.291L11.951,56.803L11.877,57.068L11.725,57.271L10.362,57.618L9.722,57.845L9.431,58.016L9.277,58.293L9.385,58.784L8.239,60.55L7.874,61.011L7.484,61.405L7.004,61.685L6.331,61.855L5.795,62.197L5.431,62.801L4.984,63.346L4.418,63.751L3.806,64.107L3.247,64.366L2.641,64.55L2.459,64.788L2.331,65.082L2.064,65.22L1.746,65.298L1.174,65.579ZM37.33,50.966L37.658,51.65L37.214,51.647L37.052,51.149L37.242,50.988L37.33,50.966ZM35.161,60.403L34.946,60.539L34.858,60.2L34.92,59.742L35.349,58.145L35.251,57.745L35.969,56.854L36.41,56.018L37.076,55.14L37.16,54.684L37.75,53.814L38.299,52.614L38.269,52.217L38.411,52.019L38.491,51.717L38.507,51.462L38.911,51.015L39.017,51.305L38.897,51.875L38.917,52.15L38.987,52.278L38.991,52.809L38.847,53.622L38.979,54.561L38.719,55.516L38.423,55.944L37.985,56.247L37.508,56.436L37.012,56.912L36.692,57.467L36.64,57.974L35.853,59.68L35.161,60.403ZM33.818,62.38L33.447,62.435L33.055,62.406L32.791,62.153L32.335,61.067L31.806,60.802L31.2,60.603L30.896,60.434L30.628,60.231L29.777,59.147L29.713,58.484L29.859,58.108L30.117,57.772L30.409,57.682L31.11,57.669L31.474,57.625L32.273,57.128L32.329,56.932L32.335,56.113L32.255,55.541L32.055,54.982L32.271,54.726L32.555,54.473L32.849,53.98L32.905,53.633L32.911,53.27L32.987,53.01L33.217,52.879L34.324,52.484L34.52,52.456L35.945,52.823L36.237,53.375L36.265,53.557L36.043,54.168L35.845,54.579L35.365,55.214L35.007,55.9L34.742,56.933L34.574,57.269L34.126,57.916L33.99,58.27L33.994,59.038L33.918,59.321L33.922,59.593L34.809,60.873L34.885,61.075L34.877,61.304L34.726,61.589L34.362,62.081L34.158,62.253L33.818,62.38ZM31.118,55.145L30.962,55.216L30.824,55.207L30.494,55.392L30.373,55.045L30.49,54.453L30.986,54.001L31.112,53.86L31.246,53.776L31.408,53.767L31.564,53.943L31.608,54.21L31.294,55.016L31.118,55.145ZM40.468,54.459L40.312,54.483L40.572,53.942L40.778,54.02L40.839,54.079L40.834,54.323L40.468,54.459ZM15.786,55.076L15.095,55.234L14.935,54.739L15.425,54.283L15.974,54.466L16.302,54.644L16.148,54.806L15.786,55.076ZM48.173,58.016L48.075,58.159L47.941,57.863L47.615,57.585L47.301,57.113L47.079,56.966L47.231,56.592L47.245,55.984L47.557,55.706L47.701,55.625L47.937,55.329L48.043,55.312L48.143,55.559L47.931,56.314L48.248,57.208L48.141,57.765L48.187,57.89L48.173,58.016ZM42.025,58.669L41.971,58.858L41.529,58.843L41.371,58.873L40.955,59.355L40.712,59.477L39.381,59.635L38.333,59.508L37.973,59.243L37.74,58.805L37.668,58.517L37.931,58.201L38.183,57.992L39.031,57.578L39.223,57.264L39.666,56.885L40.58,56.757L40.668,56.852L40.789,56.912L40.973,56.928L41.427,57.24L41.935,57.44L41.811,58.197L41.963,58.453L42.025,58.669ZM45.878,57.667L45.916,57.921L45.197,57.251L45.051,56.777L45.29,56.797L45.598,56.979L45.878,57.667ZM50.243,58.778L50.173,58.805L49.861,58.406L49.903,57.952L50.325,57.273L50.637,57.867L50.633,58.135L50.589,58.268L50.881,58.604L50.679,58.769L50.243,58.778ZM49.945,61.062L50.403,61.371L50.997,61.289L50.989,62.068L51.085,62.295L51.622,62.954L51.706,63.504L51.388,64.02L51.151,64.265L50.707,64.617L50.697,64.778L50.885,64.962L51.498,65.067L51.962,65.35L52.044,66.155L52.488,66.788L52.476,67.064L52.3,68.197L52.356,68.68L52.687,69.067L52.967,69.23L53.111,69.473L53.241,70.14L53.217,71.271L53.175,71.667L52.979,72.033L52.374,72.867L51.562,73.529L51.129,73.486L50.991,73.682L51.26,74.286L51.152,75.563L50.975,76.447L50.711,75.998L50.527,75.53L50.361,74.288L50.153,73.729L49.827,73.217L49.698,72.76L49.36,72.333L48.928,71.229L48.642,71.285L48.169,71.589L48.063,71.795L48.007,72.11L47.897,72.393L47.345,72.845L46.909,73.382L46.552,73.97L46.438,74.51L46.73,74.931L47.029,75.102L47.467,75.479L47.601,75.652L48.061,76.877L48.045,78.132L47.709,78.684L46.855,79.731L46.24,80.063L45.912,79.895L45.648,79.259L45.606,78.998L45.784,78.4L45.804,77.854L45.596,77.669L45.37,77.705L45.274,77.783L44.725,78.5L44.497,78.682L44.159,78.707L43.891,78.658L42.261,78.032L40.927,77.415L39.884,76.837L39.129,75.966L38.971,75.314L38.961,74.631L38.623,73.631L38.583,73.29L38.607,72.963L38.945,72.349L39.351,72.039L39.578,71.815L39.76,71.569L39.886,71.238L39.85,70.909L39.714,70.704L39.073,69.984L38.515,69.541L37.374,69.143L37.108,68.923L36.816,68.758L36.498,68.687L36.187,68.685L35.849,68.809L35.761,69.072L35.785,69.308L35.755,69.537L35.277,70.853L34.666,70.565L34.082,70.23L33.928,69.996L33.862,69.717L33.762,69.528L33.626,69.357L33.359,69.797L33.025,70.143L32.617,70.223L32.203,70.229L32.067,70.078L31.918,69.241L31.48,68.976L30.932,69.032L30.269,69.493L30.139,69.666L29.993,70.063L29.271,71.193L28.89,72.061L28.466,72.907L28.278,73.184L28.028,73.368L27.634,73.291L27.277,73.09L26.941,72.545L27.055,71.912L27.431,71.507L27.744,71.075L28.122,69.562L28.152,69.025L28.218,68.794L28.844,68.106L29.371,67.68L29.649,67.591L30.786,67.347L31.254,67.144L31.991,67.14L32.591,67.024L33.069,66.696L33.105,66.356L33.083,66.002L33.189,65.786L33.372,65.604L33.628,65.365L33.916,65.185L34.734,65.054L35.005,64.906L35.223,64.675L35.527,64.225L35.889,64.337L36.253,64.512L36.906,64.65L37.484,65.024L37.856,65.612L37.918,65.902L38.013,66.859L37.879,67.082L37.316,67.527L37.576,67.574L38.315,67.169L38.685,67.013L39.596,66.795L39.81,66.652L39.968,66.438L40.29,65.851L40.524,65.225L40.71,64.964L40.971,64.757L41.233,64.722L42.191,65.151L42.804,64.944L42.976,64.294L43.116,63.35L43.226,63.094L43.578,62.847L43.997,62.927L44.573,63.266L45.105,63.379L45.302,63.106L45.49,62.569L45.704,62.571L46.42,62.749L47.111,62.631L47.307,61.984L47.177,61.293L46.636,59.274L46.957,58.823L47.237,58.811L47.919,59.348L49.232,60.074L49.669,60.517L49.945,61.062ZM49.745,59.664L49.644,59.795L49.474,59.521L49.622,58.916L49.73,58.814L49.869,59.197L49.745,59.664ZM36.996,61.492L37.044,62.024L36.528,62.179L36.115,62.042L35.849,61.723L35.851,61.603L36.083,61.612L36.592,61.333L36.754,61.278L36.996,61.492ZM43.218,61.977L43.058,62.282L42.428,62.03L42.278,61.81L42.358,61.55L42.666,61.461L42.826,61.461L43.126,61.734L43.218,61.977ZM1.422,66.728L1.04,66.848L0.956,66.529L1.004,66.215L1.278,66.249L1.412,66.347L1.422,66.728ZM-0.123,68.422L-0.415,68.811L-0.745,68.364L-0.709,67.741L-0.607,67.569L-0.141,67.474L-0.123,68.422ZM32.731,70.846L32.793,70.964L32.767,71.091L32.183,71.327L31.987,71.32L31.941,70.926L32.085,70.746L32.361,70.906L32.605,70.721L32.731,70.846ZM48.704,73.123L48.616,73.413L48.271,72.729L48.135,72.56L48.31,71.988L48.696,72.268L48.704,73.123ZM27.996,75.846L27.428,75.917L27.247,75.911L26.801,75.392L26.759,75.163L26.401,74.904L26.531,74.646L26.995,74.584L27.798,74.256L29.087,74.775L29.287,74.962L28.885,75.076L28.6,75.568L27.996,75.846ZM22.758,77.641L23.063,78.008L23.447,77.912L24.059,78.015L24.189,78.206L24.169,78.331L23.515,78.685L23.085,78.315L22.328,78.567L21.966,78.415L21.473,78.551L21.169,78.264L21.293,77.988L22.076,77.534L22.758,77.641ZM17.661,81.808L17.509,82.115L17.331,82.258L17.099,82.178L16.922,82.021L16.822,82.257L16.332,82.347L16.022,82.71L15.57,82.808L15.255,82.761L15.289,82.438L16.162,81.953L16.706,81.774L17.183,81.423L17.423,81.385L17.545,81.67L17.661,81.808Z" fill="#4B91EC" stroke="#DCDCDC" stroke-width="0.5" stroke-miterlimit="3.999327"/>
</svg>
