<svg width="50" height="10" viewBox="0 0 50 10" fill="none" xmlns="http://www.w3.org/2000/svg" xmlns:xlink="http://www.w3.org/1999/xlink">
<path d="M0,5C0,2.239 2.239,0 5,0L45,0C47.761,0 50,2.239 50,5L50,5C50,7.761 47.761,10 45,10L5,10C2.239,10 0,7.761 0,5L0,5Z" fill="#E3D1D0"/>
</svg>
