<svg width="4" height="2" viewBox="0 0 4 2" fill="none" xmlns="http://www.w3.org/2000/svg" xmlns:xlink="http://www.w3.org/1999/xlink">
<path d="M2.339,-0.29L1.499,0.046L0.548,-0.259L0.856,-0.755L1.487,-0.875L1.999,-0.717L2.289,-0.597L2.489,-0.461L2.339,-0.29Z" fill="#7699BB" stroke="#DCDCDC" stroke-width="0.5" stroke-miterlimit="3.999327"/>
</svg>
