<svg width="10" height="6" viewBox="0 0 10 6" fill="none" xmlns="http://www.w3.org/2000/svg" xmlns:xlink="http://www.w3.org/1999/xlink">
<path d="M0.995,0.043L0.969,0.054L0.943,-0.004L0.909,-0.067L0.883,-0.126L0.883,-0.133L0.937,-0.084L0.973,-0.026L0.993,0.043L0.995,0.043ZM8.246,4.014L8.226,4.028L8.2,3.998L8.16,3.958L8.134,3.9L8.154,3.896L8.196,3.929L8.226,3.968L8.246,4.014Z" fill="#A1A28A" stroke="#DCDCDC" stroke-width="0.5" stroke-miterlimit="3.999327"/>
</svg>
