<svg width="20" height="8" viewBox="0 0 20 8" fill="none" xmlns="http://www.w3.org/2000/svg" xmlns:xlink="http://www.w3.org/1999/xlink">
<path d="M9.927,-0.211L9.551,0.668L9.145,0.481L9.577,-0.013L9.785,-0.16L9.927,-0.211ZM6.683,6.817L6.489,6.149L6.283,5.862L6.123,5.699L6.069,5.495L6.077,5.286L6.175,5.19L6.867,5.163L7.141,4.82L7.139,4.408L7.001,4.268L6.867,4.21L6.155,4.518L5.949,4.462L5.828,4.35L5.868,3.894L6.455,3.467L6.953,2.694L7.303,2.385L8.116,2.097L8.446,2.015L10.816,1.588L11.382,1.559L12.883,1.572L14.894,1.479L15.389,1.421L16.033,1.232L16.658,1L16.988,0.817L17.336,0.684L17.854,0.851L18.729,0.976L18.965,1.087L19.183,1.24L18.165,2.053L17.046,2.728L16.357,2.932L15.645,3.07L15.101,3.331L14.644,3.74L14.058,3.968L13.399,4.046L12.833,4.168L12.321,4.408L11.612,4.82L11.322,4.862L11.018,4.853L10.429,5.011L8.592,5.599L7.483,6.254L6.683,6.817ZM0.897,5.944L1.804,5.506L3.185,5.168L3.149,5.415L3.01,5.804L2.802,5.987L2.486,6.316L2.278,6.388L1.451,6.316L1.343,6.363L1.201,6.329L0.991,6.118L0.897,5.944Z" fill="#4B91EC" stroke="#DCDCDC" stroke-width="0.5" stroke-miterlimit="3.999327"/>
</svg>
