<svg width="0" height="2" viewBox="0 0 0 2" fill="none" xmlns="http://www.w3.org/2000/svg" xmlns:xlink="http://www.w3.org/1999/xlink">
<path d="M-0.024,0.934L-0.114,0.952L-0.278,0.858L-0.306,0.805L-0.2,0.711L-0.072,0.749L-0.024,0.78L-0.006,0.854L-0.024,0.934Z" fill="#CCAA5A" stroke="#DCDCDC" stroke-width="0.5" stroke-miterlimit="3.999327"/>
</svg>
