<svg width="48" height="48" viewBox="0 0 48 48" fill="none" xmlns="http://www.w3.org/2000/svg" xmlns:xlink="http://www.w3.org/1999/xlink">
<path d="M24.005,0.5C19.767,0.503 15.617,1.703 12.031,3.962L35.945,3.962C32.369,1.709 28.231,0.51 24.005,0.5L24.005,0.5Z" fill="#B22234"/>
<path d="M12.024,3.961C10.48,4.939 9.06,6.101 7.797,7.422L40.225,7.422C38.943,6.097 37.503,4.935 35.938,3.961L12.024,3.961Z" fill="#FFFFFF"/>
<path d="M7.801,7.424C6.779,8.486 5.865,9.645 5.07,10.885L42.958,10.885C42.164,9.645 41.25,8.486 40.229,7.424L7.801,7.424Z" fill="#B22234"/>
<path d="M5.067,10.885C4.356,11.983 3.743,13.141 3.234,14.346L44.744,14.346C44.249,13.143 43.65,11.985 42.955,10.885L5.067,10.885Z" fill="#FFFFFF"/>
<path d="M3.237,14.346C2.776,15.468 2.407,16.626 2.133,17.807L45.866,17.807C45.587,16.625 45.213,15.467 44.747,14.346L3.237,14.346Z" fill="#B22234"/>
<path d="M2.132,17.809C1.86,18.947 1.678,20.104 1.586,21.27L46.426,21.27C46.329,20.103 46.142,18.946 45.865,17.809L2.132,17.809Z" fill="#FFFFFF"/>
<path d="M1.587,21.27C1.536,21.845 1.507,22.422 1.5,23C1.502,23.578 1.527,24.155 1.573,24.731L46.413,24.731C46.464,24.155 46.493,23.578 46.5,23C46.498,22.423 46.473,21.845 46.427,21.27L1.587,21.27Z" fill="#B22234"/>
<path d="M1.578,24.73C1.675,25.897 1.862,27.055 2.139,28.192L45.872,28.192C46.144,27.054 46.327,25.897 46.418,24.73L1.578,24.73Z" fill="#FFFFFF"/>
<path d="M2.133,28.191C2.412,29.374 2.786,30.531 3.252,31.653L44.762,31.653C45.222,30.531 45.591,29.373 45.866,28.191L2.133,28.191Z" fill="#B22234"/>
<path d="M3.25,31.654C3.745,32.858 4.344,34.016 5.04,35.116L42.928,35.116C43.638,34.017 44.251,32.859 44.76,31.654L3.25,31.654Z" fill="#FFFFFF"/>
<path d="M5.047,35.115C5.841,36.356 6.755,37.515 7.776,38.577L40.205,38.577C41.226,37.515 42.14,36.356 42.935,35.115L5.047,35.115Z" fill="#B22234"/>
<path d="M7.773,38.576C9.055,39.901 10.495,41.064 12.06,42.038L35.974,42.038C37.519,41.06 38.938,39.897 40.202,38.576L7.773,38.576Z" fill="#FFFFFF"/>
<path d="M12.063,42.039C15.639,44.291 19.777,45.491 24.003,45.501C28.24,45.497 32.391,44.297 35.976,42.039L12.063,42.039Z" fill="#B22234"/>
<path d="M24,0.5C18.033,0.5 12.31,2.871 8.09,7.09C3.871,11.31 1.5,17.033 1.5,23C1.503,23.595 1.529,24.189 1.579,24.781L25.781,24.781L25.781,0.589C25.189,0.536 24.595,0.506 24,0.5L24,0.5Z" fill="#3C3B6E"/>
<path d="M15.944,2.017C15.644,2.126 15.347,2.242 15.052,2.364L15.381,2.614L15.158,3.332L15.747,2.893L16.353,3.353L16.126,2.61L16.732,2.158L15.987,2.158L15.944,2.017ZM19.761,1.402L19.527,2.157L18.785,2.157L19.385,2.614L19.163,3.332L19.752,2.893L20.358,3.353L20.13,2.61L20.736,2.157L19.992,2.157L19.761,1.402L19.761,1.402ZM23.765,1.402L23.532,2.157L22.789,2.157L23.39,2.614L23.168,3.332L23.757,2.893L24.363,3.353L24.135,2.61L24.741,2.157L23.997,2.157L23.765,1.402ZM10.155,5.295C10.049,5.373 9.944,5.453 9.84,5.534L10.346,5.919L10.155,5.295ZM13.753,3.968L13.52,4.723L12.778,4.723L13.378,5.18L13.156,5.898L13.745,5.458L14.351,5.919L14.123,5.176L14.729,4.723L13.985,4.723L13.753,3.968ZM17.758,3.968L17.524,4.723L16.782,4.723L17.383,5.18L17.161,5.898L17.75,5.458L18.356,5.919L18.128,5.176L18.734,4.723L17.989,4.723L17.758,3.968L17.758,3.968ZM21.763,3.968L21.529,4.723L20.787,4.723L21.388,5.18L21.165,5.898L21.754,5.458L22.36,5.919L22.133,5.176L22.739,4.723L21.994,4.723L21.763,3.968L21.763,3.968ZM7.959,7.228C7.737,7.463 7.52,7.703 7.309,7.947L7.149,8.464L7.738,8.024L8.344,8.485L8.116,7.741L8.722,7.289L7.977,7.289L7.959,7.228ZM11.751,6.534L11.517,7.289L10.775,7.289L11.376,7.745L11.154,8.464L11.742,8.024L12.349,8.485L12.121,7.741L12.727,7.289L11.982,7.289L11.751,6.534L11.751,6.534ZM15.756,6.534L15.522,7.289L14.78,7.289L15.381,7.745L15.158,8.464L15.747,8.024L16.353,8.485L16.126,7.741L16.732,7.289L15.987,7.289L15.756,6.534L15.756,6.534ZM19.761,6.534L19.527,7.289L18.785,7.289L19.385,7.745L19.163,8.464L19.752,8.024L20.358,8.485L20.13,7.741L20.736,7.289L19.992,7.289L19.761,6.534L19.761,6.534ZM23.765,6.534L23.532,7.289L22.789,7.289L23.39,7.745L23.168,8.464L23.757,8.024L24.363,8.485L24.135,7.741L24.741,7.289L23.997,7.289L23.765,6.534L23.765,6.534ZM5.914,9.654C5.707,9.93 5.506,10.211 5.311,10.497L5.146,11.029L5.735,10.59L6.341,11.05L6.114,10.307L6.72,9.854L5.975,9.854L5.914,9.654ZM9.749,9.099L9.515,9.854L8.773,9.854L9.373,10.311L9.151,11.029L9.74,10.59L10.346,11.05L10.118,10.307L10.725,9.854L9.98,9.854L9.749,9.099L9.749,9.099ZM13.753,9.099L13.52,9.854L12.778,9.854L13.378,10.311L13.156,11.029L13.745,10.59L14.351,11.05L14.123,10.307L14.729,9.854L13.985,9.854L13.753,9.099L13.753,9.099ZM17.758,9.099L17.524,9.854L16.782,9.854L17.383,10.311L17.161,11.029L17.75,10.59L18.356,11.05L18.128,10.307L18.734,9.854L17.989,9.854L17.758,9.099L17.758,9.099ZM21.763,9.099L21.529,9.854L20.787,9.854L21.388,10.311L21.165,11.029L21.754,10.59L22.36,11.05L22.133,10.307L22.739,9.854L21.994,9.854L21.763,9.099L21.763,9.099ZM4.159,12.42C4.024,12.672 3.895,12.927 3.77,13.184L4.339,13.616L4.111,12.873L4.717,12.42L4.159,12.42ZM7.746,11.665L7.513,12.42L6.77,12.42L7.371,12.877L7.149,13.595L7.738,13.155L8.344,13.616L8.116,12.873L8.722,12.42L7.978,12.42L7.746,11.665ZM11.751,11.665L11.517,12.42L10.775,12.42L11.376,12.877L11.154,13.595L11.742,13.155L12.349,13.616L12.121,12.873L12.727,12.42L11.982,12.42L11.751,11.665L11.751,11.665ZM15.756,11.665L15.522,12.42L14.78,12.42L15.381,12.877L15.158,13.595L15.747,13.155L16.353,13.616L16.126,12.873L16.732,12.42L15.987,12.42L15.756,11.665ZM19.761,11.665L19.527,12.42L18.785,12.42L19.385,12.877L19.163,13.595L19.752,13.155L20.358,13.616L20.13,12.873L20.736,12.42L19.992,12.42L19.761,11.665L19.761,11.665ZM23.765,11.665L23.532,12.42L22.789,12.42L23.39,12.877L23.168,13.595L23.757,13.155L24.363,13.616L24.135,12.873L24.741,12.42L23.997,12.42L23.765,11.665ZM5.744,14.23L5.51,14.986L4.768,14.986L5.369,15.442L5.146,16.16L5.735,15.721L6.341,16.181L6.114,15.438L6.72,14.986L5.975,14.986L5.744,14.23L5.744,14.23ZM9.749,14.23L9.515,14.986L8.773,14.986L9.373,15.442L9.151,16.16L9.74,15.721L10.346,16.181L10.118,15.438L10.725,14.986L9.98,14.986L9.749,14.23ZM13.753,14.23L13.52,14.986L12.778,14.986L13.378,15.442L13.156,16.16L13.745,15.721L14.351,16.181L14.123,15.438L14.729,14.986L13.985,14.986L13.753,14.23ZM17.758,14.23L17.524,14.986L16.782,14.986L17.383,15.442L17.161,16.16L17.75,15.721L18.356,16.181L18.128,15.438L18.734,14.986L17.989,14.986L17.758,14.23L17.758,14.23ZM21.763,14.23L21.529,14.986L20.787,14.986L21.388,15.442L21.165,16.16L21.754,15.721L22.36,16.181L22.133,15.438L22.739,14.986L21.994,14.986L21.763,14.23L21.763,14.23ZM3.742,16.796L3.508,17.551L2.766,17.551L3.366,18.008L3.144,18.726L3.733,18.286L4.339,18.747L4.111,18.004L4.717,17.551L3.973,17.551L3.742,16.796ZM7.746,16.796L7.513,17.551L6.77,17.551L7.371,18.008L7.149,18.726L7.738,18.286L8.344,18.747L8.116,18.004L8.722,17.551L7.978,17.551L7.746,16.796ZM11.751,16.796L11.517,17.551L10.775,17.551L11.376,18.008L11.154,18.726L11.742,18.286L12.349,18.747L12.121,18.004L12.727,17.551L11.982,17.551L11.751,16.796L11.751,16.796ZM15.756,16.796L15.522,17.551L14.78,17.551L15.381,18.008L15.158,18.726L15.747,18.286L16.353,18.747L16.126,18.004L16.732,17.551L15.987,17.551L15.756,16.796ZM19.761,16.796L19.527,17.551L18.785,17.551L19.385,18.008L19.163,18.726L19.752,18.286L20.358,18.747L20.13,18.004L20.736,17.551L19.992,17.551L19.761,16.796L19.761,16.796ZM23.765,16.796L23.532,17.551L22.789,17.551L23.39,18.008L23.168,18.726L23.757,18.286L24.363,18.747L24.135,18.004L24.741,17.551L23.997,17.551L23.765,16.796ZM5.744,19.362L5.51,20.117L4.768,20.117L5.369,20.573L5.146,21.292L5.735,20.852L6.341,21.313L6.114,20.57L6.72,20.117L5.975,20.117L5.744,19.362L5.744,19.362ZM9.749,19.362L9.515,20.117L8.773,20.117L9.373,20.573L9.151,21.292L9.74,20.852L10.346,21.313L10.118,20.57L10.725,20.117L9.98,20.117L9.749,19.362ZM13.753,19.362L13.52,20.117L12.778,20.117L13.378,20.573L13.156,21.292L13.745,20.852L14.351,21.313L14.123,20.57L14.729,20.117L13.985,20.117L13.753,19.362ZM17.758,19.362L17.524,20.117L16.782,20.117L17.383,20.573L17.161,21.292L17.75,20.852L18.356,21.313L18.128,20.57L18.734,20.117L17.989,20.117L17.758,19.362L17.758,19.362ZM21.763,19.362L21.529,20.117L20.787,20.117L21.388,20.573L21.165,21.292L21.754,20.852L22.36,21.313L22.133,20.57L22.739,20.117L21.994,20.117L21.763,19.362L21.763,19.362ZM3.742,21.927L3.508,22.683L2.766,22.683L3.366,23.139L3.144,23.857L3.733,23.418L4.339,23.878L4.111,23.135L4.717,22.683L3.973,22.683L3.742,21.927L3.742,21.927ZM7.746,21.927L7.513,22.683L6.77,22.683L7.371,23.139L7.149,23.857L7.738,23.418L8.344,23.878L8.116,23.135L8.722,22.683L7.978,22.683L7.746,21.927L7.746,21.927ZM11.751,21.927L11.517,22.683L10.775,22.683L11.376,23.139L11.154,23.857L11.742,23.418L12.349,23.878L12.121,23.135L12.727,22.683L11.982,22.683L11.751,21.927L11.751,21.927ZM15.756,21.927L15.522,22.683L14.78,22.683L15.381,23.139L15.158,23.857L15.747,23.418L16.353,23.878L16.126,23.135L16.732,22.683L15.987,22.683L15.756,21.927L15.756,21.927ZM19.761,21.927L19.527,22.683L18.785,22.683L19.385,23.139L19.163,23.857L19.752,23.418L20.358,23.878L20.13,23.135L20.736,22.683L19.992,22.683L19.761,21.927L19.761,21.927ZM23.765,21.927L23.532,22.683L22.789,22.683L23.39,23.139L23.168,23.857L23.757,23.418L24.363,23.878L24.135,23.135L24.741,22.683L23.997,22.683L23.765,21.927L23.765,21.927Z" fill="#FFFFFF"/>
</svg>
