<svg width="22" height="12" viewBox="0 0 22 12" fill="none" xmlns="http://www.w3.org/2000/svg" xmlns:xlink="http://www.w3.org/1999/xlink">
<path d="M11,12C10.737,12.002 10.476,11.951 10.233,11.852C9.989,11.752 9.767,11.606 9.58,11.42L1.58,3.42C1.204,3.044 0.992,2.533 0.992,2C0.992,1.468 1.204,0.957 1.58,0.58C1.957,0.204 2.468,-0.008 3,-0.008C3.533,-0.008 4.044,0.204 4.42,0.58L11,7.18L17.58,0.6C17.963,0.273 18.455,0.102 18.958,0.121C19.462,0.14 19.939,0.349 20.295,0.705C20.652,1.061 20.86,1.539 20.88,2.042C20.899,2.546 20.728,3.038 20.4,3.42L12.4,11.42C12.028,11.79 11.525,11.998 11,12Z" fill="#151D48" stroke="#FFFFFF" stroke-width="1" stroke-miterlimit="3.999327"/>
</svg>
