<svg width="50" height="38" viewBox="0 0 50 38" fill="none" xmlns="http://www.w3.org/2000/svg" xmlns:xlink="http://www.w3.org/1999/xlink">
<path d="M42.75,0.301C42.234,-0.033 41.644,-0.235 41.032,-0.287C40.42,-0.339 39.805,-0.241 39.24,0.001L20.73,7.291C20.292,7.469 19.823,7.561 19.35,7.561L7.5,7.561C6.505,7.561 5.552,7.956 4.848,8.659C4.145,9.362 3.75,10.316 3.75,11.311L3.75,11.611L0,11.611L0,20.611L3.75,20.611L3.75,21.001C3.773,21.98 4.179,22.91 4.88,23.594C5.58,24.278 6.521,24.661 7.5,24.661L12,34.201C12.305,34.843 12.784,35.387 13.384,35.769C13.984,36.151 14.679,36.356 15.39,36.361L17.28,36.361C18.269,36.353 19.216,35.954 19.912,35.252C20.609,34.549 21,33.6 21,32.611L21,25.021L39.24,32.311C39.689,32.489 40.167,32.581 40.65,32.581C41.399,32.569 42.129,32.339 42.75,31.921C43.243,31.587 43.65,31.142 43.937,30.62C44.224,30.098 44.383,29.516 44.4,28.921L44.4,3.391C44.397,2.78 44.246,2.18 43.958,1.641C43.67,1.103 43.256,0.643 42.75,0.301ZM17.25,11.311L17.25,21.001L7.5,21.001L7.5,11.311L17.25,11.311ZM17.25,32.611L15.36,32.611L11.67,24.661L17.25,24.661L17.25,32.611ZM22.11,21.451C21.754,21.269 21.382,21.118 21,21.001L21,11.101C21.379,11.023 21.75,10.912 22.11,10.771L40.65,3.391L40.65,28.831L22.11,21.451ZM44.49,12.361L44.49,19.861C45.485,19.861 46.438,19.466 47.142,18.762C47.845,18.059 48.24,17.105 48.24,16.111C48.24,15.116 47.845,14.162 47.142,13.459C46.438,12.756 45.485,12.361 44.49,12.361Z" fill="#7D8198"/>
</svg>
