<svg width="44" height="44" viewBox="0 0 44 44" fill="none" xmlns="http://www.w3.org/2000/svg" xmlns:xlink="http://www.w3.org/1999/xlink">
<path d="M26.722,6.157L27.783,7.218L27.783,7.218L26.722,6.157ZM42.001,9.864L40.501,9.864L42.001,9.864ZM37.844,17.279L38.905,18.34L38.905,18.34L37.844,17.279ZM30.43,13.571L31.491,12.511L31.49,12.51L30.43,13.571ZM9.678,23.197L8.617,22.137L8.616,22.138L9.678,23.197ZM7.45,25.567L8.632,26.49L8.633,26.49L7.45,25.567ZM5.952,27.989L4.598,27.344L4.597,27.346L5.952,27.989ZM4.832,31.041L6.255,31.516L6.255,31.516L4.832,31.041ZM20.802,34.319L19.741,33.259L19.741,33.259L20.802,34.319ZM18.434,36.547L17.512,35.365L17.511,35.365L18.434,36.547ZM16.012,38.045L16.656,39.4L16.658,39.399L16.012,38.045ZM12.96,39.165L12.486,37.742L12.486,37.742L12.96,39.165ZM4.794,41.889L4.319,40.467L4.317,40.467L4.794,41.889ZM2.11,39.205L3.532,39.682L3.533,39.681L2.11,39.205ZM2.646,37.601L3.707,36.541L1.992,34.826L1.223,37.126L2.646,37.601ZM27.783,7.218L29.637,5.364L27.515,3.243L25.661,5.097L27.783,7.218ZM29.637,5.364C30.83,4.171 32.449,3.5 34.137,3.5L34.137,0.5C31.653,0.5 29.272,1.487 27.515,3.243L29.637,5.364ZM34.137,3.5C35.825,3.5 37.444,4.171 38.637,5.364L40.759,3.243C39.002,1.487 36.621,0.5 34.137,0.5L34.137,3.5ZM38.637,5.364C39.831,6.558 40.501,8.176 40.501,9.864L43.501,9.864C43.501,7.381 42.515,4.999 40.759,3.243L38.637,5.364ZM40.501,9.864C40.501,11.552 39.831,13.171 38.637,14.365L40.759,16.486C42.515,14.73 43.501,12.348 43.501,9.864L40.501,9.864ZM38.637,14.365L36.783,16.219L38.905,18.34L40.759,16.486L38.637,14.365ZM26.724,6.157C25.227,6.245 25.227,6.245 25.227,6.246C25.227,6.246 25.227,6.247 25.227,6.247C25.227,6.248 25.227,6.249 25.227,6.25C25.227,6.253 25.227,6.255 25.227,6.257C25.228,6.263 25.228,6.269 25.229,6.276C25.23,6.29 25.231,6.308 25.233,6.33C25.237,6.373 25.242,6.432 25.25,6.504C25.267,6.648 25.294,6.847 25.338,7.092C25.425,7.582 25.581,8.26 25.856,9.053C26.406,10.64 27.439,12.703 29.37,14.632L31.49,12.51C29.945,10.966 29.125,9.322 28.691,8.07C28.474,7.444 28.355,6.92 28.291,6.563C28.259,6.384 28.241,6.248 28.231,6.163C28.226,6.121 28.223,6.091 28.222,6.075C28.221,6.067 28.221,6.063 28.221,6.062C28.221,6.061 28.221,6.062 28.221,6.063C28.221,6.064 28.221,6.065 28.221,6.066C28.221,6.066 28.221,6.067 28.221,6.068C28.221,6.068 28.221,6.069 28.221,6.069C28.221,6.069 28.221,6.07 26.724,6.157ZM29.369,14.632C31.299,16.562 33.362,17.595 34.949,18.146C35.742,18.421 36.42,18.577 36.909,18.665C37.154,18.709 37.353,18.736 37.497,18.753C37.569,18.761 37.627,18.767 37.671,18.77C37.692,18.772 37.71,18.774 37.725,18.775C37.732,18.775 37.738,18.776 37.743,18.776C37.746,18.776 37.748,18.776 37.75,18.776C37.751,18.777 37.752,18.777 37.753,18.777C37.754,18.777 37.754,18.777 37.755,18.777C37.755,18.777 37.756,18.777 37.844,17.279C37.932,15.782 37.933,15.782 37.933,15.782C37.934,15.782 37.934,15.782 37.934,15.782C37.935,15.782 37.936,15.782 37.936,15.782C37.938,15.782 37.938,15.782 37.939,15.782C37.94,15.783 37.941,15.783 37.94,15.783C37.94,15.783 37.935,15.782 37.927,15.781C37.911,15.78 37.881,15.777 37.839,15.772C37.754,15.763 37.618,15.745 37.44,15.712C37.082,15.648 36.558,15.529 35.932,15.312C34.681,14.877 33.037,14.057 31.491,12.511L29.369,14.632ZM25.661,5.097L8.617,22.137L10.739,24.258L27.783,7.218L25.661,5.097ZM8.616,22.138C7.488,23.268 6.833,23.92 6.267,24.645L8.633,26.49C9.059,25.943 9.56,25.439 10.74,24.257L8.616,22.138ZM6.267,24.645C5.615,25.481 5.055,26.386 4.598,27.344L7.306,28.635C7.669,27.874 8.114,27.155 8.632,26.49L6.267,24.645ZM4.597,27.346C4.203,28.175 3.914,29.053 3.409,30.567L6.255,31.516C6.782,29.933 7.009,29.259 7.307,28.633L4.597,27.346ZM3.409,30.567L1.221,37.129L4.067,38.078L6.255,31.516L3.409,30.567ZM36.783,16.219L19.741,33.259L21.863,35.38L38.905,18.34L36.783,16.219ZM19.741,33.259C18.562,34.438 18.058,34.938 17.512,35.365L19.356,37.73C20.082,37.164 20.734,36.509 21.863,35.38L19.741,33.259ZM17.511,35.365C16.846,35.884 16.127,36.329 15.366,36.692L16.658,39.399C17.615,38.943 18.52,38.383 19.357,37.73L17.511,35.365ZM15.368,36.691C14.742,36.988 14.069,37.215 12.486,37.742L13.434,40.589C14.951,40.084 15.826,39.795 16.656,39.4L15.368,36.691ZM12.486,37.742L5.924,39.93L6.872,42.776L13.434,40.588L12.486,37.742ZM5.923,39.931L4.319,40.467L5.269,43.312L6.873,42.776L5.923,39.931ZM4.317,40.467C4.208,40.504 4.09,40.509 3.978,40.483L3.291,43.403C3.947,43.557 4.632,43.526 5.271,43.312L4.317,40.467ZM3.978,40.483C3.866,40.457 3.763,40.399 3.682,40.318L1.56,42.439C2.036,42.915 2.636,43.249 3.291,43.403L3.978,40.483ZM3.682,40.318C3.6,40.236 3.543,40.134 3.516,40.021L0.596,40.708C0.75,41.363 1.084,41.963 1.56,42.439L3.682,40.318ZM3.516,40.021C3.49,39.909 3.496,39.792 3.532,39.682L0.688,38.729C0.474,39.367 0.442,40.052 0.596,40.708L3.516,40.021ZM3.533,39.681L4.069,38.077L1.223,37.126L0.687,38.73L3.533,39.681ZM7.459,40.293L3.707,36.541L1.585,38.662L5.337,42.414L7.459,40.293Z" fill="#FFFFFF"/>
</svg>
