<svg width="48" height="48" viewBox="0 0 48 48" fill="none" xmlns="http://www.w3.org/2000/svg" xmlns:xlink="http://www.w3.org/1999/xlink">
<path d="M18.777,45.118L18.777,30.708L29.212,30.708L29.212,45.118C29.212,46.703 30.385,48 31.82,48L39.646,48C41.081,48 42.255,46.703 42.255,45.118L42.255,24.944L46.69,24.944C47.89,24.944 48.464,23.301 47.551,22.437L25.742,0.735C24.751,-0.245 23.238,-0.245 22.246,0.735L0.438,22.437C-0.449,23.301 0.099,24.944 1.299,24.944L5.733,24.944L5.733,45.118C5.733,46.703 6.907,48 8.342,48L16.168,48C17.603,48 18.777,46.703 18.777,45.118Z" fill="#F47827"/>
</svg>
