<svg width="24" height="12" viewBox="0 0 24 12" fill="none" xmlns="http://www.w3.org/2000/svg" xmlns:xlink="http://www.w3.org/1999/xlink">
<path d="M21.293,11.707C21.683,12.098 22.317,12.098 22.707,11.707C23.098,11.317 23.098,10.683 22.707,10.293L21.293,11.707ZM12,1L12.707,0.293C12.317,-0.098 11.683,-0.098 11.293,0.293L12,1ZM1.293,10.293C0.902,10.683 0.902,11.317 1.293,11.707C1.683,12.098 2.317,12.098 2.707,11.707L1.293,10.293ZM22.707,10.293L12.707,0.293L11.293,1.707L21.293,11.707L22.707,10.293ZM11.293,0.293L1.293,10.293L2.707,11.707L12.707,1.707L11.293,0.293Z" fill="#FFFFFF"/>
</svg>
