<svg width="36" height="36" viewBox="0 0 36 36" fill="none" xmlns="http://www.w3.org/2000/svg" xmlns:xlink="http://www.w3.org/1999/xlink">
<path d="M2,20L14,20C15.1,20 16,19.1 16,18L16,2C16,0.9 15.1,0 14,0L2,0C0.9,0 0,0.9 0,2L0,18C0,19.1 0.9,20 2,20ZM2,36L14,36C15.1,36 16,35.1 16,34L16,26C16,24.9 15.1,24 14,24L2,24C0.9,24 0,24.9 0,26L0,34C0,35.1 0.9,36 2,36ZM22,36L34,36C35.1,36 36,35.1 36,34L36,18C36,16.9 35.1,16 34,16L22,16C20.9,16 20,16.9 20,18L20,34C20,35.1 20.9,36 22,36ZM20,2L20,10C20,11.1 20.9,12 22,12L34,12C35.1,12 36,11.1 36,10L36,2C36,0.9 35.1,0 34,0L22,0C20.9,0 20,0.9 20,2Z" fill="#1C75BC"/>
</svg>
