<svg width="22" height="40" viewBox="0 0 22 40" fill="none" xmlns="http://www.w3.org/2000/svg" xmlns:xlink="http://www.w3.org/1999/xlink">
<path d="M14,23L19,23L21,15L14,15L14,11C14,8.94 14,7 18,7L21,7L21,0.28C20.348,0.194 17.886,0 15.286,0C9.856,0 6,3.314 6,9.4L6,15L0,15L0,23L6,23L6,40L14,40L14,23Z" fill="#FFFFFF"/>
</svg>
