<svg width="42" height="42" viewBox="0 0 42 42" fill="none" xmlns="http://www.w3.org/2000/svg" xmlns:xlink="http://www.w3.org/1999/xlink">
<path d="M40.318,14.318C42.818,11.818 41.678,8.898 40.318,7.478L34.318,1.478C31.798,-1.022 28.898,0.118 27.478,1.478L24.078,4.898L18.898,4.898C15.098,4.898 12.898,6.898 11.778,9.198L2.898,18.078L2.898,26.078L1.478,27.478C-1.022,29.998 0.118,32.898 1.478,34.318L7.478,40.318C8.558,41.398 9.718,41.798 10.818,41.798C12.238,41.798 13.538,41.098 14.318,40.318L19.718,34.898L26.898,34.898C30.298,34.898 32.018,32.778 32.638,30.698C34.898,30.098 36.138,28.378 36.638,26.698C39.738,25.898 40.898,22.958 40.898,20.898L40.898,14.898L39.718,14.898L40.318,14.318ZM36.898,20.898C36.898,21.798 36.518,22.898 34.898,22.898L32.898,22.898L32.898,24.898C32.898,25.798 32.518,26.898 30.898,26.898L28.898,26.898L28.898,28.898C28.898,29.798 28.518,30.898 26.898,30.898L18.078,30.898L11.518,37.458C10.898,38.038 10.538,37.698 10.318,37.478L4.338,31.518C3.758,30.898 4.098,30.538 4.318,30.318L6.898,27.718L6.898,19.718L10.898,15.718L10.898,18.898C10.898,21.318 12.498,24.898 16.898,24.898C21.298,24.898 22.898,21.318 22.898,18.898L36.898,18.898L36.898,20.898ZM37.478,11.478L34.078,14.898L18.898,14.898L18.898,18.898C18.898,19.798 18.518,20.898 16.898,20.898C15.278,20.898 14.898,19.798 14.898,18.898L14.898,12.898C14.898,11.978 15.238,8.898 18.898,8.898L25.718,8.898L30.278,4.338C30.898,3.758 31.258,4.098 31.478,4.318L37.458,10.278C38.038,10.898 37.698,11.258 37.478,11.478Z" fill="#FFFFFF"/>
</svg>
