<svg width="48" height="52" viewBox="0 0 48 52" fill="none" xmlns="http://www.w3.org/2000/svg" xmlns:xlink="http://www.w3.org/1999/xlink">
<path d="M0,26.667L5.333,26.667L5.333,50.667L0,50.667L0,26.667ZM42.667,16L48,16L48,50.667L42.667,50.667L42.667,16ZM21.333,0L26.667,0L26.667,50.667L21.333,50.667L21.333,0Z" fill="#737791"/>
</svg>
