<svg width="48" height="48" viewBox="0 0 48 48" fill="none" xmlns="http://www.w3.org/2000/svg" xmlns:xlink="http://www.w3.org/1999/xlink">
<path d="M42.75,34.5L41.25,34.5L41.25,33.195C41.952,32.64 42.519,31.934 42.909,31.128C43.299,30.323 43.501,29.44 43.5,28.545L43.5,26.94C43.498,25.763 43.029,24.635 42.197,23.803C41.365,22.971 40.237,22.502 39.06,22.5L37.44,22.5C36.263,22.502 35.135,22.971 34.303,23.803C33.471,24.635 33.002,25.763 33,26.94L33,28.545C32.999,29.44 33.201,30.323 33.591,31.128C33.981,31.934 34.548,32.64 35.25,33.195L35.25,34.5L33.75,34.5C32.358,34.5 31.022,35.053 30.038,36.038C29.053,37.022 28.5,38.358 28.5,39.75L28.5,45.75C28.5,46.347 28.737,46.919 29.159,47.341C29.581,47.763 30.153,48 30.75,48L45.75,48C46.347,48 46.919,47.763 47.341,47.341C47.763,46.919 48,46.347 48,45.75L48,39.75C48,38.358 47.447,37.022 46.462,36.038C45.478,35.053 44.142,34.5 42.75,34.5ZM34.5,28.545L34.5,26.94C34.501,26.161 34.811,25.413 35.362,24.862C35.914,24.311 36.661,24.001 37.44,24L39.06,24C39.839,24.001 40.586,24.311 41.138,24.862C41.689,25.413 41.999,26.161 42,26.94L42,28.545C42.001,29.419 41.744,30.274 41.261,31.003C40.778,31.731 40.091,32.301 39.285,32.64C38.958,32.781 38.606,32.854 38.25,32.854C37.894,32.854 37.542,32.781 37.215,32.64C36.409,32.301 35.722,31.731 35.239,31.003C34.756,30.274 34.499,29.419 34.5,28.545ZM39.75,34.065L39.75,34.5C39.75,34.898 39.592,35.279 39.311,35.561C39.029,35.842 38.648,36 38.25,36C37.852,36 37.471,35.842 37.189,35.561C36.908,35.279 36.75,34.898 36.75,34.5L36.75,34.065C37.225,34.263 37.735,34.365 38.25,34.365C38.765,34.365 39.275,34.263 39.75,34.065ZM46.5,45.75C46.5,45.949 46.421,46.14 46.28,46.28C46.14,46.421 45.949,46.5 45.75,46.5L43.5,46.5L43.5,42.75C43.5,42.551 43.421,42.36 43.28,42.22C43.14,42.079 42.949,42 42.75,42C42.551,42 42.36,42.079 42.22,42.22C42.079,42.36 42,42.551 42,42.75L42,46.5L34.5,46.5L34.5,42.75C34.5,42.551 34.421,42.36 34.28,42.22C34.14,42.079 33.949,42 33.75,42C33.551,42 33.36,42.079 33.22,42.22C33.079,42.36 33,42.551 33,42.75L33,46.5L30.75,46.5C30.551,46.5 30.36,46.421 30.22,46.28C30.079,46.14 30,45.949 30,45.75L30,39.75C30,38.755 30.395,37.802 31.098,37.098C31.802,36.395 32.755,36 33.75,36L35.667,36C35.927,36.455 36.303,36.834 36.756,37.097C37.21,37.361 37.725,37.5 38.249,37.5C38.774,37.5 39.289,37.361 39.742,37.097C40.196,36.834 40.572,36.455 40.832,36L42.75,36C43.745,36 44.698,36.395 45.402,37.098C46.105,37.802 46.5,38.755 46.5,39.75L46.5,45.75ZM14.25,34.5L12.75,34.5L12.75,33.195C13.452,32.64 14.019,31.934 14.409,31.128C14.799,30.323 15.001,29.44 15,28.545L15,26.94C14.998,25.763 14.529,24.635 13.697,23.803C12.865,22.971 11.737,22.502 10.56,22.5L8.94,22.5C7.763,22.502 6.635,22.971 5.803,23.803C4.971,24.635 4.502,25.763 4.5,26.94L4.5,28.545C4.499,29.44 4.701,30.323 5.091,31.128C5.481,31.934 6.048,32.64 6.75,33.195L6.75,34.5L5.25,34.5C3.858,34.5 2.522,35.053 1.538,36.038C0.553,37.022 0,38.358 0,39.75L0,45.75C0,46.347 0.237,46.919 0.659,47.341C1.081,47.763 1.653,48 2.25,48L17.25,48C17.847,48 18.419,47.763 18.841,47.341C19.263,46.919 19.5,46.347 19.5,45.75L19.5,39.75C19.5,38.358 18.947,37.022 17.962,36.038C16.978,35.053 15.642,34.5 14.25,34.5ZM6,28.545L6,26.94C6.001,26.161 6.311,25.413 6.862,24.862C7.414,24.311 8.161,24.001 8.94,24L10.56,24C11.339,24.001 12.086,24.311 12.638,24.862C13.189,25.413 13.499,26.161 13.5,26.94L13.5,28.545C13.501,29.419 13.244,30.274 12.761,31.003C12.278,31.731 11.591,32.301 10.785,32.64C10.458,32.781 10.106,32.854 9.75,32.854C9.394,32.854 9.042,32.781 8.715,32.64C7.909,32.301 7.222,31.731 6.739,31.003C6.256,30.274 5.999,29.419 6,28.545ZM11.25,34.065L11.25,34.5C11.25,34.898 11.092,35.279 10.811,35.561C10.529,35.842 10.148,36 9.75,36C9.352,36 8.971,35.842 8.689,35.561C8.408,35.279 8.25,34.898 8.25,34.5L8.25,34.065C8.725,34.263 9.235,34.365 9.75,34.365C10.265,34.365 10.775,34.263 11.25,34.065ZM18,45.75C18,45.949 17.921,46.14 17.78,46.28C17.64,46.421 17.449,46.5 17.25,46.5L15,46.5L15,42.75C15,42.551 14.921,42.36 14.78,42.22C14.64,42.079 14.449,42 14.25,42C14.051,42 13.86,42.079 13.72,42.22C13.579,42.36 13.5,42.551 13.5,42.75L13.5,46.5L6,46.5L6,42.75C6,42.551 5.921,42.36 5.78,42.22C5.64,42.079 5.449,42 5.25,42C5.051,42 4.86,42.079 4.72,42.22C4.579,42.36 4.5,42.551 4.5,42.75L4.5,46.5L2.25,46.5C2.051,46.5 1.86,46.421 1.72,46.28C1.579,46.14 1.5,45.949 1.5,45.75L1.5,39.75C1.5,38.755 1.895,37.802 2.598,37.098C3.302,36.395 4.255,36 5.25,36L7.167,36C7.427,36.455 7.803,36.834 8.256,37.097C8.71,37.361 9.225,37.5 9.749,37.5C10.274,37.5 10.789,37.361 11.242,37.097C11.696,36.834 12.072,36.455 12.332,36L14.25,36C14.742,36 15.23,36.097 15.685,36.285C16.14,36.474 16.553,36.75 16.902,37.098C17.25,37.447 17.526,37.86 17.715,38.315C17.903,38.77 18,39.257 18,39.75L18,45.75ZM23.25,6L24.75,6C25.148,6 25.529,6.158 25.811,6.439C26.092,6.721 26.25,7.102 26.25,7.5C26.25,7.699 26.329,7.89 26.47,8.03C26.61,8.171 26.801,8.25 27,8.25C27.199,8.25 27.39,8.171 27.53,8.03C27.671,7.89 27.75,7.699 27.75,7.5C27.748,6.705 27.431,5.943 26.869,5.381C26.307,4.819 25.545,4.502 24.75,4.5L24.75,3.75C24.75,3.551 24.671,3.36 24.53,3.22C24.39,3.079 24.199,3 24,3C23.801,3 23.61,3.079 23.47,3.22C23.329,3.36 23.25,3.551 23.25,3.75L23.25,4.5C22.454,4.5 21.691,4.816 21.129,5.379C20.566,5.941 20.25,6.704 20.25,7.5C20.25,8.296 20.566,9.059 21.129,9.621C21.691,10.184 22.454,10.5 23.25,10.5L24.75,10.5C25.148,10.5 25.529,10.658 25.811,10.939C26.092,11.221 26.25,11.602 26.25,12C26.25,12.398 26.092,12.779 25.811,13.061C25.529,13.342 25.148,13.5 24.75,13.5L23.25,13.5C22.852,13.5 22.471,13.342 22.189,13.061C21.908,12.779 21.75,12.398 21.75,12C21.75,11.801 21.671,11.61 21.53,11.47C21.39,11.329 21.199,11.25 21,11.25C20.801,11.25 20.61,11.329 20.47,11.47C20.329,11.61 20.25,11.801 20.25,12C20.252,12.795 20.569,13.557 21.131,14.119C21.693,14.681 22.455,14.998 23.25,15L23.25,15.75C23.25,15.949 23.329,16.14 23.47,16.28C23.61,16.421 23.801,16.5 24,16.5C24.199,16.5 24.39,16.421 24.53,16.28C24.671,16.14 24.75,15.949 24.75,15.75L24.75,15C25.546,15 26.309,14.684 26.871,14.121C27.434,13.559 27.75,12.796 27.75,12C27.75,11.204 27.434,10.441 26.871,9.879C26.309,9.316 25.546,9 24.75,9L23.25,9C22.852,9 22.471,8.842 22.189,8.561C21.908,8.279 21.75,7.898 21.75,7.5C21.75,7.102 21.908,6.721 22.189,6.439C22.471,6.158 22.852,6 23.25,6ZM33.72,10.5C33.73,10.5 33.739,10.5 33.75,10.5L35.25,10.5C35.847,10.5 36.419,10.737 36.841,11.159C37.263,11.581 37.5,12.153 37.5,12.75L37.5,18.45L36.659,17.608C36.517,17.472 36.328,17.396 36.131,17.398C35.934,17.4 35.746,17.478 35.607,17.618C35.468,17.757 35.389,17.945 35.387,18.141C35.386,18.338 35.461,18.527 35.598,18.669L37.717,20.788C37.787,20.858 37.87,20.914 37.961,20.952C38.052,20.989 38.15,21.009 38.249,21.009C38.347,21.009 38.445,20.989 38.536,20.952C38.627,20.914 38.71,20.858 38.78,20.788L40.899,18.669C41.036,18.527 41.111,18.338 41.11,18.141C41.108,17.945 41.029,17.757 40.89,17.618C40.751,17.478 40.563,17.4 40.366,17.398C40.169,17.396 39.98,17.472 39.839,17.608L39,18.45L39,12.75C39,11.755 38.605,10.802 37.902,10.098C37.198,9.395 36.245,9 35.25,9L33.75,9C33.739,9 33.73,9 33.72,9C33.528,6.554 32.42,4.27 30.619,2.605C28.817,0.939 26.454,0.014 24,0.014C21.546,0.014 19.183,0.939 17.381,2.605C15.58,4.27 14.472,6.554 14.28,9L12.75,9C11.755,9 10.802,9.395 10.098,10.098C9.395,10.802 9,11.755 9,12.75L9,18.45L8.158,17.608C8.017,17.472 7.828,17.396 7.631,17.398C7.434,17.4 7.246,17.478 7.107,17.618C6.968,17.757 6.889,17.945 6.887,18.141C6.886,18.338 6.961,18.527 7.098,18.669L9.219,20.79C9.289,20.86 9.371,20.915 9.463,20.953C9.554,20.991 9.651,21.01 9.75,21.01C9.849,21.01 9.946,20.991 10.037,20.953C10.129,20.915 10.211,20.86 10.281,20.79L12.4,18.67C12.537,18.529 12.613,18.34 12.611,18.143C12.609,17.946 12.53,17.758 12.391,17.619C12.252,17.48 12.064,17.401 11.868,17.399C11.671,17.398 11.481,17.473 11.34,17.61L10.5,18.45L10.5,12.75C10.5,12.153 10.737,11.581 11.159,11.159C11.581,10.737 12.153,10.5 12.75,10.5L14.28,10.5C14.472,12.946 15.58,15.229 17.381,16.895C19.183,18.561 21.546,19.486 24,19.486C26.454,19.486 28.817,18.561 30.619,16.895C32.42,15.229 33.528,12.946 33.72,10.5ZM24,18C22.368,18 20.773,17.516 19.417,16.61C18.06,15.703 17.002,14.415 16.378,12.907C15.754,11.4 15.59,9.741 15.909,8.14C16.227,6.54 17.013,5.07 18.166,3.916C19.32,2.762 20.79,1.977 22.391,1.658C23.991,1.34 25.65,1.503 27.157,2.128C28.665,2.752 29.953,3.81 30.86,5.166C31.766,6.523 32.25,8.118 32.25,9.75C32.246,11.937 31.376,14.033 29.829,15.579C28.283,17.125 26.187,17.996 24,18Z" fill="#FFFFFF"/>
</svg>
