<svg width="54" height="54" viewBox="0 0 54 54" fill="none" xmlns="http://www.w3.org/2000/svg" xmlns:xlink="http://www.w3.org/1999/xlink">
<path d="M25.995,-0.668C40.723,-0.668 52.662,11.271 52.662,25.999C52.662,40.727 40.723,52.665 25.995,52.665C11.267,52.665 -0.672,40.727 -0.672,25.999C-0.672,11.271 11.267,-0.668 25.995,-0.668ZM25.995,4.665C20.337,4.665 14.911,6.913 10.91,10.914C6.909,14.915 4.661,20.341 4.661,25.999C4.661,31.657 6.909,37.083 10.91,41.084C14.911,45.084 20.337,47.332 25.995,47.332C31.653,47.332 37.079,45.084 41.08,41.084C45.081,37.083 47.328,31.657 47.328,25.999C47.328,20.341 45.081,14.915 41.08,10.914C37.079,6.913 31.653,4.665 25.995,4.665ZM25.995,9.999C26.648,9.999 27.278,10.239 27.767,10.673C28.255,11.107 28.566,11.705 28.643,12.353L28.662,12.665L28.662,24.895L35.88,32.113C36.358,32.593 36.636,33.237 36.657,33.914C36.677,34.592 36.44,35.251 35.992,35.759C35.543,36.268 34.919,36.586 34.244,36.65C33.57,36.715 32.896,36.52 32.36,36.105L32.11,35.884L24.11,27.884C23.695,27.469 23.429,26.929 23.352,26.348L23.328,25.999L23.328,12.665C23.328,11.958 23.609,11.28 24.109,10.78C24.609,10.28 25.288,9.999 25.995,9.999Z" fill="#1C75BC"/>
</svg>
