<svg width="40" height="38" viewBox="0 0 40 38" fill="none" xmlns="http://www.w3.org/2000/svg" xmlns:xlink="http://www.w3.org/1999/xlink">
<path d="M33.44,23.682C34.14,21.982 34.52,20.162 34.52,18.162C34.52,16.722 34.3,15.342 33.92,14.062C32.62,14.362 31.26,14.522 29.84,14.522C26.932,14.525 24.066,13.829 21.483,12.492C18.9,11.155 16.677,9.217 15,6.842C13.206,11.182 9.822,14.673 5.54,16.602C5.46,17.102 5.46,17.642 5.46,18.162C5.46,20.071 5.836,21.962 6.567,23.726C7.298,25.49 8.368,27.093 9.719,28.443C12.445,31.17 16.144,32.702 20,32.702C22.1,32.702 24.12,32.242 25.94,31.422C27.08,33.602 27.6,34.682 27.56,34.682C24.28,35.782 21.74,36.322 20,36.322C15.16,36.322 10.54,34.422 7.14,31.002C5.072,28.94 3.535,26.408 2.66,23.622L0,23.622L0,14.522L2.18,14.522C2.84,11.307 4.359,8.33 6.574,5.909C8.79,3.487 11.619,1.71 14.763,0.767C17.907,-0.176 21.247,-0.251 24.43,0.551C27.612,1.353 30.519,3.001 32.84,5.322C35.36,7.832 37.08,11.034 37.78,14.522L40,14.522L40,23.622L39.88,23.622L32.76,30.162L22.16,28.962L22.16,25.622L31.82,25.622L33.44,23.682ZM14.54,17.702C15.14,17.702 15.72,17.942 16.14,18.382C16.562,18.807 16.799,19.382 16.799,19.982C16.799,20.581 16.562,21.156 16.14,21.582C15.72,22.002 15.14,22.242 14.54,22.242C13.28,22.242 12.26,21.242 12.26,19.982C12.26,18.722 13.28,17.702 14.54,17.702ZM25.44,17.702C26.7,17.702 27.7,18.722 27.7,19.982C27.7,21.242 26.7,22.242 25.44,22.242C24.18,22.242 23.16,21.242 23.16,19.982C23.16,19.377 23.4,18.797 23.828,18.369C24.255,17.942 24.835,17.702 25.44,17.702Z" fill="#7D8198"/>
</svg>
